// Created by Crowbar 0.33.0.0
version 1
nodes
  0 "Antlion.Body_Bone" -1
  1 "Antlion.Chest_Bone" 0
  2 "Antlion.ArmR1_Bone" 1
  3 "Antlion.ArmR2_Bone" 2
  4 "Antlion.ArmR3_Bone" 3
  5 "Antlion.ArmL1_Bone" 1
  6 "Antlion.ArmL2_Bone" 5
  7 "Antlion.ArmL3_Bone" 6
  8 "Antlion.Head_Bone" 1
  9 "Antlion.FangBottomL1_Bone" 8
  10 "Antlion.FangBottomL2_Bone" 9
  11 "Antlion.FangBottomR1_Bone" 8
  12 "Antlion.FangBottomR2_Bone" 11
  13 "Antlion.FangTopL1_Bone" 8
  14 "Antlion.FangTopL2_Bone" 13
  15 "Antlion.FangTopR1_Bone" 8
  16 "Antlion.FangTopR2_Bone" 15
  17 "Antlion.LegMidL1_Bone" 0
  18 "Antlion.LegMidL2_Bone" 17
  19 "Antlion.LegMidL3_Bone" 18
  20 "Antlion.LegMidR1_Bone" 0
  21 "Antlion.LegMidR2_Bone" 20
  22 "Antlion.LegMidR3_Bone" 21
  23 "Antlion.Back_Bone" 0
  24 "Antlion.LegShoulder_R_Bone" 23
  25 "Antlion.LegL1_Bone" 24
  26 "Antlion.LegL2_Bone" 25
  27 "Antlion.LegL3_Bone" 26
  28 "Antlion.LegShoulder_L_Bone" 23
  29 "Antlion.LegR1_Bone" 28
  30 "Antlion.LegR2_Bone" 29
  31 "Antlion.LegR3_Bone" 30
  32 "Antlion.WingL_Bone" 0
  33 "Antlion.WingR_Bone" 0
  34 "Antlion.bone" 23
end
skeleton
  time 0
    0 -1.012679 0.993816 43.147864 1.691456 0.857699 1.873539
    1 -5.574535 -0.119304 0.054231 0.001450 -0.103828 -0.642331
    2 -5.513216 -2.701017 -3.989360 0.026957 0.199853 -2.541817
    3 10.569403 0.000000 0.000000 0.000000 0.000000 -1.678123
    4 13.357940 0.000000 0.000000 0.000000 0.000000 1.608368
    5 -5.436410 -2.626257 3.516682 3.093635 -0.340757 -2.646887
    6 10.523520 0.000000 0.000000 0.000000 0.000000 1.634697
    7 13.611949 0.000001 0.000000 0.000000 0.000000 -1.537356
    8 -8.417345 1.069929 -0.018171 -0.012711 -0.157965 1.325312
    9 -9.984112 -4.710447 3.170796 -2.902498 -0.005368 -2.718128
    10 5.945618 0.000000 0.000000 0.000000 0.000000 0.734086
    11 -9.984110 -4.710446 -2.998739 -0.207125 0.046880 -2.710466
    12 5.945625 0.000000 0.000000 0.000000 0.000000 -0.747037
    13 -13.167568 0.616876 1.590356 3.140739 -0.157522 -3.136150
    14 1.939788 0.000000 0.000000 3.040688 0.121169 2.449692
    15 -13.157713 0.632509 -1.795553 1.570796 0.016921 -3.058550
    16 2.215697 0.000000 -0.000001 1.570796 -0.608107 -3.124672
    17 -2.618796 -6.269598 8.263164 -2.559390 0.059381 -0.910251
    18 11.485748 0.000000 0.000000 0.000000 0.000000 -1.700542
    19 24.536900 -0.000001 -0.000001 0.000000 0.000000 1.903269
    20 -2.618795 -6.269599 -8.136835 -0.147129 -0.126521 -0.659468
    21 11.659968 0.000000 0.000000 0.000000 0.000000 1.487669
    22 25.724375 0.000000 0.000000 0.000000 0.000000 -1.408031
    23 3.880159 -0.980432 0.090609 -0.183324 -0.165025 0.712198
    24 13.389691 0.268266 -6.517195 0.542283 1.306249 -0.395924
    25 9.913784 0.000001 0.000000 1.406127 -0.318330 -1.269340
    26 21.016012 0.000002 -0.000001 0.000000 0.000000 -1.354247
    27 28.471630 -0.000002 0.000002 0.000000 0.000000 1.231965
    28 13.389687 0.268266 6.023556 -0.462585 -1.348926 -0.488759
    29 9.768897 0.000001 0.000001 -1.588955 -0.301804 -1.588756
    30 19.931143 0.000001 -0.000001 0.000000 0.000000 -0.000053
    31 26.044123 -0.000001 -0.000001 0.000000 0.000000 0.000064
    32 -5.849911 4.319725 0.063164 0.568881 0.030082 0.652961
    33 -5.827133 4.411094 0.063164 -0.222534 0.035819 0.653584
    34 13.389687 0.268266 6.023556 -0.462585 -1.348926 -0.488759
  time 1
    0 -0.950177 0.993816 42.686349 1.817191 0.873184 1.868852
    1 -5.574535 -0.119304 0.054231 -0.111193 -0.152357 -0.633101
    2 -5.513216 -2.701017 -3.989360 0.046208 0.197296 -2.495925
    3 10.569403 0.000000 0.000000 0.000000 0.000000 -1.647558
    4 13.357940 0.000000 0.000000 0.000000 0.000000 1.563374
    5 -5.436410 -2.626257 3.516682 3.094687 -0.343218 -2.652425
    6 10.523520 0.000000 0.000000 0.000000 0.000000 1.644069
    7 13.611949 0.000001 0.000000 0.000000 0.000000 -1.551181
    8 -8.417345 1.069929 -0.018171 0.002933 -0.139483 1.331677
    9 -9.984112 -4.710447 3.170796 -2.902498 -0.005368 -2.718128
    10 5.945618 0.000000 0.000000 0.000000 0.000000 0.734086
    11 -9.984110 -4.710446 -2.998739 -0.207125 0.046880 -2.710466
    12 5.945625 0.000000 0.000000 0.000000 0.000000 -0.747037
    13 -13.167568 0.616876 1.590356 3.140739 -0.157522 -3.136150
    14 1.939788 0.000000 0.000000 3.040688 0.121169 2.449692
    15 -13.157713 0.632509 -1.795553 1.570796 0.016921 -3.058550
    16 2.215697 0.000000 -0.000001 1.570796 -0.608107 -3.124672
    17 -2.618796 -6.269598 8.263164 -2.663603 -0.062974 -0.644190
    18 11.485748 0.000000 0.000000 0.000000 0.000000 -1.624308
    19 24.536900 -0.000001 -0.000001 0.000000 0.000000 1.741847
    20 -2.618795 -6.269599 -8.136835 -0.286916 -0.255804 -0.485505
    21 11.659968 0.000000 0.000000 0.000000 0.000000 1.226874
    22 25.724375 0.000000 0.000000 0.000000 0.000000 -0.951541
    23 3.880159 -0.980432 0.090609 -0.159912 -0.240846 0.866483
    24 13.389691 0.268266 -6.517195 0.542283 1.306249 -0.395924
    25 9.913784 0.000001 0.000000 1.447528 -0.337210 -1.456304
    26 21.016012 0.000002 -0.000001 0.000000 0.000000 -1.504273
    27 28.471630 -0.000002 0.000002 0.000000 0.000000 1.468197
    28 13.389687 0.268266 6.023556 -0.462585 -1.348926 -0.488759
    29 9.768897 0.000001 0.000001 -1.631232 -0.306469 -1.400461
    30 19.931143 0.000001 -0.000001 0.000000 0.000000 -0.000053
    31 26.044123 -0.000001 -0.000001 0.000000 0.000000 0.000064
    32 -5.849911 4.319725 0.063164 0.514376 0.077950 0.727804
    33 -5.827133 4.411094 0.063164 -0.277038 0.083709 0.728107
    34 13.389687 0.268266 6.023556 -0.462585 -1.348926 -0.488759
  time 2
    0 -0.825173 0.993816 41.746227 1.924252 0.874975 1.871289
    1 -5.574535 -0.119304 0.054231 -0.115890 -0.189403 -0.622529
    2 -5.513216 -2.701017 -3.989360 0.064576 0.214528 -2.473517
    3 10.569403 0.000000 0.000000 0.000000 0.000000 -1.633743
    4 13.357940 0.000000 0.000000 0.000000 0.000000 1.543151
    5 -5.436410 -2.626257 3.516682 3.093518 -0.348830 -2.656905
    6 10.523520 0.000000 0.000000 0.000000 0.000000 1.672610
    7 13.611949 0.000001 0.000000 0.000000 0.000000 -1.593383
    8 -8.417345 1.069929 -0.018171 0.025013 -0.094960 1.338976
    9 -9.984112 -4.710447 3.170796 -2.902498 -0.005368 -2.718128
    10 5.945618 0.000000 0.000000 0.000000 0.000000 0.734086
    11 -9.984110 -4.710446 -2.998739 -0.207125 0.046880 -2.710466
    12 5.945625 0.000000 0.000000 0.000000 0.000000 -0.747037
    13 -13.167568 0.616876 1.590356 3.140739 -0.157522 -3.136150
    14 1.939788 0.000000 0.000000 3.040688 0.121169 2.449692
    15 -13.157713 0.632509 -1.795553 1.570796 0.016921 -3.058550
    16 2.215697 0.000000 -0.000001 1.570796 -0.608107 -3.124672
    17 -2.618796 -6.269598 8.263164 -2.840525 -0.138831 -0.456976
    18 11.485748 0.000000 0.000000 0.000000 0.000000 -1.469228
    19 24.536900 -0.000001 -0.000001 0.000000 0.000000 1.427468
    20 -2.618795 -6.269599 -8.136835 -0.682995 -0.269561 -0.052692
    21 11.659968 0.000000 0.000000 0.000000 0.000000 0.498910
    22 25.724375 0.000000 0.000000 0.000000 0.000000 -0.195288
    23 3.880159 -0.980432 0.090609 -0.103112 -0.313358 0.927199
    24 13.389691 0.268266 -6.517195 0.542283 1.306249 -0.395924
    25 9.913784 0.000001 0.000000 1.523248 -0.397225 -1.595263
    26 21.016012 0.000002 -0.000001 0.000000 0.000000 -1.651070
    27 28.471630 -0.000002 0.000002 0.000000 0.000000 1.718633
    28 13.389687 0.268266 6.023556 -0.462585 -1.348926 -0.488759
    29 9.768897 0.000001 0.000001 -1.618415 -0.053885 -1.214838
    30 19.931143 0.000001 -0.000001 0.000000 0.000000 -0.417111
    31 26.044123 -0.000001 -0.000001 0.000000 0.000000 0.241826
    32 -5.849911 4.319725 0.063164 0.492350 0.097331 0.774629
    33 -5.827133 4.411094 0.063164 -0.299066 0.103129 0.774818
    34 13.389687 0.268266 6.023556 -0.462585 -1.348926 -0.488759
  time 3
    0 -0.727514 0.993816 41.079594 1.882117 0.877029 1.875227
    1 -5.574535 -0.119304 0.054231 -0.059805 -0.183579 -0.607023
    2 -5.513216 -2.701017 -3.989360 0.070805 0.229277 -2.476742
    3 10.569403 0.000000 0.000000 0.000000 0.000000 -1.658033
    4 13.357940 0.000000 0.000000 0.000000 0.000000 1.578698
    5 -5.436410 -2.626257 3.516682 3.071788 -0.384125 -2.647074
    6 10.523520 0.000000 0.000000 0.000000 0.000000 1.712067
    7 13.611949 0.000001 0.000000 0.000000 0.000000 -1.652466
    8 -8.417345 1.069929 -0.018171 0.008409 -0.105150 1.346355
    9 -9.984112 -4.710447 3.170796 -2.902498 -0.005368 -2.718128
    10 5.945618 0.000000 0.000000 0.000000 0.000000 0.734086
    11 -9.984110 -4.710446 -2.998739 -0.207125 0.046880 -2.710466
    12 5.945625 0.000000 0.000000 0.000000 0.000000 -0.747037
    13 -13.167568 0.616876 1.590356 3.140739 -0.157522 -3.136150
    14 1.939788 0.000000 0.000000 3.040688 0.121169 2.449692
    15 -13.157713 0.632509 -1.795553 1.570796 0.016921 -3.058550
    16 2.215697 0.000000 -0.000001 1.570796 -0.608107 -3.124672
    17 -2.618796 -6.269598 8.263164 -2.875202 -0.121907 -0.336320
    18 11.485748 0.000000 0.000000 0.000000 0.000000 -1.176862
    19 24.536900 -0.000001 -0.000001 0.000000 0.000000 0.911395
    20 -2.618795 -6.269599 -8.136835 -0.290065 -0.171065 -0.203672
    21 11.659968 0.000000 0.000000 0.000000 0.000000 0.775392
    22 25.724375 0.000000 0.000000 0.000000 0.000000 -0.393909
    23 3.880159 -0.980432 0.090609 -0.038968 -0.323831 0.809721
    24 13.389691 0.268266 -6.517195 0.542283 1.306249 -0.395924
    25 9.913784 0.000001 0.000000 1.589031 -0.462170 -1.478160
    26 21.016012 0.000002 -0.000001 0.000000 0.000000 -1.870019
    27 28.471630 -0.000002 0.000002 0.000000 0.000000 2.124106
    28 13.389687 0.268266 6.023556 -0.462585 -1.348926 -0.488759
    29 9.768897 0.000001 0.000001 -1.572504 0.245681 -1.200905
    30 19.931143 0.000001 -0.000001 0.000000 0.000000 -0.944589
    31 26.044123 -0.000001 -0.000001 0.000000 0.000000 0.731624
    32 -5.849911 4.319725 0.063164 0.563316 0.024048 0.737783
    33 -5.827133 4.411094 0.063164 -0.228092 0.029794 0.738357
    34 13.389687 0.268266 6.023556 -0.462585 -1.348926 -0.488759
  time 4
    0 -0.696263 0.993816 41.096687 1.795740 0.877766 1.880102
    1 -5.574535 -0.119304 0.054231 -0.002207 -0.173321 -0.590309
    2 -5.513216 -2.701017 -3.989360 0.069582 0.241863 -2.494271
    3 10.569403 0.000000 0.000000 0.000000 0.000000 -1.691229
    4 13.357940 0.000000 0.000000 0.000000 0.000000 1.627682
    5 -5.436410 -2.626257 3.516682 3.039161 -0.434634 -2.627786
    6 10.523520 0.000000 0.000000 0.000000 0.000000 1.752110
    7 13.611949 0.000001 0.000000 0.000000 0.000000 -1.713005
    8 -8.417345 1.069929 -0.018171 -0.021760 -0.121651 1.363547
    9 -9.984112 -4.710447 3.170796 -2.902498 -0.005368 -2.718128
    10 5.945618 0.000000 0.000000 0.000000 0.000000 0.734086
    11 -9.984110 -4.710446 -2.998739 -0.207125 0.046880 -2.710466
    12 5.945625 0.000000 0.000000 0.000000 0.000000 -0.747037
    13 -13.167568 0.616876 1.590356 3.140739 -0.157522 -3.136150
    14 1.939788 0.000000 0.000000 3.040688 0.121169 2.449692
    15 -13.157713 0.632509 -1.795553 1.570796 0.016921 -3.058550
    16 2.215697 0.000000 -0.000001 1.570796 -0.608107 -3.124672
    17 -2.618796 -6.269598 8.263164 -2.357134 -0.241447 0.292350
    18 11.485748 0.000000 0.000000 0.000000 0.000000 -0.000056
    19 24.536900 -0.000001 -0.000001 0.000000 0.000000 0.000000
    20 -2.618795 -6.269599 -8.136835 -0.180049 -0.090056 -0.401380
    21 11.659968 0.000000 0.000000 0.000000 0.000000 1.432243
    22 25.724375 0.000000 0.000000 0.000000 0.000000 -1.303740
    23 3.880159 -0.980432 0.090609 0.002437 -0.285473 0.673444
    24 13.389691 0.268266 -6.517195 0.542283 1.306249 -0.395924
    25 9.913784 0.000001 0.000000 1.645061 -0.491042 -1.204633
    26 21.016012 0.000002 -0.000001 0.000000 0.000000 -2.066768
    27 28.471630 -0.000002 0.000002 0.000000 0.000000 2.527722
    28 13.389687 0.268266 6.023556 -0.462585 -1.348926 -0.488759
    29 9.768897 0.000001 0.000001 -1.533671 0.393722 -1.237457
    30 19.931143 0.000001 -0.000001 0.000000 0.000000 -1.337772
    31 26.044123 -0.000001 -0.000001 0.000000 0.000000 1.296781
    32 -5.849911 4.319725 0.063164 0.646507 -0.059509 0.680157
    33 -5.827133 4.411094 0.063164 -0.144977 -0.053825 0.681183
    34 13.389687 0.268266 6.023556 -0.462585 -1.348926 -0.488759
  time 5
    0 -0.700169 0.993816 41.494103 1.704001 0.877503 1.884414
    1 -5.574535 -0.119304 0.054231 0.028689 -0.176363 -0.570574
    2 -5.513216 -2.701017 -3.989360 0.056966 0.239553 -2.520484
    3 10.569403 0.000000 0.000000 0.000000 0.000000 -1.709699
    4 13.357940 0.000000 0.000000 0.000000 0.000000 1.655182
    5 -5.436410 -2.626257 3.516682 3.020353 -0.464727 -2.617084
    6 10.523520 0.000000 0.000000 0.000000 0.000000 1.771386
    7 13.611949 0.000001 0.000000 0.000000 0.000000 -1.742401
    8 -8.417345 1.069929 -0.018171 -0.007236 -0.206846 1.368493
    9 -9.984112 -4.710447 3.170796 -2.902498 -0.005368 -2.718128
    10 5.945618 0.000000 0.000000 0.000000 0.000000 0.734086
    11 -9.984110 -4.710446 -2.998739 -0.207125 0.046880 -2.710466
    12 5.945625 0.000000 0.000000 0.000000 0.000000 -0.747037
    13 -13.167568 0.616876 1.590356 3.140739 -0.157522 -3.136150
    14 1.939788 0.000000 0.000000 3.040688 0.121169 2.449692
    15 -13.157713 0.632509 -1.795553 1.570796 0.016921 -3.058550
    16 2.215697 0.000000 -0.000001 1.570796 -0.608107 -3.124672
    17 -2.618796 -6.269598 8.263164 -2.637310 -0.016868 -0.188760
    18 11.485748 0.000000 0.000000 0.000000 0.000000 -1.030289
    19 24.536900 -0.000001 -0.000001 0.000000 0.000000 0.700310
    20 -2.618795 -6.269599 -8.136835 -0.029575 0.088082 -0.623787
    21 11.659968 0.000000 0.000000 0.000000 0.000000 1.766958
    22 25.724375 0.000000 0.000000 0.000000 0.000000 -1.974981
    23 3.880159 -0.980432 0.090609 -0.016710 -0.207687 0.648562
    24 13.389691 0.268266 -6.517195 0.542283 1.306249 -0.395924
    25 9.913784 0.000001 0.000000 1.603383 -0.324039 -1.096596
    26 21.016012 0.000002 -0.000001 0.000000 0.000000 -2.118249
    27 28.471630 -0.000002 0.000002 0.000000 0.000000 2.651277
    28 13.389687 0.268266 6.023556 -0.462585 -1.348926 -0.488759
    29 9.768897 0.000001 0.000001 -1.552992 0.439456 -1.340718
    30 19.931143 0.000001 -0.000001 0.000000 0.000000 -1.520135
    31 26.044123 -0.000001 -0.000001 0.000000 0.000000 1.624402
    32 -5.849911 4.319725 0.063164 0.651251 -0.087200 0.683666
    33 -5.827133 4.411094 0.063164 -0.140274 -0.081511 0.684760
    34 13.389687 0.268266 6.023556 -0.462585 -1.348926 -0.488759
  time 6
    0 -0.715795 0.999196 41.959891 1.645394 0.876081 1.886477
    1 -5.574535 -0.119304 0.054231 0.040858 -0.177094 -0.560505
    2 -5.513216 -2.701017 -3.989360 0.034273 0.225861 -2.556370
    3 10.569403 0.000000 0.000000 0.000000 0.000000 -1.719415
    4 13.357940 0.000000 0.000000 0.000000 0.000000 1.669737
    5 -5.436410 -2.626257 3.516682 3.032640 -0.453521 -2.633448
    6 10.523520 0.000000 0.000000 0.000000 0.000000 1.767925
    7 13.611949 0.000001 0.000000 0.000000 0.000000 -1.737089
    8 -8.417345 1.069929 -0.018171 -0.000053 -0.248510 1.373886
    9 -9.984112 -4.710447 3.170796 -2.902498 -0.005368 -2.718128
    10 5.945618 0.000000 0.000000 0.000000 0.000000 0.734086
    11 -9.984110 -4.710446 -2.998739 -0.207125 0.046880 -2.710466
    12 5.945625 0.000000 0.000000 0.000000 0.000000 -0.747037
    13 -13.167568 0.616876 1.590356 3.140739 -0.157522 -3.136150
    14 1.939788 0.000000 0.000000 3.040688 0.121169 2.449692
    15 -13.157713 0.632509 -1.795553 1.570796 0.016921 -3.058550
    16 2.215697 0.000000 -0.000001 1.570796 -0.608107 -3.124672
    17 -2.618796 -6.269598 8.263164 -2.710319 -0.058200 -0.365727
    18 11.485748 0.000000 0.000000 0.000000 0.000000 -1.521830
    19 24.536900 -0.000001 -0.000001 0.000000 0.000000 1.530961
    20 -2.618795 -6.269599 -8.136835 0.024527 0.226688 -1.045870
    21 11.659968 0.000000 0.000000 0.000000 0.000000 1.838521
    22 25.724375 0.000000 0.000000 0.000000 0.000000 -2.126951
    23 3.880159 -0.980432 0.090609 -0.057024 -0.115299 0.653368
    24 13.389691 0.268266 -6.517195 0.542283 1.306249 -0.395924
    25 9.913784 0.000001 0.000000 1.547169 -0.293675 -1.111389
    26 21.016012 0.000002 -0.000001 0.000000 0.000000 -2.007075
    27 28.471630 -0.000002 0.000002 0.000000 0.000000 2.398153
    28 13.389687 0.268266 6.023556 -0.462585 -1.348926 -0.488759
    29 9.768897 0.000001 0.000001 -1.588860 0.461139 -1.414013
    30 19.931143 0.000001 -0.000001 0.000000 0.000000 -1.651232
    31 26.044123 -0.000001 -0.000001 0.000000 0.000000 1.888445
    32 -5.849911 4.319725 0.063164 0.631219 -0.097957 0.704502
    33 -5.827133 4.411094 0.063164 -0.160299 -0.092243 0.705473
    34 13.389687 0.268266 6.023556 -0.462585 -1.348926 -0.488759
  time 7
    0 -0.727514 0.999196 42.182102 1.642713 0.875449 1.889383
    1 -5.574535 -0.119304 0.054231 0.034773 -0.167119 -0.569970
    2 -5.513216 -2.701017 -3.989360 0.011669 0.207277 -2.585890
    3 10.569403 0.000000 0.000000 0.000000 0.000000 -1.717138
    4 13.357940 0.000000 0.000000 0.000000 0.000000 1.666238
    5 -5.436410 -2.626257 3.516682 3.059631 -0.420277 -2.659829
    6 10.523520 0.000000 0.000000 0.000000 0.000000 1.747903
    7 13.611949 0.000001 0.000000 0.000000 0.000000 -1.706529
    8 -8.417345 1.069929 -0.018171 0.004907 -0.229773 1.369588
    9 -9.984112 -4.710447 3.170796 -2.902498 -0.005368 -2.718128
    10 5.945618 0.000000 0.000000 0.000000 0.000000 0.734086
    11 -9.984110 -4.710446 -2.998739 -0.207125 0.046880 -2.710466
    12 5.945625 0.000000 0.000000 0.000000 0.000000 -0.747037
    13 -13.167568 0.616876 1.590356 3.140739 -0.157522 -3.136150
    14 1.939788 0.000000 0.000000 3.040688 0.121169 2.449692
    15 -13.157713 0.632509 -1.795553 1.570796 0.016921 -3.058550
    16 2.215697 0.000000 -0.000001 1.570796 -0.608107 -3.124672
    17 -2.618796 -6.269598 8.263164 -2.673186 -0.000692 -0.700151
    18 11.485748 0.000000 0.000000 0.000000 0.000000 -1.776886
    19 24.536900 -0.000001 -0.000001 0.000000 0.000000 2.068725
    20 -2.618795 -6.269599 -8.136835 -0.174801 0.096452 -1.193104
    21 11.659968 0.000000 0.000000 0.000000 0.000000 1.730274
    22 25.724375 0.000000 0.000000 0.000000 0.000000 -1.897871
    23 3.880159 -0.980432 0.090609 -0.095094 -0.059751 0.662007
    24 13.389691 0.268266 -6.517195 0.542283 1.306249 -0.395924
    25 9.913784 0.000001 0.000000 1.496015 -0.353819 -1.168652
    26 21.016012 0.000002 -0.000001 0.000000 0.000000 -1.654015
    27 28.471630 -0.000002 0.000002 0.000000 0.000000 1.723688
    28 13.389687 0.268266 6.023556 -0.462585 -1.348926 -0.488759
    29 9.768897 0.000001 0.000001 -1.641562 0.464293 -1.382424
    30 19.931143 0.000001 -0.000001 0.000000 0.000000 -1.773908
    31 26.044123 -0.000001 -0.000001 0.000000 0.000000 2.161964
    32 -5.849911 4.319725 0.063164 0.614719 -0.094656 0.709985
    33 -5.827133 4.411094 0.063164 -0.176801 -0.088965 0.710864
    34 13.389687 0.268266 6.023556 -0.462585 -1.348926 -0.488759
  time 8
    0 -0.727514 0.999196 42.070996 1.671059 0.874711 1.892852
    1 -5.574535 -0.119304 0.054231 0.019704 -0.153112 -0.587758
    2 -5.513216 -2.701017 -3.989360 -0.000833 0.190979 -2.594489
    3 10.569403 0.000000 0.000000 0.000000 0.000000 -1.702159
    4 13.357940 0.000000 0.000000 0.000000 0.000000 1.643916
    5 -5.436410 -2.626257 3.516682 3.080361 -0.387817 -2.671713
    6 10.523520 0.000000 0.000000 0.000000 0.000000 1.716913
    7 13.611949 0.000001 0.000000 0.000000 0.000000 -1.659670
    8 -8.417345 1.069929 -0.018171 0.006009 -0.167504 1.358235
    9 -9.984112 -4.710447 3.170796 -2.902498 -0.005368 -2.718128
    10 5.945618 0.000000 0.000000 0.000000 0.000000 0.734086
    11 -9.984110 -4.710446 -2.998739 -0.207125 0.046880 -2.710466
    12 5.945625 0.000000 0.000000 0.000000 0.000000 -0.747037
    13 -13.167568 0.616876 1.590356 3.140739 -0.157522 -3.136150
    14 1.939788 0.000000 0.000000 3.040688 0.121169 2.449692
    15 -13.157713 0.632509 -1.795553 1.570796 0.016921 -3.058550
    16 2.215697 0.000000 -0.000001 1.570796 -0.608107 -3.124672
    17 -2.618796 -6.269598 8.263164 -2.631920 0.120380 -1.132929
    18 11.485748 0.000000 0.000000 0.000000 0.000000 -1.770380
    19 24.536900 -0.000001 -0.000001 0.000000 0.000000 2.054573
    20 -2.618795 -6.269599 -8.136835 -0.175373 -0.006975 -0.936921
    21 11.659968 0.000000 0.000000 0.000000 0.000000 1.711431
    22 25.724375 0.000000 0.000000 0.000000 0.000000 -1.858224
    23 3.880159 -0.980432 0.090609 -0.133741 -0.078955 0.690296
    24 13.389691 0.268266 -6.517195 0.542283 1.306249 -0.395924
    25 9.913784 0.000001 0.000000 1.460501 -0.313334 -1.242904
    26 21.016012 0.000002 -0.000001 0.000000 0.000000 -1.115136
    27 28.471630 -0.000002 0.000002 0.000000 0.000000 0.898603
    28 13.389687 0.268266 6.023556 -0.462585 -1.348926 -0.488759
    29 9.768897 0.000001 0.000001 -1.718367 0.412515 -1.304739
    30 19.931143 0.000001 -0.000001 0.000000 0.000000 -1.863758
    31 26.044123 -0.000001 -0.000001 0.000000 0.000000 2.385735
    32 -5.849911 4.319725 0.063164 0.612099 -0.069925 0.685585
    33 -5.827133 4.411094 0.063164 -0.179394 -0.064221 0.686468
    34 13.389687 0.268266 6.023556 -0.462585 -1.348926 -0.488759
  time 9
    0 -1.012679 0.993816 43.147864 1.691456 0.857699 1.873539
    1 -5.574535 -0.119304 0.054231 0.001450 -0.103828 -0.642331
    2 -5.513216 -2.701017 -3.989360 0.026957 0.199853 -2.541817
    3 10.569403 0.000000 0.000000 0.000000 0.000000 -1.678123
    4 13.357940 0.000000 0.000000 0.000000 0.000000 1.608368
    5 -5.436410 -2.626257 3.516682 3.093635 -0.340757 -2.646887
    6 10.523520 0.000000 0.000000 0.000000 0.000000 1.634697
    7 13.611949 0.000001 0.000000 0.000000 0.000000 -1.537356
    8 -8.417345 1.069929 -0.018171 -0.012711 -0.157965 1.325312
    9 -9.984112 -4.710447 3.170796 -2.902498 -0.005368 -2.718128
    10 5.945618 0.000000 0.000000 0.000000 0.000000 0.734086
    11 -9.984110 -4.710446 -2.998739 -0.207125 0.046880 -2.710466
    12 5.945625 0.000000 0.000000 0.000000 0.000000 -0.747037
    13 -13.167568 0.616876 1.590356 3.140739 -0.157522 -3.136150
    14 1.939788 0.000000 0.000000 3.040688 0.121169 2.449692
    15 -13.157713 0.632509 -1.795553 1.570796 0.016921 -3.058550
    16 2.215697 0.000000 -0.000001 1.570796 -0.608107 -3.124672
    17 -2.618796 -6.269598 8.263164 -2.559390 0.059381 -0.910251
    18 11.485748 0.000000 0.000000 0.000000 0.000000 -1.700542
    19 24.536900 -0.000001 -0.000001 0.000000 0.000000 1.903269
    20 -2.618795 -6.269599 -8.136835 -0.147129 -0.126521 -0.659468
    21 11.659968 0.000000 0.000000 0.000000 0.000000 1.487669
    22 25.724375 0.000000 0.000000 0.000000 0.000000 -1.408031
    23 3.880159 -0.980432 0.090609 -0.183324 -0.165025 0.712198
    24 13.389691 0.268266 -6.517195 0.542283 1.306249 -0.395924
    25 9.913784 0.000001 0.000000 1.406127 -0.318330 -1.269340
    26 21.016012 0.000002 -0.000001 0.000000 0.000000 -1.354247
    27 28.471630 -0.000002 0.000002 0.000000 0.000000 1.231965
    28 13.389687 0.268266 6.023556 -0.462585 -1.348926 -0.488759
    29 9.768897 0.000001 0.000001 -1.588955 -0.301804 -1.588756
    30 19.931143 0.000001 -0.000001 0.000000 0.000000 -0.000053
    31 26.044123 -0.000001 -0.000001 0.000000 0.000000 0.000064
    32 -5.849911 4.319725 0.063164 0.568881 0.030082 0.652961
    33 -5.827133 4.411094 0.063164 -0.222534 0.035819 0.653584
    34 13.389687 0.268266 6.023556 -0.462585 -1.348926 -0.488759
end
