// Created by Crowbar 0.33.0.0
version 1
nodes
  0 "Antlion.Body_Bone" -1
  1 "Antlion.Chest_Bone" 0
  2 "Antlion.ArmR1_Bone" 1
  3 "Antlion.ArmR2_Bone" 2
  4 "Antlion.ArmR3_Bone" 3
  5 "Antlion.ArmL1_Bone" 1
  6 "Antlion.ArmL2_Bone" 5
  7 "Antlion.ArmL3_Bone" 6
  8 "Antlion.Head_Bone" 1
  9 "Antlion.FangBottomL1_Bone" 8
  10 "Antlion.FangBottomL2_Bone" 9
  11 "Antlion.FangBottomR1_Bone" 8
  12 "Antlion.FangBottomR2_Bone" 11
  13 "Antlion.FangTopL1_Bone" 8
  14 "Antlion.FangTopL2_Bone" 13
  15 "Antlion.FangTopR1_Bone" 8
  16 "Antlion.FangTopR2_Bone" 15
  17 "Antlion.LegMidL1_Bone" 0
  18 "Antlion.LegMidL2_Bone" 17
  19 "Antlion.LegMidL3_Bone" 18
  20 "Antlion.LegMidR1_Bone" 0
  21 "Antlion.LegMidR2_Bone" 20
  22 "Antlion.LegMidR3_Bone" 21
  23 "Antlion.Back_Bone" 0
  24 "Antlion.LegShoulder_R_Bone" 23
  25 "Antlion.LegL1_Bone" 24
  26 "Antlion.LegL2_Bone" 25
  27 "Antlion.LegL3_Bone" 26
  28 "Antlion.LegShoulder_L_Bone" 23
  29 "Antlion.LegR1_Bone" 28
  30 "Antlion.LegR2_Bone" 29
  31 "Antlion.LegR3_Bone" 30
  32 "Antlion.WingL_Bone" 0
  33 "Antlion.WingR_Bone" 0
  34 "Antlion.bone" 23
end
skeleton
  time 0
    0 -0.204061 0.003991 27.580286 1.532491 -0.195256 1.481937
    1 -5.574535 -0.119304 0.054231 0.003405 0.069847 -0.205781
    2 -5.513216 -2.701017 -3.989360 0.393185 -0.134116 -0.907903
    3 10.569403 0.000000 0.000000 0.000000 0.000000 -2.446638
    4 13.357940 0.000000 0.000000 0.000000 0.000000 2.905515
    5 -5.436410 -2.626257 3.516682 2.761736 0.125569 -0.929008
    6 10.523520 0.000000 0.000000 0.000000 0.000000 2.454404
    7 13.611949 0.000001 0.000000 0.000000 0.000000 -2.922465
    8 -8.417345 1.069929 -0.018171 -0.010560 -0.015086 -0.123929
    9 -9.984112 -4.710447 3.170796 -2.902516 -0.005546 -2.717710
    10 5.945618 0.000000 0.000000 0.000000 0.000000 0.735012
    11 -9.984110 -4.710446 -2.998739 -0.223381 0.004087 -2.697966
    12 5.945625 0.000000 0.000000 0.000000 0.000000 -0.753546
    13 -13.167568 0.616876 1.590356 3.140739 -0.157522 -3.136150
    14 1.939788 0.000000 0.000000 3.040688 0.121169 2.449692
    15 -13.157713 0.632509 -1.795553 1.570796 0.016921 -3.058550
    16 2.215697 0.000000 -0.000001 1.570796 -0.608107 -3.124672
    17 -2.618796 -6.269598 8.263164 -2.363123 -0.815881 -1.231981
    18 11.485748 0.000000 0.000000 0.000000 0.000000 -0.396235
    19 24.536900 -0.000001 -0.000001 0.000000 0.000000 0.147402
    20 -2.618795 -6.269599 -8.136835 -1.306550 0.952002 -1.483572
    21 11.659968 0.000000 0.000000 0.000000 0.000000 0.570674
    22 25.724375 0.000000 0.000000 0.000000 0.000000 -0.238083
    23 3.880159 -0.980432 0.090609 0.002502 0.184005 0.433256
    24 13.389691 0.268266 -6.517195 0.542283 1.306249 -0.395924
    25 9.913784 0.000001 0.000000 1.367853 0.512141 -1.869171
    26 21.016012 0.000002 -0.000001 0.000000 0.000000 -2.098880
    27 28.471630 -0.000002 0.000002 0.000000 0.000000 2.602776
    28 13.389687 0.268266 6.023556 -0.462585 -1.348926 -0.488759
    29 9.768897 0.000001 0.000001 -1.338453 -0.318559 -1.748993
    30 19.931143 0.000001 -0.000001 0.000000 0.000000 -1.962666
    31 26.044123 -0.000001 -0.000001 0.000000 0.000000 2.706056
    32 -5.849911 4.319725 0.063164 0.504001 0.071120 0.390106
    33 -5.827133 4.411094 0.063164 -0.287408 0.076872 0.390350
    34 13.389687 0.268266 6.023556 -0.462585 -1.348926 -0.488759
  time 1
    0 -0.204061 0.003991 27.238423 1.541110 -0.184722 1.487937
    1 -5.574535 -0.119304 0.054231 0.002396 0.059849 -0.217394
    2 -5.513216 -2.701017 -3.989360 0.388066 -0.130183 -0.881608
    3 10.569403 0.000000 0.000000 0.000000 0.000000 -2.449725
    4 13.357940 0.000000 0.000000 0.000000 0.000000 2.915241
    5 -5.436410 -2.626257 3.516682 2.766646 0.127396 -0.899142
    6 10.523520 0.000000 0.000000 0.000000 0.000000 2.454777
    7 13.611949 0.000001 0.000000 0.000000 0.000000 -2.923630
    8 -8.417345 1.069929 -0.018171 -0.044231 -0.021256 -0.130740
    9 -9.984112 -4.710447 3.170796 -2.902516 -0.005523 -2.717823
    10 5.945618 0.000000 0.000000 0.000000 0.000000 0.734813
    11 -9.984110 -4.710446 -2.998739 -0.223381 0.004075 -2.698047
    12 5.945625 0.000000 0.000000 0.000000 0.000000 -0.753343
    13 -13.167568 0.616876 1.590356 3.140739 -0.157522 -3.136150
    14 1.939788 0.000000 0.000000 3.040688 0.121169 2.449692
    15 -13.157713 0.632509 -1.795553 1.570796 0.016921 -3.058550
    16 2.215697 0.000000 -0.000001 1.570796 -0.608107 -3.124672
    17 -2.618796 -6.269598 8.263164 -2.077317 -0.507250 -1.315834
    18 11.485748 0.000000 0.000000 0.000000 0.000000 -1.107913
    19 24.536900 -0.000001 -0.000001 0.000000 0.000000 0.807439
    20 -2.618795 -6.269599 -8.136835 -1.233364 1.116797 -1.323386
    21 11.659968 0.000000 0.000000 0.000000 0.000000 0.367410
    22 25.724375 0.000000 0.000000 0.000000 0.000000 -0.129423
    23 3.880159 -0.980432 0.090609 0.001636 0.172040 0.455705
    24 13.389691 0.268266 -6.517195 0.542283 1.306249 -0.395924
    25 9.913784 0.000001 0.000000 1.351108 0.376216 -1.725727
    26 21.016012 0.000002 -0.000001 0.000000 0.000000 -2.034486
    27 28.471630 -0.000002 0.000002 0.000000 0.000000 2.457147
    28 13.389687 0.268266 6.023556 -0.462585 -1.348926 -0.488759
    29 9.768897 0.000001 0.000001 -1.264708 -0.345697 -1.772852
    30 19.931143 0.000001 -0.000001 0.000000 0.000000 -1.967622
    31 26.044123 -0.000001 -0.000001 0.000000 0.000000 2.727953
    32 -5.849911 4.319725 0.063164 0.521401 0.088879 0.421634
    33 -5.827133 4.411094 0.063164 -0.269990 0.094638 0.422006
    34 13.389687 0.268266 6.023556 -0.462585 -1.348926 -0.488759
  time 2
    0 -0.204061 0.003991 26.541878 1.561890 -0.178717 1.501906
    1 -5.574535 -0.119304 0.054231 0.001072 0.043766 -0.235216
    2 -5.513216 -2.701017 -3.989360 0.381022 -0.119244 -0.856719
    3 10.569403 0.000000 0.000000 0.000000 0.000000 -2.459745
    4 13.357940 0.000000 0.000000 0.000000 0.000000 2.952749
    5 -5.436410 -2.626257 3.516682 2.772933 0.123219 -0.869650
    6 10.523520 0.000000 0.000000 0.000000 0.000000 2.461752
    7 13.611949 0.000001 0.000000 0.000000 0.000000 -2.948369
    8 -8.417345 1.069929 -0.018171 -0.040000 -0.021992 -0.135606
    9 -9.984112 -4.710447 3.170796 -2.902516 -0.005499 -2.717898
    10 5.945618 0.000000 0.000000 0.000000 0.000000 0.734615
    11 -9.984110 -4.710446 -2.998739 -0.223381 0.004051 -2.698128
    12 5.945625 0.000000 0.000000 0.000000 0.000000 -0.753191
    13 -13.167568 0.616876 1.590356 3.140739 -0.157522 -3.136150
    14 1.939788 0.000000 0.000000 3.040688 0.121169 2.449692
    15 -13.157713 0.632509 -1.795553 1.570796 0.016921 -3.058550
    16 2.215697 0.000000 -0.000001 1.570796 -0.608107 -3.124672
    17 -2.618796 -6.269598 8.263164 -2.075520 -0.484197 -1.280429
    18 11.485748 0.000000 0.000000 0.000000 0.000000 -1.369419
    19 24.536900 -0.000001 -0.000001 0.000000 0.000000 1.238140
    20 -2.618795 -6.269599 -8.136835 -1.300348 0.873561 -1.353671
    21 11.659968 0.000000 0.000000 0.000000 0.000000 0.855124
    22 25.724375 0.000000 0.000000 0.000000 0.000000 -0.469927
    23 3.880159 -0.980432 0.090609 -0.007633 0.146194 0.474200
    24 13.389691 0.268266 -6.517195 0.542283 1.306249 -0.395924
    25 9.913784 0.000001 0.000000 1.383217 0.416961 -1.612060
    26 21.016012 0.000002 -0.000001 0.000000 0.000000 -2.033014
    27 28.471630 -0.000002 0.000002 0.000000 0.000000 2.453948
    28 13.389687 0.268266 6.023556 -0.462585 -1.348926 -0.488759
    29 9.768897 0.000001 0.000001 -1.353852 -0.540852 -1.673980
    30 19.931143 0.000001 -0.000001 0.000000 0.000000 -1.987127
    31 26.044123 -0.000001 -0.000001 0.000000 0.000000 2.860039
    32 -5.849911 4.319725 0.063164 0.534890 0.099551 0.451242
    33 -5.827133 4.411094 0.063164 -0.256500 0.105315 0.451688
    34 13.389687 0.268266 6.023556 -0.462585 -1.348926 -0.488759
  time 3
    0 -0.204061 0.003991 26.016264 1.586692 -0.184406 1.521969
    1 -5.574535 -0.119304 0.054231 0.000883 0.023558 -0.252165
    2 -5.513216 -2.701017 -3.989360 0.374183 -0.111009 -0.836460
    3 10.569403 0.000000 0.000000 0.000000 0.000000 -2.466475
    4 13.357940 0.000000 0.000000 0.000000 0.000000 2.983468
    5 -5.436410 -2.626257 3.516682 2.779102 0.119509 -0.843892
    6 10.523520 0.000000 0.000000 0.000000 0.000000 2.466065
    7 13.611949 0.000001 0.000000 0.000000 0.000000 -2.967724
    8 -8.417345 1.069929 -0.018171 -0.028853 -0.021539 -0.138931
    9 -9.984112 -4.710447 3.170796 -2.902516 -0.005487 -2.717936
    10 5.945618 0.000000 0.000000 0.000000 0.000000 0.734466
    11 -9.984110 -4.710446 -2.998739 -0.223381 0.004039 -2.698168
    12 5.945625 0.000000 0.000000 0.000000 0.000000 -0.753089
    13 -13.167568 0.616876 1.590356 3.140739 -0.157522 -3.136150
    14 1.939788 0.000000 0.000000 3.040688 0.121169 2.449692
    15 -13.157713 0.632509 -1.795553 1.570796 0.016921 -3.058550
    16 2.215697 0.000000 -0.000001 1.570796 -0.608107 -3.124672
    17 -2.618796 -6.269598 8.263164 -2.106664 -0.497773 -1.261854
    18 11.485748 0.000000 0.000000 0.000000 0.000000 -1.540680
    19 24.536900 -0.000001 -0.000001 0.000000 0.000000 1.569183
    20 -2.618795 -6.269599 -8.136835 -1.252734 0.738974 -1.293927
    21 11.659968 0.000000 0.000000 0.000000 0.000000 1.380825
    22 25.724375 0.000000 0.000000 0.000000 0.000000 -1.210116
    23 3.880159 -0.980432 0.090609 -0.018057 0.107662 0.480101
    24 13.389691 0.268266 -6.517195 0.542283 1.306249 -0.395924
    25 9.913784 0.000001 0.000000 1.445872 0.415404 -1.507746
    26 21.016012 0.000002 -0.000001 0.000000 0.000000 -2.009454
    27 28.471630 -0.000002 0.000002 0.000000 0.000000 2.403016
    28 13.389687 0.268266 6.023556 -0.462585 -1.348926 -0.488759
    29 9.768897 0.000001 0.000001 -1.612772 -0.706898 -1.376602
    30 19.931143 0.000001 -0.000001 0.000000 0.000000 -1.991284
    31 26.044123 -0.000001 -0.000001 0.000000 0.000000 2.927842
    32 -5.849911 4.319725 0.063164 0.533248 0.093944 0.460837
    33 -5.827133 4.411094 0.063164 -0.258146 0.099710 0.461243
    34 13.389687 0.268266 6.023556 -0.462585 -1.348926 -0.488759
  time 4
    0 -0.204061 0.003991 25.785506 1.607473 -0.197468 1.545876
    1 -5.574535 -0.119304 0.054231 0.002428 0.001250 -0.261160
    2 -5.513216 -2.701017 -3.989360 0.373594 -0.111870 -0.833649
    3 10.569403 0.000000 0.000000 0.000000 0.000000 -2.466576
    4 13.357940 0.000000 0.000000 0.000000 0.000000 2.983888
    5 -5.436410 -2.626257 3.516682 2.781025 0.120236 -0.832817
    6 10.523520 0.000000 0.000000 0.000000 0.000000 2.464734
    7 13.611949 0.000001 0.000000 0.000000 0.000000 -2.962121
    8 -8.417345 1.069929 -0.018171 -0.017351 -0.020888 -0.140674
    9 -9.984112 -4.710447 3.170796 -2.902516 -0.005475 -2.718011
    10 5.945618 0.000000 0.000000 0.000000 0.000000 0.734366
    11 -9.984110 -4.710446 -2.998739 -0.223381 0.004039 -2.698209
    12 5.945625 0.000000 0.000000 0.000000 0.000000 -0.752988
    13 -13.167568 0.616876 1.590356 3.140739 -0.157522 -3.136150
    14 1.939788 0.000000 0.000000 3.040688 0.121169 2.449692
    15 -13.157713 0.632509 -1.795553 1.570796 0.016921 -3.058550
    16 2.215697 0.000000 -0.000001 1.570796 -0.608107 -3.124672
    17 -2.618796 -6.269598 8.263164 -2.171707 -0.512951 -1.267968
    18 11.485748 0.000000 0.000000 0.000000 0.000000 -1.671627
    19 24.536900 -0.000001 -0.000001 0.000000 0.000000 1.841901
    20 -2.618795 -6.269599 -8.136835 -1.129645 0.685396 -1.177994
    21 11.659968 0.000000 0.000000 0.000000 0.000000 1.707572
    22 25.724375 0.000000 0.000000 0.000000 0.000000 -1.850063
    23 3.880159 -0.980432 0.090609 -0.026395 0.044179 0.460329
    24 13.389691 0.268266 -6.517195 0.542283 1.306249 -0.395924
    25 9.913784 0.000001 0.000000 1.504387 0.362397 -1.431204
    26 21.016012 0.000002 -0.000001 0.000000 0.000000 -1.958426
    27 28.471630 -0.000002 0.000002 0.000000 0.000000 2.298208
    28 13.389687 0.268266 6.023556 -0.462585 -1.348926 -0.488759
    29 9.768897 0.000001 0.000001 -1.902299 -0.737846 -0.963269
    30 19.931143 0.000001 -0.000001 0.000000 0.000000 -1.990378
    31 26.044123 -0.000001 -0.000001 0.000000 0.000000 2.902808
    32 -5.849911 4.319725 0.063164 0.514167 0.070465 0.444936
    33 -5.827133 4.411094 0.063164 -0.277240 0.076255 0.445228
    34 13.389687 0.268266 6.023556 -0.462585 -1.348926 -0.488759
  time 5
    0 -0.204061 0.003991 25.674401 1.616091 -0.212532 1.571752
    1 -5.574535 -0.119304 0.054231 0.004445 -0.021530 -0.257233
    2 -5.513216 -2.701017 -3.989360 0.381090 -0.126176 -0.852006
    3 10.569403 0.000000 0.000000 0.000000 0.000000 -2.456354
    4 13.357940 0.000000 0.000000 0.000000 0.000000 2.939663
    5 -5.436410 -2.626257 3.516682 2.776855 0.126575 -0.842647
    6 10.523520 0.000000 0.000000 0.000000 0.000000 2.454457
    7 13.611949 0.000001 0.000000 0.000000 0.000000 -2.922611
    8 -8.417345 1.069929 -0.018171 0.001031 -0.019077 -0.140836
    9 -9.984112 -4.710447 3.170796 -2.902516 -0.005475 -2.718011
    10 5.945618 0.000000 0.000000 0.000000 0.000000 0.734317
    11 -9.984110 -4.710446 -2.998739 -0.223381 0.004027 -2.698209
    12 5.945625 0.000000 0.000000 0.000000 0.000000 -0.752937
    13 -13.167568 0.616876 1.590356 3.140739 -0.157522 -3.136150
    14 1.939788 0.000000 0.000000 3.040688 0.121169 2.449692
    15 -13.157713 0.632509 -1.795553 1.570796 0.016921 -3.058550
    16 2.215697 0.000000 -0.000001 1.570796 -0.608107 -3.124672
    17 -2.618796 -6.269598 8.263164 -2.266337 -0.505825 -1.279381
    18 11.485748 0.000000 0.000000 0.000000 0.000000 -1.779388
    19 24.536900 -0.000001 -0.000001 0.000000 0.000000 2.074147
    20 -2.618795 -6.269599 -8.136835 -0.938333 0.575008 -1.038378
    21 11.659968 0.000000 0.000000 0.000000 0.000000 1.954937
    22 25.724375 0.000000 0.000000 0.000000 0.000000 -2.372353
    23 3.880159 -0.980432 0.090609 -0.029282 -0.040945 0.419568
    24 13.389691 0.268266 -6.517195 0.542283 1.306249 -0.395924
    25 9.913784 0.000001 0.000000 1.534564 0.282918 -1.380621
    26 21.016012 0.000002 -0.000001 0.000000 0.000000 -1.884801
    27 28.471630 -0.000002 0.000002 0.000000 0.000000 2.152707
    28 13.389687 0.268266 6.023556 -0.462585 -1.348926 -0.488759
    29 9.768897 0.000001 0.000001 -2.041658 -0.614051 -0.647281
    30 19.931143 0.000001 -0.000001 0.000000 0.000000 -1.973804
    31 26.044123 -0.000001 -0.000001 0.000000 0.000000 2.758173
    32 -5.849911 4.319725 0.063164 0.486902 0.036883 0.416589
    33 -5.827133 4.411094 0.063164 -0.304531 0.042657 0.416775
    34 13.389687 0.268266 6.023556 -0.462585 -1.348926 -0.488759
  time 6
    0 -0.204061 0.003991 25.751320 1.607281 -0.224331 1.597440
    1 -5.574535 -0.119304 0.054231 0.005296 -0.043271 -0.243774
    2 -5.513216 -2.701017 -3.989360 0.387930 -0.142695 -0.874745
    3 10.569403 0.000000 0.000000 0.000000 0.000000 -2.440465
    4 13.357940 0.000000 0.000000 0.000000 0.000000 2.886271
    5 -5.436410 -2.626257 3.516682 2.772595 0.134481 -0.856087
    6 10.523520 0.000000 0.000000 0.000000 0.000000 2.438323
    7 13.611949 0.000001 0.000000 0.000000 0.000000 -2.874588
    8 -8.417345 1.069929 -0.018171 0.014987 -0.018058 -0.139944
    9 -9.984112 -4.710447 3.170796 -2.902516 -0.005463 -2.718048
    10 5.945618 0.000000 0.000000 0.000000 0.000000 0.734267
    11 -9.984110 -4.710446 -2.998739 -0.223381 0.004027 -2.698249
    12 5.945625 0.000000 0.000000 0.000000 0.000000 -0.752937
    13 -13.167568 0.616876 1.590356 3.140739 -0.157522 -3.136150
    14 1.939788 0.000000 0.000000 3.040688 0.121169 2.449692
    15 -13.157713 0.632509 -1.795553 1.570796 0.016921 -3.058550
    16 2.215697 0.000000 -0.000001 1.570796 -0.608107 -3.124672
    17 -2.618796 -6.269598 8.263164 -2.386481 -0.451204 -1.283108
    18 11.485748 0.000000 0.000000 0.000000 0.000000 -1.866853
    19 24.536900 -0.000001 -0.000001 0.000000 0.000000 2.264798
    20 -2.618795 -6.269599 -8.136835 -0.669446 0.304922 -0.944032
    21 11.659968 0.000000 0.000000 0.000000 0.000000 2.117659
    22 25.724375 0.000000 0.000000 0.000000 0.000000 -2.702511
    23 3.880159 -0.980432 0.090609 -0.023220 -0.122836 0.375886
    24 13.389691 0.268266 -6.517195 0.542283 1.306249 -0.395924
    25 9.913784 0.000001 0.000000 1.548457 0.205062 -1.333475
    26 21.016012 0.000002 -0.000001 0.000000 0.000000 -1.798093
    27 28.471630 -0.000002 0.000002 0.000000 0.000000 1.986602
    28 13.389687 0.268266 6.023556 -0.462585 -1.348926 -0.488759
    29 9.768897 0.000001 0.000001 -2.046632 -0.419159 -0.487426
    30 19.931143 0.000001 -0.000001 0.000000 0.000000 -1.904685
    31 26.044123 -0.000001 -0.000001 0.000000 0.000000 2.502070
    32 -5.849911 4.319725 0.063164 0.457290 -0.001679 0.385391
    33 -5.827133 4.411094 0.063164 -0.334135 0.004098 0.385385
    34 13.389687 0.268266 6.023556 -0.462585 -1.348926 -0.488759
  time 7
    0 -0.204061 0.003991 26.093183 1.586405 -0.227544 1.620971
    1 -5.574535 -0.119304 0.054231 0.004981 -0.062042 -0.226691
    2 -5.513216 -2.701017 -3.989360 0.393706 -0.150734 -0.905422
    3 10.569403 0.000000 0.000000 0.000000 0.000000 -2.429939
    4 13.357940 0.000000 0.000000 0.000000 0.000000 2.858421
    5 -5.436410 -2.626257 3.516682 2.770335 0.142554 -0.864424
    6 10.523520 0.000000 0.000000 0.000000 0.000000 2.421709
    7 13.611949 0.000001 0.000000 0.000000 0.000000 -2.832749
    8 -8.417345 1.069929 -0.018171 0.017636 -0.019247 -0.137106
    9 -9.984112 -4.710447 3.170796 -2.902516 -0.005463 -2.718048
    10 5.945618 0.000000 0.000000 0.000000 0.000000 0.734217
    11 -9.984110 -4.710446 -2.998739 -0.223381 0.004015 -2.698249
    12 5.945625 0.000000 0.000000 0.000000 0.000000 -0.752887
    13 -13.167568 0.616876 1.590356 3.140739 -0.157522 -3.136150
    14 1.939788 0.000000 0.000000 3.040688 0.121169 2.449692
    15 -13.157713 0.632509 -1.795553 1.570796 0.016921 -3.058550
    16 2.215697 0.000000 -0.000001 1.570796 -0.608107 -3.124672
    17 -2.618796 -6.269598 8.263164 -2.528426 -0.336759 -1.275538
    18 11.485748 0.000000 0.000000 0.000000 0.000000 -1.931076
    19 24.536900 -0.000001 -0.000001 0.000000 0.000000 2.403273
    20 -2.618795 -6.269599 -8.136835 -0.353995 -0.066727 -1.023522
    21 11.659968 0.000000 0.000000 0.000000 0.000000 2.143017
    22 25.724375 0.000000 0.000000 0.000000 0.000000 -2.752761
    23 3.880159 -0.980432 0.090609 -0.014400 -0.176617 0.350577
    24 13.389691 0.268266 -6.517195 0.542283 1.306249 -0.395924
    25 9.913784 0.000001 0.000000 1.575506 0.146799 -1.277643
    26 21.016012 0.000002 -0.000001 0.000000 0.000000 -1.705156
    27 28.471630 -0.000002 0.000002 0.000000 0.000000 1.815059
    28 13.389687 0.268266 6.023556 -0.462585 -1.348926 -0.488759
    29 9.768897 0.000001 0.000001 -1.968105 -0.231495 -0.429019
    30 19.931143 0.000001 -0.000001 0.000000 0.000000 -1.785526
    31 26.044123 -0.000001 -0.000001 0.000000 0.000000 2.189367
    32 -5.849911 4.319725 0.063164 0.430259 -0.039359 0.360169
    33 -5.827133 4.411094 0.063164 -0.361161 -0.033593 0.359975
    34 13.389687 0.268266 6.023556 -0.462585 -1.348926 -0.488759
  time 8
    0 -0.204061 0.003991 26.717083 1.561603 -0.220222 1.640378
    1 -5.574535 -0.119304 0.054231 0.004193 -0.075860 -0.212024
    2 -5.513216 -2.701017 -3.989360 0.398892 -0.154568 -0.938828
    3 10.569403 0.000000 0.000000 0.000000 0.000000 -2.424474
    4 13.357940 0.000000 0.000000 0.000000 0.000000 2.844636
    5 -5.436410 -2.626257 3.516682 2.769010 0.149825 -0.871393
    6 10.523520 0.000000 0.000000 0.000000 0.000000 2.406267
    7 13.611949 0.000001 0.000000 0.000000 0.000000 -2.797386
    8 -8.417345 1.069929 -0.018171 0.011378 -0.022332 -0.131713
    9 -9.984112 -4.710447 3.170796 -2.902516 -0.005451 -2.718086
    10 5.945618 0.000000 0.000000 0.000000 0.000000 0.734168
    11 -9.984110 -4.710446 -2.998739 -0.223381 0.004015 -2.698290
    12 5.945625 0.000000 0.000000 0.000000 0.000000 -0.752836
    13 -13.167568 0.616876 1.590356 3.140739 -0.157522 -3.136150
    14 1.939788 0.000000 0.000000 3.040688 0.121169 2.449692
    15 -13.157713 0.632509 -1.795553 1.570796 0.016921 -3.058550
    16 2.215697 0.000000 -0.000001 1.570796 -0.608107 -3.124672
    17 -2.618796 -6.269598 8.263164 -2.711936 -0.172573 -1.268900
    18 11.485748 0.000000 0.000000 0.000000 0.000000 -1.964939
    19 24.536900 -0.000001 -0.000001 0.000000 0.000000 2.475685
    20 -2.618795 -6.269599 -8.136835 -0.153713 -0.212627 -1.205421
    21 11.659968 0.000000 0.000000 0.000000 0.000000 2.090246
    22 25.724375 0.000000 0.000000 0.000000 0.000000 -2.648213
    23 3.880159 -0.980432 0.090609 -0.010039 -0.193010 0.359946
    24 13.389691 0.268266 -6.517195 0.542283 1.306249 -0.395924
    25 9.913784 0.000001 0.000000 1.635861 0.113320 -1.214749
    26 21.016012 0.000002 -0.000001 0.000000 0.000000 -1.607857
    27 28.471630 -0.000002 0.000002 0.000000 0.000000 1.642811
    28 13.389687 0.268266 6.023556 -0.462585 -1.348926 -0.488759
    29 9.768897 0.000001 0.000001 -1.883361 -0.084111 -0.437799
    30 19.931143 0.000001 -0.000001 0.000000 0.000000 -1.642865
    31 26.044123 -0.000001 -0.000001 0.000000 0.000000 1.870774
    32 -5.849911 4.319725 0.063164 0.409810 -0.069583 0.349039
    33 -5.827133 4.411094 0.063164 -0.381606 -0.063829 0.348764
    34 13.389687 0.268266 6.023556 -0.462585 -1.348926 -0.488759
  time 9
    0 -0.204061 0.003991 27.358075 1.540631 -0.207845 1.653503
    1 -5.574535 -0.119304 0.054231 0.004098 -0.082864 -0.205748
    2 -5.513216 -2.701017 -3.989360 0.401633 -0.155281 -0.958094
    3 10.569403 0.000000 0.000000 0.000000 0.000000 -2.423614
    4 13.357940 0.000000 0.000000 0.000000 0.000000 2.842466
    5 -5.436410 -2.626257 3.516682 2.768335 0.152175 -0.876246
    6 10.523520 0.000000 0.000000 0.000000 0.000000 2.401528
    7 13.611949 0.000001 0.000000 0.000000 0.000000 -2.786763
    8 -8.417345 1.069929 -0.018171 -0.001120 -0.026464 -0.124537
    9 -9.984112 -4.710447 3.170796 -2.902516 -0.005451 -2.718086
    10 5.945618 0.000000 0.000000 0.000000 0.000000 0.734168
    11 -9.984110 -4.710446 -2.998739 -0.223381 0.004015 -2.698290
    12 5.945625 0.000000 0.000000 0.000000 0.000000 -0.752836
    13 -13.167568 0.616876 1.590356 3.140739 -0.157522 -3.136150
    14 1.939788 0.000000 0.000000 3.040688 0.121169 2.449692
    15 -13.157713 0.632509 -1.795553 1.570796 0.016921 -3.058550
    16 2.215697 0.000000 -0.000001 1.570796 -0.608107 -3.124672
    17 -2.618796 -6.269598 8.263164 -2.959830 0.005900 -1.271520
    18 11.485748 0.000000 0.000000 0.000000 0.000000 -1.967775
    19 24.536900 -0.000001 -0.000001 0.000000 0.000000 2.481967
    20 -2.618795 -6.269599 -8.136835 -0.151805 -0.176784 -1.351576
    21 11.659968 0.000000 0.000000 0.000000 0.000000 2.030760
    22 25.724375 0.000000 0.000000 0.000000 0.000000 -2.528436
    23 3.880159 -0.980432 0.090609 -0.008531 -0.184577 0.394076
    24 13.389691 0.268266 -6.517195 0.542283 1.306249 -0.395924
    25 9.913784 0.000001 0.000000 1.724001 0.096776 -1.156436
    26 21.016012 0.000002 -0.000001 0.000000 0.000000 -1.500988
    27 28.471630 -0.000002 0.000002 0.000000 0.000000 1.462694
    28 13.389687 0.268266 6.023556 -0.462585 -1.348926 -0.488759
    29 9.768897 0.000001 0.000001 -1.849501 0.009327 -0.502696
    30 19.931143 0.000001 -0.000001 0.000000 0.000000 -1.504894
    31 26.044123 -0.000001 -0.000001 0.000000 0.000000 1.595142
    32 -5.849911 4.319725 0.063164 0.395239 -0.091952 0.362746
    33 -5.827133 4.411094 0.063164 -0.396152 -0.086191 0.362377
    34 13.389687 0.268266 6.023556 -0.462585 -1.348926 -0.488759
  time 10
    0 -0.204061 0.003991 27.652932 1.531629 -0.196204 1.658285
    1 -5.574535 -0.119304 0.054231 0.005423 -0.081378 -0.211151
    2 -5.513216 -2.701017 -3.989360 0.401157 -0.150906 -0.953877
    3 10.569403 0.000000 0.000000 0.000000 0.000000 -2.430698
    4 13.357940 0.000000 0.000000 0.000000 0.000000 2.860380
    5 -5.436410 -2.626257 3.516682 2.767750 0.143896 -0.880850
    6 10.523520 0.000000 0.000000 0.000000 0.000000 2.419366
    7 13.611949 0.000001 0.000000 0.000000 0.000000 -2.827292
    8 -8.417345 1.069929 -0.018171 -0.017280 -0.030880 -0.116509
    9 -9.984112 -4.710447 3.170796 -2.902516 -0.005451 -2.718086
    10 5.945618 0.000000 0.000000 0.000000 0.000000 0.734168
    11 -9.984110 -4.710446 -2.998739 -0.223381 0.004015 -2.698290
    12 5.945625 0.000000 0.000000 0.000000 0.000000 -0.752836
    13 -13.167568 0.616876 1.590356 3.140739 -0.157522 -3.136150
    14 1.939788 0.000000 0.000000 3.040688 0.121169 2.449692
    15 -13.157713 0.632509 -1.795553 1.570796 0.016921 -3.058550
    16 2.215697 0.000000 -0.000001 1.570796 -0.608107 -3.124672
    17 -2.618796 -6.269598 8.263164 -3.065061 0.073811 -1.125359
    18 11.485748 0.000000 0.000000 0.000000 0.000000 -2.012870
    19 24.536900 -0.000001 -0.000001 0.000000 0.000000 2.577722
    20 -2.618795 -6.269599 -8.136835 -0.457619 -0.024544 -1.301800
    21 11.659968 0.000000 0.000000 0.000000 0.000000 2.022141
    22 25.724375 0.000000 0.000000 0.000000 0.000000 -2.510958
    23 3.880159 -0.980432 0.090609 -0.006735 -0.160025 0.437819
    24 13.389691 0.268266 -6.517195 0.542283 1.306249 -0.395924
    25 9.913784 0.000001 0.000000 1.832658 0.091261 -1.109576
    26 21.016012 0.000002 -0.000001 0.000000 0.000000 -1.377864
    27 28.471630 -0.000002 0.000002 0.000000 0.000000 1.267924
    28 13.389687 0.268266 6.023556 -0.462585 -1.348926 -0.488759
    29 9.768897 0.000001 0.000001 -1.823102 0.052300 -0.596891
    30 19.931143 0.000001 -0.000001 0.000000 0.000000 -1.409449
    31 26.044123 -0.000001 -0.000001 0.000000 0.000000 1.420351
    32 -5.849911 4.319725 0.063164 0.384017 -0.108658 0.394602
    33 -5.827133 4.411094 0.063164 -0.407360 -0.102920 0.394140
    34 13.389687 0.268266 6.023556 -0.462585 -1.348926 -0.488759
  time 11
    0 -0.204061 0.003991 27.486274 1.539961 -0.185828 1.653316
    1 -5.574535 -0.119304 0.054231 0.007440 -0.072182 -0.224173
    2 -5.513216 -2.701017 -3.989360 0.397692 -0.141761 -0.932627
    3 10.569403 0.000000 0.000000 0.000000 0.000000 -2.443197
    4 13.357940 0.000000 0.000000 0.000000 0.000000 2.895368
    5 -5.436410 -2.626257 3.516682 2.768413 0.126501 -0.886325
    6 10.523520 0.000000 0.000000 0.000000 0.000000 2.449026
    7 13.611949 0.000001 0.000000 0.000000 0.000000 -2.905657
    8 -8.417345 1.069929 -0.018171 -0.034382 -0.034871 -0.108602
    9 -9.984112 -4.710447 3.170796 -2.902516 -0.005451 -2.718086
    10 5.945618 0.000000 0.000000 0.000000 0.000000 0.734168
    11 -9.984110 -4.710446 -2.998739 -0.223381 0.004015 -2.698290
    12 5.945625 0.000000 0.000000 0.000000 0.000000 -0.752836
    13 -13.167568 0.616876 1.590356 3.140739 -0.157522 -3.136150
    14 1.939788 0.000000 0.000000 3.040688 0.121169 2.449692
    15 -13.157713 0.632509 -1.795553 1.570796 0.016921 -3.058550
    16 2.215697 0.000000 -0.000001 1.570796 -0.608107 -3.124672
    17 -2.618796 -6.269598 8.263164 -3.042961 0.039214 -0.925566
    18 11.485748 0.000000 0.000000 0.000000 0.000000 -2.066750
    19 24.536900 -0.000001 -0.000001 0.000000 0.000000 2.692192
    20 -2.618795 -6.269599 -8.136835 -0.715819 0.105692 -1.259388
    21 11.659968 0.000000 0.000000 0.000000 0.000000 1.990468
    22 25.724375 0.000000 0.000000 0.000000 0.000000 -2.446057
    23 3.880159 -0.980432 0.090609 -0.002790 -0.127861 0.475721
    24 13.389691 0.268266 -6.517195 0.542283 1.306249 -0.395924
    25 9.913784 0.000001 0.000000 1.954747 0.094375 -1.080181
    26 21.016012 0.000002 -0.000001 0.000000 0.000000 -1.222628
    27 28.471630 -0.000002 0.000002 0.000000 0.000000 1.041610
    28 13.389687 0.268266 6.023556 -0.462585 -1.348926 -0.488759
    29 9.768897 0.000001 0.000001 -1.793164 0.064851 -0.714372
    30 19.931143 0.000001 -0.000001 0.000000 0.000000 -1.397512
    31 26.044123 -0.000001 -0.000001 0.000000 0.000000 1.399095
    32 -5.849911 4.319725 0.063164 0.377735 -0.117338 0.426184
    33 -5.827133 4.411094 0.063164 -0.413632 -0.111579 0.425690
    34 13.389687 0.268266 6.023556 -0.462585 -1.348926 -0.488759
  time 12
    0 -0.204061 0.003991 27.063219 1.560262 -0.179086 1.639534
    1 -5.574535 -0.119304 0.054231 0.008953 -0.057066 -0.239948
    2 -5.513216 -2.701017 -3.989360 0.391418 -0.132568 -0.901701
    3 10.569403 0.000000 0.000000 0.000000 0.000000 -2.453774
    4 13.357940 0.000000 0.000000 0.000000 0.000000 2.928957
    5 -5.436410 -2.626257 3.516682 2.771452 0.108061 -0.890494
    6 10.523520 0.000000 0.000000 0.000000 0.000000 2.468941
    7 13.611949 0.000001 0.000000 0.000000 0.000000 -2.981330
    8 -8.417345 1.069929 -0.018171 -0.049742 -0.037871 -0.101750
    9 -9.984112 -4.710447 3.170796 -2.902516 -0.005451 -2.718086
    10 5.945618 0.000000 0.000000 0.000000 0.000000 0.734168
    11 -9.984110 -4.710446 -2.998739 -0.223381 0.004015 -2.698290
    12 5.945625 0.000000 0.000000 0.000000 0.000000 -0.752836
    13 -13.167568 0.616876 1.590356 3.140739 -0.157522 -3.136150
    14 1.939788 0.000000 0.000000 3.040688 0.121169 2.449692
    15 -13.157713 0.632509 -1.795553 1.570796 0.016921 -3.058550
    16 2.215697 0.000000 -0.000001 1.570796 -0.608107 -3.124672
    17 -2.618796 -6.269598 8.263164 -3.021340 -0.038674 -0.756112
    18 11.485748 0.000000 0.000000 0.000000 0.000000 -2.102059
    19 24.536900 -0.000001 -0.000001 0.000000 0.000000 2.767778
    20 -2.618795 -6.269599 -8.136835 -0.907704 0.210735 -1.238182
    21 11.659968 0.000000 0.000000 0.000000 0.000000 1.938499
    22 25.724375 0.000000 0.000000 0.000000 0.000000 -2.338296
    23 3.880159 -0.980432 0.090609 0.002181 -0.096070 0.492634
    24 13.389691 0.268266 -6.517195 0.542283 1.306249 -0.395924
    25 9.913784 0.000001 0.000000 1.990353 0.132979 -1.062429
    26 21.016012 0.000002 -0.000001 0.000000 0.000000 -1.383697
    27 28.471630 -0.000002 0.000002 0.000000 0.000000 1.276882
    28 13.389687 0.268266 6.023556 -0.462585 -1.348926 -0.488759
    29 9.768897 0.000001 0.000001 -1.766765 -0.011569 -0.747966
    30 19.931143 0.000001 -0.000001 0.000000 0.000000 -1.537615
    31 26.044123 -0.000001 -0.000001 0.000000 0.000000 1.658272
    32 -5.849911 4.319725 0.063164 0.378556 -0.116000 0.439179
    33 -5.827133 4.411094 0.063164 -0.412825 -0.110262 0.438715
    34 13.389687 0.268266 6.023556 -0.462585 -1.348926 -0.488759
  time 13
    0 -0.204061 0.003991 26.533331 1.584394 -0.183932 1.619378
    1 -5.574535 -0.119304 0.054231 0.009016 -0.037918 -0.253608
    2 -5.513216 -2.701017 -3.989360 0.385190 -0.126152 -0.875076
    3 10.569403 0.000000 0.000000 0.000000 0.000000 -2.459289
    4 13.357940 0.000000 0.000000 0.000000 0.000000 2.950999
    5 -5.436410 -2.626257 3.516682 2.774660 0.098627 -0.889187
    6 10.523520 0.000000 0.000000 0.000000 0.000000 2.473680
    7 13.611949 0.000001 0.000000 0.000000 0.000000 -3.018730
    8 -8.417345 1.069929 -0.018171 -0.060605 -0.039456 -0.097006
    9 -9.984112 -4.710447 3.170796 -2.902516 -0.005451 -2.718086
    10 5.945618 0.000000 0.000000 0.000000 0.000000 0.734118
    11 -9.984110 -4.710446 -2.998739 -0.223381 0.004015 -2.698290
    12 5.945625 0.000000 0.000000 0.000000 0.000000 -0.752785
    13 -13.167568 0.616876 1.590356 3.140739 -0.157522 -3.136150
    14 1.939788 0.000000 0.000000 3.040688 0.121169 2.449692
    15 -13.157713 0.632509 -1.795553 1.570796 0.016921 -3.058550
    16 2.215697 0.000000 -0.000001 1.570796 -0.608107 -3.124672
    17 -2.618796 -6.269598 8.263164 -3.005708 -0.147775 -0.656128
    18 11.485748 0.000000 0.000000 0.000000 0.000000 -2.117072
    19 24.536900 -0.000001 -0.000001 0.000000 0.000000 2.800843
    20 -2.618795 -6.269599 -8.136835 -1.048063 0.293651 -1.248785
    21 11.659968 0.000000 0.000000 0.000000 0.000000 1.870394
    22 25.724375 0.000000 0.000000 0.000000 0.000000 -2.194679
    23 3.880159 -0.980432 0.090609 0.005933 -0.059876 0.478945
    24 13.389691 0.268266 -6.517195 0.542283 1.306249 -0.395924
    25 9.913784 0.000001 0.000000 2.013814 0.180277 -1.051358
    26 21.016012 0.000002 -0.000001 0.000000 0.000000 -1.526756
    27 28.471630 -0.000002 0.000002 0.000000 0.000000 1.505500
    28 13.389687 0.268266 6.023556 -0.462585 -1.348926 -0.488759
    29 9.768897 0.000001 0.000001 -1.733002 -0.091602 -0.786617
    30 19.931143 0.000001 -0.000001 0.000000 0.000000 -1.654483
    31 26.044123 -0.000001 -0.000001 0.000000 0.000000 1.895424
    32 -5.849911 4.319725 0.063164 0.385933 -0.105755 0.430132
    33 -5.827133 4.411094 0.063164 -0.405451 -0.100006 0.429694
    34 13.389687 0.268266 6.023556 -0.462585 -1.348926 -0.488759
  time 14
    0 -0.204061 0.003991 26.058997 1.604791 -0.197732 1.595002
    1 -5.574535 -0.119304 0.054231 0.007188 -0.016601 -0.260354
    2 -5.513216 -2.701017 -3.989360 0.380320 -0.121063 -0.856554
    3 10.569403 0.000000 0.000000 0.000000 0.000000 -2.462983
    4 13.357940 0.000000 0.000000 0.000000 0.000000 2.966534
    5 -5.436410 -2.626257 3.516682 2.775504 0.100212 -0.883028
    6 10.523520 0.000000 0.000000 0.000000 0.000000 2.473201
    7 13.611949 0.000001 0.000000 0.000000 0.000000 -3.014656
    8 -8.417345 1.069929 -0.018171 -0.064231 -0.039286 -0.095465
    9 -9.984112 -4.710447 3.170796 -2.902516 -0.005451 -2.718086
    10 5.945618 0.000000 0.000000 0.000000 0.000000 0.734118
    11 -9.984110 -4.710446 -2.998739 -0.223381 0.004015 -2.698290
    12 5.945625 0.000000 0.000000 0.000000 0.000000 -0.752836
    13 -13.167568 0.616876 1.590356 3.140739 -0.157522 -3.136150
    14 1.939788 0.000000 0.000000 3.040688 0.121169 2.449692
    15 -13.157713 0.632509 -1.795553 1.570796 0.016921 -3.058550
    16 2.215697 0.000000 -0.000001 1.570796 -0.608107 -3.124672
    17 -2.618796 -6.269598 8.263164 -2.969652 -0.292826 -0.642793
    18 11.485748 0.000000 0.000000 0.000000 0.000000 -2.109288
    19 24.536900 -0.000001 -0.000001 0.000000 0.000000 2.783583
    20 -2.618795 -6.269599 -8.136835 -1.152927 0.360116 -1.286498
    21 11.659968 0.000000 0.000000 0.000000 0.000000 1.786552
    22 25.724375 0.000000 0.000000 0.000000 0.000000 -2.016299
    23 3.880159 -0.980432 0.090609 0.006350 -0.013731 0.444207
    24 13.389691 0.268266 -6.517195 0.542283 1.306249 -0.395924
    25 9.913784 0.000001 0.000000 2.007926 0.257096 -1.051168
    26 21.016012 0.000002 -0.000001 0.000000 0.000000 -1.698869
    27 28.471630 -0.000002 0.000002 0.000000 0.000000 1.803669
    28 13.389687 0.268266 6.023556 -0.462585 -1.348926 -0.488759
    29 9.768897 0.000001 0.000001 -1.692160 -0.169007 -0.851896
    30 19.931143 0.000001 -0.000001 0.000000 0.000000 -1.748169
    31 26.044123 -0.000001 -0.000001 0.000000 0.000000 2.102548
    32 -5.849911 4.319725 0.063164 0.397077 -0.089846 0.410997
    33 -5.827133 4.411094 0.063164 -0.394320 -0.084089 0.410636
    34 13.389687 0.268266 6.023556 -0.462585 -1.348926 -0.488759
  time 15
    0 -0.204061 0.003991 25.772687 1.613410 -0.213270 1.568564
    1 -5.574535 -0.119304 0.054231 0.004729 0.005329 -0.256897
    2 -5.513216 -2.701017 -3.989360 0.377467 -0.118015 -0.846466
    3 10.569403 0.000000 0.000000 0.000000 0.000000 -2.464755
    4 13.357940 0.000000 0.000000 0.000000 0.000000 2.974861
    5 -5.436410 -2.626257 3.516682 2.775271 0.105525 -0.876121
    6 10.523520 0.000000 0.000000 0.000000 0.000000 2.471710
    7 13.611949 0.000001 0.000000 0.000000 0.000000 -2.996392
    8 -8.417345 1.069929 -0.018171 -0.057422 -0.036965 -0.095506
    9 -9.984112 -4.710447 3.170796 -2.902516 -0.005451 -2.718124
    10 5.945618 0.000000 0.000000 0.000000 0.000000 0.734118
    11 -9.984110 -4.710446 -2.998739 -0.223381 0.004015 -2.698290
    12 5.945625 0.000000 0.000000 0.000000 0.000000 -0.752785
    13 -13.167568 0.616876 1.590356 3.140739 -0.157522 -3.136150
    14 1.939788 0.000000 0.000000 3.040688 0.121169 2.449692
    15 -13.157713 0.632509 -1.795553 1.570796 0.016921 -3.058550
    16 2.215697 0.000000 -0.000001 1.570796 -0.608107 -3.124672
    17 -2.618796 -6.269598 8.263164 -2.872507 -0.454482 -0.731247
    18 11.485748 0.000000 0.000000 0.000000 0.000000 -2.065638
    19 24.536900 -0.000001 -0.000001 0.000000 0.000000 2.689878
    20 -2.618795 -6.269599 -8.136835 -1.232410 0.418832 -1.339576
    21 11.659968 0.000000 0.000000 0.000000 0.000000 1.683467
    22 25.724375 0.000000 0.000000 0.000000 0.000000 -1.799685
    23 3.880159 -0.980432 0.090609 0.001892 0.035547 0.402290
    24 13.389691 0.268266 -6.517195 0.542283 1.306249 -0.395924
    25 9.913784 0.000001 0.000000 1.944259 0.393734 -1.088389
    26 21.016012 0.000002 -0.000001 0.000000 0.000000 -1.888878
    27 28.471630 -0.000002 0.000002 0.000000 0.000000 2.160705
    28 13.389687 0.268266 6.023556 -0.462585 -1.348926 -0.488759
    29 9.768897 0.000001 0.000001 -1.650936 -0.231298 -0.950767
    30 19.931143 0.000001 -0.000001 0.000000 0.000000 -1.823256
    31 26.044123 -0.000001 -0.000001 0.000000 0.000000 2.280860
    32 -5.849911 4.319725 0.063164 0.410631 -0.069498 0.386652
    33 -5.827133 4.411094 0.063164 -0.380783 -0.063745 0.386346
    34 13.389687 0.268266 6.023556 -0.462585 -1.348926 -0.488759
  time 16
    0 -0.204061 0.003991 25.742774 1.604887 -0.223488 1.542220
    1 -5.574535 -0.119304 0.054231 0.003247 0.026599 -0.245754
    2 -5.513216 -2.701017 -3.989360 0.380909 -0.120375 -0.859778
    3 10.569403 0.000000 0.000000 0.000000 0.000000 -2.463186
    4 13.357940 0.000000 0.000000 0.000000 0.000000 2.967444
    5 -5.436410 -2.626257 3.516682 2.774387 0.112592 -0.869962
    6 10.523520 0.000000 0.000000 0.000000 0.000000 2.465959
    7 13.611949 0.000001 0.000000 0.000000 0.000000 -2.967287
    8 -8.417345 1.069929 -0.018171 -0.042400 -0.033003 -0.095790
    9 -9.984112 -4.710447 3.170796 -2.902516 -0.005451 -2.718124
    10 5.945618 0.000000 0.000000 0.000000 0.000000 0.734118
    11 -9.984110 -4.710446 -2.998739 -0.223381 0.004015 -2.698290
    12 5.945625 0.000000 0.000000 0.000000 0.000000 -0.752785
    13 -13.167568 0.616876 1.590356 3.140739 -0.157522 -3.136150
    14 1.939788 0.000000 0.000000 3.040688 0.121169 2.449692
    15 -13.157713 0.632509 -1.795553 1.570796 0.016921 -3.058550
    16 2.215697 0.000000 -0.000001 1.570796 -0.608107 -3.124672
    17 -2.618796 -6.269598 8.263164 -2.688758 -0.578618 -0.911823
    18 11.485748 0.000000 0.000000 0.000000 0.000000 -1.969888
    19 24.536900 -0.000001 -0.000001 0.000000 0.000000 2.486398
    20 -2.618795 -6.269599 -8.136835 -1.293000 0.479040 -1.396464
    21 11.659968 0.000000 0.000000 0.000000 0.000000 1.554121
    22 25.724375 0.000000 0.000000 0.000000 0.000000 -1.536740
    23 3.880159 -0.980432 0.090609 -0.005516 0.081318 0.367673
    24 13.389691 0.268266 -6.517195 0.542283 1.306249 -0.395924
    25 9.913784 0.000001 0.000000 1.783620 0.576373 -1.217135
    26 21.016012 0.000002 -0.000001 0.000000 0.000000 -2.045813
    27 28.471630 -0.000002 0.000002 0.000000 0.000000 2.481525
    28 13.389687 0.268266 6.023556 -0.462585 -1.348926 -0.488759
    29 9.768897 0.000001 0.000001 -1.615737 -0.271775 -1.080751
    30 19.931143 0.000001 -0.000001 0.000000 0.000000 -1.880331
    31 26.044123 -0.000001 -0.000001 0.000000 0.000000 2.430489
    32 -5.849911 4.319725 0.063164 0.425424 -0.046104 0.361814
    33 -5.827133 4.411094 0.063164 -0.366005 -0.040318 0.361630
    34 13.389687 0.268266 6.023556 -0.462585 -1.348926 -0.488759
  time 17
    0 -0.204061 0.003991 25.960711 1.584586 -0.227070 1.518219
    1 -5.574535 -0.119304 0.054231 0.002900 0.045417 -0.230920
    2 -5.513216 -2.701017 -3.989360 0.387387 -0.126471 -0.885577
    3 10.569403 0.000000 0.000000 0.000000 0.000000 -2.458581
    4 13.357940 0.000000 0.000000 0.000000 0.000000 2.948130
    5 -5.436410 -2.626257 3.516682 2.773011 0.121057 -0.866042
    6 10.523520 0.000000 0.000000 0.000000 0.000000 2.456907
    7 13.611949 0.000001 0.000000 0.000000 0.000000 -2.930542
    8 -8.417345 1.069929 -0.018171 -0.024676 -0.028106 -0.097452
    9 -9.984112 -4.710447 3.170796 -2.902516 -0.005451 -2.718124
    10 5.945618 0.000000 0.000000 0.000000 0.000000 0.734118
    11 -9.984110 -4.710446 -2.998739 -0.223381 0.004015 -2.698290
    12 5.945625 0.000000 0.000000 0.000000 0.000000 -0.752785
    13 -13.167568 0.616876 1.590356 3.140739 -0.157522 -3.136150
    14 1.939788 0.000000 0.000000 3.040688 0.121169 2.449692
    15 -13.157713 0.632509 -1.795553 1.570796 0.016921 -3.058550
    16 2.215697 0.000000 -0.000001 1.570796 -0.608107 -3.124672
    17 -2.618796 -6.269598 8.263164 -2.463323 -0.626470 -1.124602
    18 11.485748 0.000000 0.000000 0.000000 0.000000 -1.808692
    19 24.536900 -0.000001 -0.000001 0.000000 0.000000 2.137962
    20 -2.618795 -6.269599 -8.136835 -1.340041 0.544469 -1.452335
    21 11.659968 0.000000 0.000000 0.000000 0.000000 1.381176
    22 25.724375 0.000000 0.000000 0.000000 0.000000 -1.210759
    23 3.880159 -0.980432 0.090609 -0.010584 0.117662 0.355870
    24 13.389691 0.268266 -6.517195 0.542283 1.306249 -0.395924
    25 9.913784 0.000001 0.000000 1.486078 0.707432 -1.501256
    26 21.016012 0.000002 -0.000001 0.000000 0.000000 -2.127707
    27 28.471630 -0.000002 0.000002 0.000000 0.000000 2.675719
    28 13.389687 0.268266 6.023556 -0.462585 -1.348926 -0.488759
    29 9.768897 0.000001 0.000001 -1.587903 -0.300030 -1.230299
    30 19.931143 0.000001 -0.000001 0.000000 0.000000 -1.920673
    31 26.044123 -0.000001 -0.000001 0.000000 0.000000 2.550921
    32 -5.849911 4.319725 0.063164 0.440542 -0.021145 0.341253
    33 -5.827133 4.411094 0.063164 -0.350885 -0.015378 0.341130
    34 13.389687 0.268266 6.023556 -0.462585 -1.348926 -0.488759
  time 18
    0 -0.204061 0.003991 26.516238 1.560454 -0.220907 1.498813
    1 -5.574535 -0.119304 0.054231 0.003279 0.060061 -0.216555
    2 -5.513216 -2.701017 -3.989360 0.391554 -0.131953 -0.902528
    3 10.569403 0.000000 0.000000 0.000000 0.000000 -2.453521
    4 13.357940 0.000000 0.000000 0.000000 0.000000 2.928117
    5 -5.436410 -2.626257 3.516682 2.770660 0.126464 -0.873695
    6 10.523520 0.000000 0.000000 0.000000 0.000000 2.449771
    7 13.611949 0.000001 0.000000 0.000000 0.000000 -2.907913
    8 -8.417345 1.069929 -0.018171 -0.009778 -0.022983 -0.101709
    9 -9.984112 -4.710447 3.170796 -2.902516 -0.005451 -2.718124
    10 5.945618 0.000000 0.000000 0.000000 0.000000 0.734118
    11 -9.984110 -4.710446 -2.998739 -0.223381 0.004015 -2.698290
    12 5.945625 0.000000 0.000000 0.000000 0.000000 -0.752785
    13 -13.167568 0.616876 1.590356 3.140739 -0.157522 -3.136150
    14 1.939788 0.000000 0.000000 3.040688 0.121169 2.449692
    15 -13.157713 0.632509 -1.795553 1.570796 0.016921 -3.058550
    16 2.215697 0.000000 -0.000001 1.570796 -0.608107 -3.124672
    17 -2.618796 -6.269598 8.263164 -2.241302 -0.609118 -1.318222
    18 11.485748 0.000000 0.000000 0.000000 0.000000 -1.490803
    19 24.536900 -0.000001 -0.000001 0.000000 0.000000 1.469659
    20 -2.618795 -6.269599 -8.136835 -1.372483 0.634346 -1.497223
    21 11.659968 0.000000 0.000000 0.000000 0.000000 1.104945
    22 25.724375 0.000000 0.000000 0.000000 0.000000 -0.770783
    23 3.880159 -0.980432 0.090609 -0.008435 0.148607 0.373392
    24 13.389691 0.268266 -6.517195 0.542283 1.306249 -0.395924
    25 9.913784 0.000001 0.000000 1.247787 0.673629 -1.791389
    26 21.016012 0.000002 -0.000001 0.000000 0.000000 -2.138977
    27 28.471630 -0.000002 0.000002 0.000000 0.000000 2.705664
    28 13.389687 0.268266 6.023556 -0.462585 -1.348926 -0.488759
    29 9.768897 0.000001 0.000001 -1.544288 -0.317442 -1.397693
    30 19.931143 0.000001 -0.000001 0.000000 0.000000 -1.943481
    31 26.044123 -0.000001 -0.000001 0.000000 0.000000 2.630762
    32 -5.849911 4.319725 0.063164 0.455387 0.003586 0.329574
    33 -5.827133 4.411094 0.063164 -0.336044 0.009366 0.329546
    34 13.389687 0.268266 6.023556 -0.462585 -1.348926 -0.488759
  time 19
    0 -0.204061 0.003991 27.234150 1.540440 -0.207634 1.486156
    1 -5.574535 -0.119304 0.054231 0.003720 0.068786 -0.206822
    2 -5.513216 -2.701017 -3.989360 0.392800 -0.134534 -0.906497
    3 10.569403 0.000000 0.000000 0.000000 0.000000 -2.448612
    4 13.357940 0.000000 0.000000 0.000000 0.000000 2.911743
    5 -5.436410 -2.626257 3.516682 2.766088 0.127564 -0.900449
    6 10.523520 0.000000 0.000000 0.000000 0.000000 2.449984
    7 13.611949 0.000001 0.000000 0.000000 0.000000 -2.908495
    8 -8.417345 1.069929 -0.018171 -0.003218 -0.018313 -0.110062
    9 -9.984112 -4.710447 3.170796 -2.902516 -0.005451 -2.718124
    10 5.945618 0.000000 0.000000 0.000000 0.000000 0.734118
    11 -9.984110 -4.710446 -2.998739 -0.223381 0.004015 -2.698290
    12 5.945625 0.000000 0.000000 0.000000 0.000000 -0.752785
    13 -13.167568 0.616876 1.590356 3.140739 -0.157522 -3.136150
    14 1.939788 0.000000 0.000000 3.040688 0.121169 2.449692
    15 -13.157713 0.632509 -1.795553 1.570796 0.016921 -3.058550
    16 2.215697 0.000000 -0.000001 1.570796 -0.608107 -3.124672
    17 -2.618796 -6.269598 8.263164 -2.155417 -0.625935 -1.347804
    18 11.485748 0.000000 0.000000 0.000000 0.000000 -0.929479
    19 24.536900 -0.000001 -0.000001 0.000000 0.000000 0.572812
    20 -2.618795 -6.269599 -8.136835 -1.330977 0.971767 -1.457668
    21 11.659968 0.000000 0.000000 0.000000 0.000000 0.421433
    22 25.724375 0.000000 0.000000 0.000000 0.000000 -0.154676
    23 3.880159 -0.980432 0.090609 -0.001796 0.174403 0.404966
    24 13.389691 0.268266 -6.517195 0.542283 1.306249 -0.395924
    25 9.913784 0.000001 0.000000 1.238679 0.568003 -1.904006
    26 21.016012 0.000002 -0.000001 0.000000 0.000000 -2.116889
    27 28.471630 -0.000002 0.000002 0.000000 0.000000 2.647950
    28 13.389687 0.268266 6.023556 -0.462585 -1.348926 -0.488759
    29 9.768897 0.000001 0.000001 -1.460309 -0.319282 -1.577017
    30 19.931143 0.000001 -0.000001 0.000000 0.000000 -1.955046
    31 26.044123 -0.000001 -0.000001 0.000000 0.000000 2.674427
    32 -5.849911 4.319725 0.063164 0.479108 0.039075 0.351616
    33 -5.827133 4.411094 0.063164 -0.312324 0.044842 0.351700
    34 13.389687 0.268266 6.023556 -0.462585 -1.348926 -0.488759
  time 20
    0 -0.204061 0.003991 27.580286 1.532491 -0.195256 1.481937
    1 -5.574535 -0.119304 0.054231 0.003405 0.069847 -0.205781
    2 -5.513216 -2.701017 -3.989360 0.393185 -0.134116 -0.907903
    3 10.569403 0.000000 0.000000 0.000000 0.000000 -2.446638
    4 13.357940 0.000000 0.000000 0.000000 0.000000 2.905515
    5 -5.436410 -2.626257 3.516682 2.761736 0.125569 -0.929008
    6 10.523520 0.000000 0.000000 0.000000 0.000000 2.454404
    7 13.611949 0.000001 0.000000 0.000000 0.000000 -2.922465
    8 -8.417345 1.069929 -0.018171 -0.010560 -0.015086 -0.123929
    9 -9.984112 -4.710447 3.170796 -2.902516 -0.005546 -2.717710
    10 5.945618 0.000000 0.000000 0.000000 0.000000 0.735012
    11 -9.984110 -4.710446 -2.998739 -0.223381 0.004087 -2.697966
    12 5.945625 0.000000 0.000000 0.000000 0.000000 -0.753546
    13 -13.167568 0.616876 1.590356 3.140739 -0.157522 -3.136150
    14 1.939788 0.000000 0.000000 3.040688 0.121169 2.449692
    15 -13.157713 0.632509 -1.795553 1.570796 0.016921 -3.058550
    16 2.215697 0.000000 -0.000001 1.570796 -0.608107 -3.124672
    17 -2.618796 -6.269598 8.263164 -2.363123 -0.815881 -1.231981
    18 11.485748 0.000000 0.000000 0.000000 0.000000 -0.396235
    19 24.536900 -0.000001 -0.000001 0.000000 0.000000 0.147402
    20 -2.618795 -6.269599 -8.136835 -1.306550 0.952002 -1.483572
    21 11.659968 0.000000 0.000000 0.000000 0.000000 0.570674
    22 25.724375 0.000000 0.000000 0.000000 0.000000 -0.238083
    23 3.880159 -0.980432 0.090609 0.002502 0.184005 0.433256
    24 13.389691 0.268266 -6.517195 0.542283 1.306249 -0.395924
    25 9.913784 0.000001 0.000000 1.367853 0.512141 -1.869171
    26 21.016012 0.000002 -0.000001 0.000000 0.000000 -2.098880
    27 28.471630 -0.000002 0.000002 0.000000 0.000000 2.602776
    28 13.389687 0.268266 6.023556 -0.462585 -1.348926 -0.488759
    29 9.768897 0.000001 0.000001 -1.338453 -0.318559 -1.748993
    30 19.931143 0.000001 -0.000001 0.000000 0.000000 -1.962666
    31 26.044123 -0.000001 -0.000001 0.000000 0.000000 2.706056
    32 -5.849911 4.319725 0.063164 0.504001 0.071120 0.390106
    33 -5.827133 4.411094 0.063164 -0.287408 0.076872 0.390350
    34 13.389687 0.268266 6.023556 -0.462585 -1.348926 -0.488759
end
