// Created by Crowbar 0.33.0.0
version 1
nodes
  0 "Antlion.Body_Bone" -1
  1 "Antlion.Chest_Bone" 0
  2 "Antlion.ArmR1_Bone" 1
  3 "Antlion.ArmR2_Bone" 2
  4 "Antlion.ArmR3_Bone" 3
  5 "Antlion.ArmL1_Bone" 1
  6 "Antlion.ArmL2_Bone" 5
  7 "Antlion.ArmL3_Bone" 6
  8 "Antlion.Head_Bone" 1
  9 "Antlion.FangBottomL1_Bone" 8
  10 "Antlion.FangBottomL2_Bone" 9
  11 "Antlion.FangBottomR1_Bone" 8
  12 "Antlion.FangBottomR2_Bone" 11
  13 "Antlion.FangTopL1_Bone" 8
  14 "Antlion.FangTopL2_Bone" 13
  15 "Antlion.FangTopR1_Bone" 8
  16 "Antlion.FangTopR2_Bone" 15
  17 "Antlion.LegMidL1_Bone" 0
  18 "Antlion.LegMidL2_Bone" 17
  19 "Antlion.LegMidL3_Bone" 18
  20 "Antlion.LegMidR1_Bone" 0
  21 "Antlion.LegMidR2_Bone" 20
  22 "Antlion.LegMidR3_Bone" 21
  23 "Antlion.Back_Bone" 0
  24 "Antlion.LegShoulder_R_Bone" 23
  25 "Antlion.LegL1_Bone" 24
  26 "Antlion.LegL2_Bone" 25
  27 "Antlion.LegL3_Bone" 26
  28 "Antlion.LegShoulder_L_Bone" 23
  29 "Antlion.LegR1_Bone" 28
  30 "Antlion.LegR2_Bone" 29
  31 "Antlion.LegR3_Bone" 30
  32 "Antlion.WingL_Bone" 0
  33 "Antlion.WingR_Bone" 0
  34 "Antlion.bone" 23
end
skeleton
  time 0
    0 -0.059525 -3.567990 29.246867 1.557485 0.365800 1.650222
    1 -5.574535 -0.119304 0.054231 0.000977 -0.070673 0.560119
    2 -5.511719 -2.697266 -3.988281 0.393298 -0.165999 -0.903107
    3 10.569403 0.000000 0.000000 0.000000 0.000000 -2.401399
    4 13.357940 0.000000 0.000000 0.000000 0.000000 2.790964
    5 -5.433594 -2.621094 3.515625 2.761840 0.146227 -0.922288
    6 10.523520 0.000000 0.000000 0.000000 0.000000 2.412018
    7 13.611949 0.000001 0.000000 0.000000 0.000000 -2.810411
    8 -8.417345 1.069929 -0.018171 0.000000 0.000000 0.413875
    9 -9.984112 -4.710447 3.170796 -2.902503 -0.005474 -2.717765
    10 5.945618 0.000000 0.000000 0.000000 0.000000 0.734877
    11 -9.984110 -4.710446 -2.998739 -0.223381 0.004087 -2.697966
    12 5.945625 0.000000 0.000000 0.000000 0.000000 -0.753546
    13 -13.167568 0.616876 1.590356 3.140739 -0.157522 -3.136150
    14 1.939788 0.000000 0.000000 3.040688 0.121169 2.449692
    15 -13.157713 0.632509 -1.795553 1.570796 0.016921 -3.058550
    16 2.215697 0.000000 -0.000001 1.570796 -0.608107 -3.124672
    17 -2.618796 -6.269598 8.263164 -2.770331 0.328533 -0.660262
    18 11.485748 0.000000 0.000000 0.000000 0.000000 -1.719336
    19 24.536900 -0.000001 -0.000001 0.000000 0.000000 1.943872
    20 -2.618795 -6.269599 -8.136835 -0.112302 0.934018 -0.863399
    21 11.659968 0.000000 0.000000 0.000000 0.000000 1.309162
    22 25.724375 0.000000 0.000000 0.000000 0.000000 -1.085455
    23 3.880159 -0.980432 0.090609 0.000000 0.000000 0.588758
    24 13.389691 0.268266 -6.517195 0.542283 1.306249 -0.395924
    25 9.913784 0.000001 0.000000 1.832290 -0.425967 -1.518435
    26 21.016012 0.000002 -0.000001 0.000000 0.000000 -1.915044
    27 28.471630 -0.000002 0.000002 0.000000 0.000000 2.211637
    28 13.389687 0.268266 6.023556 -0.462585 -1.348926 -0.488759
    29 9.768897 0.000001 0.000001 0.773459 -1.359056 -3.660860
    30 19.931143 0.000001 -0.000001 0.000000 0.000000 -1.989419
    31 26.044123 -0.000001 -0.000001 0.000000 0.000000 2.887186
    32 -5.849911 4.319725 0.063164 0.463833 -0.345468 1.155753
    33 -5.827133 4.411094 0.063164 0.015709 0.079562 0.616429
    34 13.389687 0.268266 6.023556 -0.462585 -1.348926 -0.488759
  time 1
    0 -0.653293 -3.567990 29.657103 1.563901 0.440277 1.652753
    1 -5.574535 -0.119304 0.054231 0.000977 -0.246941 0.090208
    2 -5.511719 -2.697266 -3.988281 0.393298 -0.165999 -0.903107
    3 10.569403 0.000000 0.000000 0.000000 0.000000 -2.401399
    4 13.357940 0.000000 0.000000 0.000000 0.000000 2.790964
    5 -5.433594 -2.621094 3.515625 2.761840 0.146227 -0.922288
    6 10.523520 0.000000 0.000000 0.000000 0.000000 2.412018
    7 13.611949 0.000001 0.000000 0.000000 0.000000 -2.810411
    8 -8.417345 1.069929 -0.018171 0.000000 0.161362 0.515403
    9 -9.984112 -4.710447 3.170796 -2.902503 -0.005474 -2.717765
    10 5.945618 0.000000 0.000000 0.000000 0.000000 0.734877
    11 -9.984110 -4.710446 -2.998739 -0.223381 0.004087 -2.697966
    12 5.945625 0.000000 0.000000 0.000000 0.000000 -0.753546
    13 -13.167568 0.616876 1.590356 3.140739 -0.157522 -3.136150
    14 1.939788 0.000000 0.000000 3.040688 0.121169 2.449692
    15 -13.157713 0.632509 -1.795553 1.570796 0.016921 -3.058550
    16 2.215697 0.000000 -0.000001 1.570796 -0.608107 -3.124672
    17 -2.618796 -6.269598 8.263164 -2.756556 0.286703 -0.303710
    18 11.485748 0.000000 0.000000 0.000000 0.000000 -1.810805
    19 24.536900 -0.000001 -0.000001 0.000000 0.000000 2.142393
    20 -2.618795 -6.269599 -8.136835 -0.277756 0.651915 -0.820607
    21 11.659968 0.000000 0.000000 0.000000 0.000000 1.696497
    22 25.724375 0.000000 0.000000 0.000000 0.000000 -1.826930
    23 3.880159 -0.980432 0.090609 0.000000 0.000000 0.298439
    24 13.389691 0.268266 -6.517195 0.542283 1.306249 -0.395924
    25 9.913784 0.000001 0.000000 1.759883 -0.535290 -1.372127
    26 21.016012 0.000002 -0.000001 0.000000 0.000000 -2.094236
    27 28.471630 -0.000002 0.000002 0.000000 0.000000 2.591771
    28 13.389687 0.268266 6.023556 -0.462585 -1.348926 -0.488759
    29 9.768897 0.000001 0.000001 -1.133479 -0.958167 -1.725516
    30 19.931143 0.000001 -0.000001 0.000000 0.000000 -1.773376
    31 26.044123 -0.000001 -0.000001 0.000000 0.000000 2.160683
    32 -5.849911 4.319725 0.063164 0.493627 -0.151603 0.764870
    33 -5.827133 4.411094 0.063164 -0.058231 -0.039029 0.464073
    34 13.389687 0.268266 6.023556 -0.462585 -1.348926 -0.488759
  time 2
    0 -1.262687 -3.567990 30.016059 1.564955 0.449811 1.653128
    1 -5.574535 -0.119304 0.054231 0.000977 -0.382249 -0.389369
    2 -5.511719 -2.697266 -3.988281 0.393298 -0.165999 -0.903107
    3 10.569403 0.000000 0.000000 0.000000 0.000000 -2.401399
    4 13.357940 0.000000 0.000000 0.000000 0.000000 2.790964
    5 -5.433594 -2.621094 3.515625 2.761840 0.146227 -0.922288
    6 10.523520 0.000000 0.000000 0.000000 0.000000 2.412018
    7 13.611949 0.000001 0.000000 0.000000 0.000000 -2.810411
    8 -8.417345 1.069929 -0.018171 0.000000 0.178599 0.599536
    9 -9.984112 -4.710447 3.170796 -2.902503 -0.005474 -2.717765
    10 5.945618 0.000000 0.000000 0.000000 0.000000 0.734877
    11 -9.984110 -4.710446 -2.998739 -0.223381 0.004087 -2.697966
    12 5.945625 0.000000 0.000000 0.000000 0.000000 -0.753546
    13 -13.167568 0.616876 1.590356 3.140739 -0.157522 -3.136150
    14 1.939788 0.000000 0.000000 3.040688 0.121169 2.449692
    15 -13.157713 0.632509 -1.795553 1.570796 0.016921 -3.058550
    16 2.215697 0.000000 -0.000001 1.570796 -0.608107 -3.124672
    17 -2.618796 -6.269598 8.263164 -2.717326 0.211594 0.071069
    18 11.485748 0.000000 0.000000 0.000000 0.000000 -1.861682
    19 24.536900 -0.000001 -0.000001 0.000000 0.000000 2.253622
    20 -2.618795 -6.269599 -8.136835 -0.413059 0.352077 -0.969555
    21 11.659968 0.000000 0.000000 0.000000 0.000000 1.916048
    22 25.724375 0.000000 0.000000 0.000000 0.000000 -2.291259
    23 3.880159 -0.980432 0.090609 0.000000 0.000000 0.073947
    24 13.389691 0.268266 -6.517195 0.542283 1.306249 -0.395924
    25 9.913784 0.000001 0.000000 1.686923 -0.129203 -1.256551
    26 21.016012 0.000002 -0.000001 0.000000 0.000000 -2.189042
    27 28.471630 -0.000002 0.000002 0.000000 0.000000 3.119326
    28 13.389687 0.268266 6.023556 -0.462585 -1.348926 -0.488759
    29 9.768897 0.000001 0.000001 -1.259830 -0.469624 -1.606507
    30 19.931143 0.000001 -0.000001 0.000000 0.000000 -1.461888
    31 26.044123 -0.000001 -0.000001 0.000000 0.000000 1.515494
    32 -5.849911 4.319725 0.063164 0.471184 -0.022028 0.501356
    33 -5.827133 4.411094 0.063164 -0.203688 -0.180598 0.293833
    34 13.389687 0.268266 6.023556 -0.462585 -1.348926 -0.488759
  time 3
    0 -1.860361 -3.567990 30.310915 1.551548 0.319396 1.641878
    1 -5.574535 -0.119304 0.054231 0.000977 -0.446531 -0.766513
    2 -5.511719 -2.697266 -3.988281 0.393298 -0.165999 -0.903107
    3 10.569403 0.000000 0.000000 0.000000 0.000000 -2.401399
    4 13.357940 0.000000 0.000000 0.000000 0.000000 2.790964
    5 -5.433594 -2.621094 3.515625 2.761840 0.146227 -0.922288
    6 10.523520 0.000000 0.000000 0.000000 0.000000 2.412018
    7 13.611949 0.000001 0.000000 0.000000 0.000000 -2.810411
    8 -8.417345 1.069929 -0.018171 0.000000 -0.018822 0.272085
    9 -9.984112 -4.710447 3.170796 -2.902503 -0.005474 -2.717765
    10 5.945618 0.000000 0.000000 0.000000 0.000000 0.734877
    11 -9.984110 -4.710446 -2.998739 -0.223381 0.004087 -2.697966
    12 5.945625 0.000000 0.000000 0.000000 0.000000 -0.753546
    13 -13.167568 0.616876 1.590356 3.140739 -0.157522 -3.136150
    14 1.939788 0.000000 0.000000 3.040688 0.121169 2.449692
    15 -13.157713 0.632509 -1.795553 1.570796 0.016921 -3.058550
    16 2.215697 0.000000 -0.000001 1.570796 -0.608107 -3.124672
    17 -2.618796 -6.269598 8.263164 -2.702593 0.087458 0.281169
    18 11.485748 0.000000 0.000000 0.000000 0.000000 -1.828542
    19 24.536900 -0.000001 -0.000001 0.000000 0.000000 2.181343
    20 -2.618795 -6.269599 -8.136835 -0.367544 0.220722 -0.951206
    21 11.659968 0.000000 0.000000 0.000000 0.000000 2.029507
    22 25.724375 0.000000 0.000000 0.000000 0.000000 -2.525866
    23 3.880159 -0.980432 0.090609 0.000000 0.000000 -0.041097
    24 13.389691 0.268266 -6.517195 0.542283 1.306249 -0.395924
    25 9.913784 0.000001 0.000000 1.784448 0.611733 -1.268481
    26 21.016012 0.000002 -0.000001 0.000000 0.000000 -2.015513
    27 28.471630 -0.000002 0.000002 0.000000 0.000000 3.352871
    28 13.389687 0.268266 6.023556 -0.462585 -1.348926 -0.488759
    29 9.768897 0.000001 0.000001 -1.313106 -0.219799 -1.560889
    30 19.931143 0.000001 -0.000001 0.000000 0.000000 -1.141927
    31 26.044123 -0.000001 -0.000001 0.000000 0.000000 0.991506
    32 -5.849911 4.319725 0.063164 0.445782 0.011725 0.348874
    33 -5.827133 4.411094 0.063164 -0.278684 -0.281731 0.136511
    34 13.389687 0.268266 6.023556 -0.462585 -1.348926 -0.488759
  time 4
    0 -2.329125 -3.567990 30.524580 1.533257 0.072051 1.628472
    1 -5.574535 -0.119304 0.054231 0.000977 -0.446060 -0.938421
    2 -5.511719 -2.697266 -3.988281 0.393298 -0.165999 -0.903107
    3 10.569403 0.000000 0.000000 0.000000 0.000000 -2.401399
    4 13.357940 0.000000 0.000000 0.000000 0.000000 2.790964
    5 -5.433594 -2.621094 3.515625 2.761840 0.146227 -0.922288
    6 10.523520 0.000000 0.000000 0.000000 0.000000 2.412018
    7 13.611949 0.000001 0.000000 0.000000 0.000000 -2.810411
    8 -8.417345 1.069929 -0.018171 0.000000 -0.364726 -0.244229
    9 -9.984112 -4.710447 3.170796 -2.902503 -0.005474 -2.717765
    10 5.945618 0.000000 0.000000 0.000000 0.000000 0.734877
    11 -9.984110 -4.710446 -2.998739 -0.223381 0.004087 -2.697966
    12 5.945625 0.000000 0.000000 0.000000 0.000000 -0.753546
    13 -13.167568 0.616876 1.590356 3.140739 -0.157522 -3.136150
    14 1.939788 0.000000 0.000000 3.040688 0.121169 2.449692
    15 -13.157713 0.632509 -1.795553 1.570796 0.016921 -3.058550
    16 2.215697 0.000000 -0.000001 1.570796 -0.608107 -3.124672
    17 -2.618796 -6.269598 8.263164 -2.823036 -0.125470 0.213446
    18 11.485748 0.000000 0.000000 0.000000 0.000000 -1.689866
    19 24.536900 -0.000001 -0.000001 0.000000 0.000000 1.880983
    20 -2.618795 -6.269599 -8.136835 -0.290638 0.166936 -0.927524
    21 11.659968 0.000000 0.000000 0.000000 0.000000 2.074560
    22 25.724375 0.000000 0.000000 0.000000 0.000000 -2.616855
    23 3.880159 -0.980432 0.090609 0.000000 0.000000 -0.137100
    24 13.389691 0.268266 -6.517195 0.542283 1.306249 -0.395924
    25 9.913784 0.000001 0.000000 2.323224 1.210256 -1.026831
    26 21.016012 0.000002 -0.000001 0.000000 0.000000 -2.051816
    27 28.471630 -0.000002 0.000002 0.000000 0.000000 3.324014
    28 13.389687 0.268266 6.023556 -0.462585 -1.348926 -0.488759
    29 9.768897 0.000001 0.000001 -1.355670 0.140087 -1.455718
    30 19.931143 0.000001 -0.000001 0.000000 0.000000 -0.948372
    31 26.044123 -0.000001 -0.000001 0.000000 0.000000 0.736234
    32 -5.849911 4.319725 0.063164 0.419429 0.000114 0.218105
    33 -5.827133 4.411094 0.063164 -0.201127 -0.293697 0.037165
    34 13.389687 0.268266 6.023556 -0.462585 -1.348926 -0.488759
  time 5
    0 -2.465848 -3.567990 30.622865 1.515063 -0.141110 1.668410
    1 -5.574535 -0.119304 0.054231 0.000977 -0.383169 -0.940434
    2 -5.511719 -2.697266 -3.988281 0.393298 -0.165999 -0.903107
    3 10.569403 0.000000 0.000000 0.000000 0.000000 -2.401399
    4 13.357940 0.000000 0.000000 0.000000 0.000000 2.790964
    5 -5.433594 -2.621094 3.515625 2.761840 0.146227 -0.922288
    6 10.523520 0.000000 0.000000 0.000000 0.000000 2.412018
    7 13.611949 0.000001 0.000000 0.000000 0.000000 -2.810411
    8 -8.417345 1.069929 -0.018171 0.000000 -0.604632 -0.483451
    9 -9.984112 -4.710447 3.170796 -2.902503 -0.005474 -2.717765
    10 5.945618 0.000000 0.000000 0.000000 0.000000 0.734877
    11 -9.984110 -4.710446 -2.998739 -0.223381 0.004087 -2.697966
    12 5.945625 0.000000 0.000000 0.000000 0.000000 -0.753546
    13 -13.167568 0.616876 1.590356 3.140739 -0.157522 -3.136150
    14 1.939788 0.000000 0.000000 3.040688 0.121169 2.449692
    15 -13.157713 0.632509 -1.795553 1.570796 0.016921 -3.058550
    16 2.215697 0.000000 -0.000001 1.570796 -0.608107 -3.124672
    17 -2.618796 -6.269598 8.263164 -3.160350 -0.596825 -0.013716
    18 11.485748 0.000000 0.000000 0.000000 0.000000 -1.418462
    19 24.536900 -0.000001 -0.000001 0.000000 0.000000 1.329597
    20 -2.618795 -6.269599 -8.136835 -0.195125 0.128110 -0.882764
    21 11.659968 0.000000 0.000000 0.000000 0.000000 2.033015
    22 25.724375 0.000000 0.000000 0.000000 0.000000 -2.532998
    23 3.880159 -0.980432 0.090609 0.000000 0.000000 -0.201649
    24 13.389691 0.268266 -6.517195 0.542283 1.306249 -0.395924
    25 9.913784 0.000001 0.000000 2.345121 1.313156 -1.421087
    26 21.016012 0.000002 -0.000001 0.000000 0.000000 -2.195725
    27 28.471630 -0.000002 0.000002 0.000000 0.000000 2.919949
    28 13.389687 0.268266 6.023556 -0.462585 -1.348926 -0.488759
    29 9.768897 0.000001 0.000001 -1.373747 0.340498 -1.482536
    30 19.931143 0.000001 -0.000001 0.000000 0.000000 -1.139475
    31 26.044123 -0.000001 -0.000001 0.000000 0.000000 0.987920
    32 -5.849911 4.319725 0.063164 0.400517 -0.033753 0.128238
    33 -5.827133 4.411094 0.063164 -0.061009 -0.238156 0.043464
    34 13.389687 0.268266 6.023556 -0.462585 -1.348926 -0.488759
  time 6
    0 -1.770515 -3.567990 30.524580 1.455307 -0.331570 1.791131
    1 -5.574535 -0.119304 0.054231 0.000977 -0.248686 -0.731507
    2 -5.511719 -2.697266 -3.988281 0.393298 -0.165999 -0.903107
    3 10.569403 0.000000 0.000000 0.000000 0.000000 -2.401399
    4 13.357940 0.000000 0.000000 0.000000 0.000000 2.790964
    5 -5.433594 -2.621094 3.515625 2.761840 0.146227 -0.922288
    6 10.523520 0.000000 0.000000 0.000000 0.000000 2.412018
    7 13.611949 0.000001 0.000000 0.000000 0.000000 -2.810411
    8 -8.417345 1.069929 -0.018171 0.000000 -0.697045 -0.611212
    9 -9.984112 -4.710447 3.170796 -2.902503 -0.005474 -2.717765
    10 5.945618 0.000000 0.000000 0.000000 0.000000 0.734877
    11 -9.984110 -4.710446 -2.998739 -0.223381 0.004087 -2.697966
    12 5.945625 0.000000 0.000000 0.000000 0.000000 -0.753546
    13 -13.167568 0.616876 1.590356 3.140739 -0.157522 -3.136150
    14 1.939788 0.000000 0.000000 3.040688 0.121169 2.449692
    15 -13.157713 0.632509 -1.795553 1.570796 0.016921 -3.058550
    16 2.215697 0.000000 -0.000001 1.570796 -0.608107 -3.124672
    17 -2.618796 -6.269598 8.263164 -3.338829 -1.056921 -0.286939
    18 11.485748 0.000000 0.000000 0.000000 0.000000 -0.894448
    19 24.536900 -0.000001 -0.000001 0.000000 0.000000 0.532474
    20 -2.618795 -6.269599 -8.136835 -0.071749 0.095167 -0.871589
    21 11.659968 0.000000 0.000000 0.000000 0.000000 1.939702
    22 25.724375 0.000000 0.000000 0.000000 0.000000 -2.340738
    23 3.880159 -0.980432 0.090609 0.000000 0.000000 -0.211748
    24 13.389691 0.268266 -6.517195 0.542283 1.306249 -0.395924
    25 9.913784 0.000001 0.000000 1.318355 1.289086 -2.529033
    26 21.016012 0.000002 -0.000001 0.000000 0.000000 -1.824258
    27 28.471630 -0.000002 0.000002 0.000000 0.000000 2.036190
    28 13.389687 0.268266 6.023556 -0.462585 -1.348926 -0.488759
    29 9.768897 0.000001 0.000001 -1.400146 0.441558 -1.577017
    30 19.931143 0.000001 -0.000001 0.000000 0.000000 -1.244726
    31 26.044123 -0.000001 -0.000001 0.000000 0.000000 1.145936
    32 -5.849911 4.319725 0.063164 0.399957 -0.070067 0.109212
    33 -5.827133 4.411094 0.063164 0.043621 -0.151343 0.207351
    34 13.389687 0.268266 6.023556 -0.462585 -1.348926 -0.488759
  time 7
    0 -0.395473 -3.567990 30.024605 1.394403 -0.402308 1.899602
    1 -5.574535 -0.119304 0.054231 0.000977 -0.081614 -0.435216
    2 -5.511719 -2.697266 -3.988281 0.393298 -0.165999 -0.903107
    3 10.569403 0.000000 0.000000 0.000000 0.000000 -2.401399
    4 13.357940 0.000000 0.000000 0.000000 0.000000 2.790964
    5 -5.433594 -2.621094 3.515625 2.761840 0.146227 -0.922288
    6 10.523520 0.000000 0.000000 0.000000 0.000000 2.412018
    7 13.611949 0.000001 0.000000 0.000000 0.000000 -2.810411
    8 -8.417345 1.069929 -0.018171 0.000000 -0.737208 -0.644176
    9 -9.984112 -4.710447 3.170796 -2.902503 -0.005474 -2.717765
    10 5.945618 0.000000 0.000000 0.000000 0.000000 0.734877
    11 -9.984110 -4.710446 -2.998739 -0.223381 0.004087 -2.697966
    12 5.945625 0.000000 0.000000 0.000000 0.000000 -0.753546
    13 -13.167568 0.616876 1.590356 3.140739 -0.157522 -3.136150
    14 1.939788 0.000000 0.000000 3.040688 0.121169 2.449692
    15 -13.157713 0.632509 -1.795553 1.570796 0.016921 -3.058550
    16 2.215697 0.000000 -0.000001 1.570796 -0.608107 -3.124672
    17 -2.618796 -6.269598 8.263164 -2.577418 -0.941372 -1.255739
    18 11.485748 0.000000 0.000000 0.000000 0.000000 -1.292463
    19 24.536900 -0.000001 -0.000001 0.000000 0.000000 1.101054
    20 -2.618795 -6.269599 -8.136835 0.018706 0.057170 -0.771529
    21 11.659968 0.000000 0.000000 0.000000 0.000000 1.841879
    22 25.724375 0.000000 0.000000 0.000000 0.000000 -2.134020
    23 3.880159 -0.980432 0.090609 0.000000 0.000000 -0.144583
    24 13.389691 0.268266 -6.517195 0.542283 1.306249 -0.395924
    25 9.913784 0.000001 0.000000 2.240236 1.354745 -0.679530
    26 21.016012 0.000002 -0.000001 0.000000 0.000000 -1.328762
    27 28.471630 -0.000002 0.000002 0.000000 0.000000 1.193638
    28 13.389687 0.268266 6.023556 -0.462585 -1.348926 -0.488759
    29 9.768897 0.000001 0.000001 -1.414971 0.524548 -1.640578
    30 19.931143 0.000001 -0.000001 0.000000 0.000000 -1.384882
    31 26.044123 -0.000001 -0.000001 0.000000 0.000000 1.377006
    32 -5.849911 4.319725 0.063164 0.423586 -0.091468 0.190086
    33 -5.827133 4.411094 0.063164 0.037784 -0.084705 0.694049
    34 13.389687 0.268266 6.023556 -0.462585 -1.348926 -0.488759
  time 8
    0 0.624090 -3.567990 29.080209 1.441901 -0.253142 1.899227
    1 -5.574535 -0.119304 0.054231 0.000977 0.125051 -0.081901
    2 -5.511719 -2.697266 -3.988281 0.393298 -0.165999 -0.903107
    3 10.569403 0.000000 0.000000 0.000000 0.000000 -2.401399
    4 13.357940 0.000000 0.000000 0.000000 0.000000 2.790964
    5 -5.433594 -2.621094 3.515625 2.761840 0.146227 -0.922288
    6 10.523520 0.000000 0.000000 0.000000 0.000000 2.412018
    7 13.611949 0.000001 0.000000 0.000000 0.000000 -2.810411
    8 -8.417345 1.069929 -0.018171 0.000000 -0.740378 -0.493263
    9 -9.984112 -4.710447 3.170796 -2.902503 -0.005474 -2.717765
    10 5.945618 0.000000 0.000000 0.000000 0.000000 0.734877
    11 -9.984110 -4.710446 -2.998739 -0.223381 0.004087 -2.697966
    12 5.945625 0.000000 0.000000 0.000000 0.000000 -0.753546
    13 -13.167568 0.616876 1.590356 3.140739 -0.157522 -3.136150
    14 1.939788 0.000000 0.000000 3.040688 0.121169 2.449692
    15 -13.157713 0.632509 -1.795553 1.570796 0.016921 -3.058550
    16 2.215697 0.000000 -0.000001 1.570796 -0.608107 -3.124672
    17 -2.618796 -6.269598 8.263164 -2.368394 -0.495849 -1.620735
    18 11.485748 0.000000 0.000000 0.000000 0.000000 -1.268664
    19 24.536900 -0.000001 -0.000001 0.000000 0.000000 1.060649
    20 -2.618795 -6.269599 -8.136835 -0.037113 0.009641 -0.341636
    21 11.659968 0.000000 0.000000 0.000000 0.000000 1.762147
    22 25.724375 0.000000 0.000000 0.000000 0.000000 -1.964699
    23 3.880159 -0.980432 0.090609 0.000000 0.000000 0.183760
    24 13.389691 0.268266 -6.517195 0.542283 1.306249 -0.395924
    25 9.913784 0.000001 0.000000 2.557743 1.058306 -0.152327
    26 21.016012 0.000002 -0.000001 0.000000 0.000000 -0.989634
    27 28.471630 -0.000002 0.000002 0.000000 0.000000 0.746639
    28 13.389687 0.268266 6.023556 -0.462585 -1.348926 -0.488759
    29 9.768897 0.000001 0.000001 -1.368391 0.503127 -1.588088
    30 19.931143 0.000001 -0.000001 0.000000 0.000000 -1.522746
    31 26.044123 -0.000001 -0.000001 0.000000 0.000000 1.629332
    32 -5.849911 4.319725 0.063164 0.471718 -0.089192 0.458808
    33 -5.827133 4.411094 0.063164 -0.539685 -0.040542 1.106009
    34 13.389687 0.268266 6.023556 -0.462585 -1.348926 -0.488759
  time 9
    0 1.249109 -3.567990 28.315291 1.521096 -0.019334 1.874477
    1 -5.574535 -0.119304 0.054231 0.000977 0.323556 0.288094
    2 -5.511719 -2.697266 -3.988281 0.393298 -0.165999 -0.903107
    3 10.569403 0.000000 0.000000 0.000000 0.000000 -2.401399
    4 13.357940 0.000000 0.000000 0.000000 0.000000 2.790964
    5 -5.433594 -2.621094 3.515625 2.761840 0.146227 -0.922288
    6 10.523520 0.000000 0.000000 0.000000 0.000000 2.412018
    7 13.611949 0.000001 0.000000 0.000000 0.000000 -2.810411
    8 -8.417345 1.069929 -0.018171 0.000000 -0.674118 0.000832
    9 -9.984112 -4.710447 3.170796 -2.902503 -0.005474 -2.717765
    10 5.945618 0.000000 0.000000 0.000000 0.000000 0.734877
    11 -9.984110 -4.710446 -2.998739 -0.223381 0.004087 -2.697966
    12 5.945625 0.000000 0.000000 0.000000 0.000000 -0.753546
    13 -13.167568 0.616876 1.590356 3.140739 -0.157522 -3.136150
    14 1.939788 0.000000 0.000000 3.040688 0.121169 2.449692
    15 -13.157713 0.632509 -1.795553 1.570796 0.016921 -3.058550
    16 2.215697 0.000000 -0.000001 1.570796 -0.608107 -3.124672
    17 -2.618796 -6.269598 8.263164 -2.460927 -0.388387 -1.527739
    18 11.485748 0.000000 0.000000 0.000000 0.000000 -1.092177
    19 24.536900 -0.000001 -0.000001 0.000000 0.000000 0.784823
    20 -2.618795 -6.269599 -8.136835 -0.160679 0.037860 0.148509
    21 11.659968 0.000000 0.000000 0.000000 0.000000 1.606040
    22 25.724375 0.000000 0.000000 0.000000 0.000000 -1.640967
    23 3.880159 -0.980432 0.090609 0.000000 0.000000 0.684517
    24 13.389691 0.268266 -6.517195 0.542283 1.306249 -0.395924
    25 9.913784 0.000001 0.000000 2.810202 0.940028 -0.155381
    26 21.016012 0.000002 -0.000001 0.000000 0.000000 -0.599138
    27 28.471630 -0.000002 0.000002 0.000000 0.000000 0.368425
    28 13.389687 0.268266 6.023556 -0.462585 -1.348926 -0.488759
    29 9.768897 0.000001 0.000001 -1.339601 0.348121 -1.527773
    30 19.931143 0.000001 -0.000001 0.000000 0.000000 -1.619843
    31 26.044123 -0.000001 -0.000001 0.000000 0.000000 1.822947
    32 -5.849911 4.319725 0.063164 0.487110 -0.085549 0.880780
    33 -5.827133 4.411094 0.063164 -0.814362 0.055995 1.203327
    34 13.389687 0.268266 6.023556 -0.462585 -1.348926 -0.488759
  time 10
    0 1.471772 -3.578749 28.127267 1.562944 0.114188 1.874477
    1 -5.574535 -0.119304 0.054231 0.000977 0.422007 0.506654
    2 -5.511719 -2.697266 -3.988281 0.393298 -0.165999 -0.903107
    3 10.569403 0.000000 0.000000 0.000000 0.000000 -2.401399
    4 13.357940 0.000000 0.000000 0.000000 0.000000 2.790964
    5 -5.433594 -2.621094 3.515625 2.761840 0.146227 -0.922288
    6 10.523520 0.000000 0.000000 0.000000 0.000000 2.412018
    7 13.611949 0.000001 0.000000 0.000000 0.000000 -2.810411
    8 -8.417345 1.069929 -0.018171 0.000000 -0.544797 0.347055
    9 -9.984112 -4.710447 3.170796 -2.902503 -0.005474 -2.717765
    10 5.945618 0.000000 0.000000 0.000000 0.000000 0.734877
    11 -9.984110 -4.710446 -2.998739 -0.223381 0.004087 -2.697966
    12 5.945625 0.000000 0.000000 0.000000 0.000000 -0.753546
    13 -13.167568 0.616876 1.590356 3.140739 -0.157522 -3.136150
    14 1.939788 0.000000 0.000000 3.040688 0.121169 2.449692
    15 -13.157713 0.632509 -1.795553 1.570796 0.016921 -3.058550
    16 2.215697 0.000000 -0.000001 1.570796 -0.608107 -3.124672
    17 -2.618796 -6.269598 8.263164 -2.536511 -0.329989 -1.443129
    18 11.485748 0.000000 0.000000 0.000000 0.000000 -1.145167
    19 24.536900 -0.000001 -0.000001 0.000000 0.000000 0.862591
    20 -2.618795 -6.269599 -8.136835 -0.004194 0.230708 0.371233
    21 11.659968 0.000000 0.000000 0.000000 0.000000 1.371755
    22 25.724375 0.000000 0.000000 0.000000 0.000000 -1.193923
    23 3.880159 -0.980432 0.090609 0.000000 0.000000 0.964006
    24 13.389691 0.268266 -6.517195 0.542283 1.306249 -0.395924
    25 9.913784 0.000001 0.000000 2.702833 0.853737 -0.514039
    26 21.016012 0.000002 -0.000001 0.000000 0.000000 -0.657471
    27 28.471630 -0.000002 0.000002 0.000000 0.000000 0.416477
    28 13.389687 0.268266 6.023556 -0.462585 -1.348926 -0.488759
    29 9.768897 0.000001 0.000001 -1.336444 0.144227 -1.527582
    30 19.931143 0.000001 -0.000001 0.000000 0.000000 -1.757708
    31 26.044123 -0.000001 -0.000001 0.000000 0.000000 2.124445
    32 -5.849911 4.319725 0.063164 0.421084 -0.101913 1.349906
    33 -5.827133 4.411094 0.063164 -0.838564 0.059638 1.177596
    34 13.389687 0.268266 6.023556 -0.462585 -1.348926 -0.488759
  time 11
    0 1.342862 -3.584128 28.187093 1.587076 0.190088 1.878227
    1 -5.574535 -0.119304 0.054231 0.000977 0.422455 0.626003
    2 -5.511719 -2.697266 -3.988281 0.393298 -0.165999 -0.903107
    3 10.569403 0.000000 0.000000 0.000000 0.000000 -2.401399
    4 13.357940 0.000000 0.000000 0.000000 0.000000 2.790964
    5 -5.433594 -2.621094 3.515625 2.761840 0.146227 -0.922288
    6 10.523520 0.000000 0.000000 0.000000 0.000000 2.412018
    7 13.611949 0.000001 0.000000 0.000000 0.000000 -2.810411
    8 -8.417345 1.069929 -0.018171 0.000000 -0.388417 0.462652
    9 -9.984112 -4.710447 3.170796 -2.902503 -0.005474 -2.717765
    10 5.945618 0.000000 0.000000 0.000000 0.000000 0.734877
    11 -9.984110 -4.710446 -2.998739 -0.223381 0.004087 -2.697966
    12 5.945625 0.000000 0.000000 0.000000 0.000000 -0.753546
    13 -13.167568 0.616876 1.590356 3.140739 -0.157522 -3.136150
    14 1.939788 0.000000 0.000000 3.040688 0.121169 2.449692
    15 -13.157713 0.632509 -1.795553 1.570796 0.016921 -3.058550
    16 2.215697 0.000000 -0.000001 1.570796 -0.608107 -3.124672
    17 -2.618796 -6.269598 8.263164 -2.638568 -0.289299 -1.357645
    18 11.485748 0.000000 0.000000 0.000000 0.000000 -1.342784
    19 24.536900 -0.000001 -0.000001 0.000000 0.000000 1.189733
    20 -2.618795 -6.269599 -8.136835 0.318413 0.490435 0.587036
    21 11.659968 0.000000 0.000000 0.000000 0.000000 0.982515
    22 25.724375 0.000000 0.000000 0.000000 0.000000 -0.611423
    23 3.880159 -0.980432 0.090609 0.000000 0.000000 1.028190
    24 13.389691 0.268266 -6.517195 0.542283 1.306249 -0.395924
    25 9.913784 0.000001 0.000000 2.312000 0.563721 -1.117784
    26 21.016012 0.000002 -0.000001 0.000000 0.000000 -1.284473
    27 28.471630 -0.000002 0.000002 0.000000 0.000000 1.128885
    28 13.389687 0.268266 6.023556 -0.462585 -1.348926 -0.488759
    29 9.768897 0.000001 0.000001 -1.322767 -0.261196 -1.594864
    30 19.931143 0.000001 -0.000001 0.000000 0.000000 -1.957391
    31 26.044123 -0.000001 -0.000001 0.000000 0.000000 2.684031
    32 -5.849911 4.319725 0.063164 0.302885 -0.142980 1.735471
    33 -5.827133 4.411094 0.063164 -0.723067 0.010431 1.085830
    34 13.389687 0.268266 6.023556 -0.462585 -1.348926 -0.488759
  time 12
    0 0.944412 -3.594887 28.413577 1.588129 0.205626 1.859758
    1 -5.574535 -0.119304 0.054231 0.000977 0.319854 0.656914
    2 -5.511719 -2.697266 -3.988281 0.393298 -0.165999 -0.903107
    3 10.569403 0.000000 0.000000 0.000000 0.000000 -2.401399
    4 13.357940 0.000000 0.000000 0.000000 0.000000 2.790964
    5 -5.433594 -2.621094 3.515625 2.761840 0.146227 -0.922288
    6 10.523520 0.000000 0.000000 0.000000 0.000000 2.412018
    7 13.611949 0.000001 0.000000 0.000000 0.000000 -2.810411
    8 -8.417345 1.069929 -0.018171 0.000000 -0.238490 0.470478
    9 -9.984112 -4.710447 3.170796 -2.902503 -0.005474 -2.717765
    10 5.945618 0.000000 0.000000 0.000000 0.000000 0.734877
    11 -9.984110 -4.710446 -2.998739 -0.223381 0.004087 -2.697966
    12 5.945625 0.000000 0.000000 0.000000 0.000000 -0.753546
    13 -13.167568 0.616876 1.590356 3.140739 -0.157522 -3.136150
    14 1.939788 0.000000 0.000000 3.040688 0.121169 2.449692
    15 -13.157713 0.632509 -1.795553 1.570796 0.016921 -3.058550
    16 2.215697 0.000000 -0.000001 1.570796 -0.608107 -3.124672
    17 -2.618796 -6.269598 8.263164 -2.834535 -0.222527 -1.233262
    18 11.485748 0.000000 0.000000 0.000000 0.000000 -1.545350
    19 24.536900 -0.000001 -0.000001 0.000000 0.000000 1.578574
    20 -2.618795 -6.269599 -8.136835 0.695122 0.652744 0.791094
    21 11.659968 0.000000 0.000000 0.000000 0.000000 0.585909
    22 25.724375 0.000000 0.000000 0.000000 0.000000 -0.247979
    23 3.880159 -0.980432 0.090609 0.000000 0.000000 0.972341
    24 13.389691 0.268266 -6.517195 0.542283 1.306249 -0.395924
    25 9.913784 0.000001 0.000000 2.102966 0.231273 -1.439507
    26 21.016012 0.000002 -0.000001 0.000000 0.000000 -1.609556
    27 28.471630 -0.000002 0.000002 0.000000 0.000000 1.645755
    28 13.389687 0.268266 6.023556 -0.462585 -1.348926 -0.488759
    29 9.768897 0.000001 0.000001 -1.090341 -1.058899 -1.934807
    30 19.931143 0.000001 -0.000001 0.000000 0.000000 -1.925576
    31 26.044123 -0.000001 -0.000001 0.000000 0.000000 3.202129
    32 -5.849911 4.319725 0.063164 0.278604 -0.243755 1.787559
    33 -5.827133 4.411094 0.063164 -0.528989 0.003313 0.959738
    34 13.389687 0.268266 6.023556 -0.462585 -1.348926 -0.488759
  time 13
    0 0.420959 -3.594887 28.763986 1.558443 0.266462 1.682660
    1 -5.574535 -0.119304 0.054231 0.000977 0.123706 0.626170
    2 -5.511719 -2.697266 -3.988281 0.393298 -0.165999 -0.903107
    3 10.569403 0.000000 0.000000 0.000000 0.000000 -2.401399
    4 13.357940 0.000000 0.000000 0.000000 0.000000 2.790964
    5 -5.433594 -2.621094 3.515625 2.761840 0.146227 -0.922288
    6 10.523520 0.000000 0.000000 0.000000 0.000000 2.412018
    7 13.611949 0.000001 0.000000 0.000000 0.000000 -2.810411
    8 -8.417345 1.069929 -0.018171 0.000000 -0.108490 0.435567
    9 -9.984112 -4.710447 3.170796 -2.902503 -0.005474 -2.717765
    10 5.945618 0.000000 0.000000 0.000000 0.000000 0.734877
    11 -9.984110 -4.710446 -2.998739 -0.223381 0.004087 -2.697966
    12 5.945625 0.000000 0.000000 0.000000 0.000000 -0.753546
    13 -13.167568 0.616876 1.590356 3.140739 -0.157522 -3.136150
    14 1.939788 0.000000 0.000000 3.040688 0.121169 2.449692
    15 -13.157713 0.632509 -1.795553 1.570796 0.016921 -3.058550
    16 2.215697 0.000000 -0.000001 1.570796 -0.608107 -3.124672
    17 -2.618796 -6.269598 8.263164 -3.180354 -0.026916 -0.974480
    18 11.485748 0.000000 0.000000 0.000000 0.000000 -1.654279
    19 24.536900 -0.000001 -0.000001 0.000000 0.000000 1.804935
    20 -2.618795 -6.269599 -8.136835 0.861149 1.259133 0.368503
    21 11.659968 0.000000 0.000000 0.000000 0.000000 0.971941
    22 25.724375 0.000000 0.000000 0.000000 0.000000 -0.598700
    23 3.880159 -0.980432 0.090609 0.000000 0.000000 0.833570
    24 13.389691 0.268266 -6.517195 0.542283 1.306249 -0.395924
    25 9.913784 0.000001 0.000000 1.819777 -0.097347 -1.599462
    26 21.016012 0.000002 -0.000001 0.000000 0.000000 -1.795148
    27 28.471630 -0.000002 0.000002 0.000000 0.000000 1.980971
    28 13.389687 0.268266 6.023556 -0.462585 -1.348926 -0.488759
    29 9.768897 0.000001 0.000001 1.208850 -1.147080 -4.272699
    30 19.931143 0.000001 -0.000001 0.000000 0.000000 -1.788723
    31 26.044123 -0.000001 -0.000001 0.000000 0.000000 3.349325
    32 -5.849911 4.319725 0.063164 0.351721 -0.353750 1.575148
    33 -5.827133 4.411094 0.063164 -0.188056 0.077348 0.787790
    34 13.389687 0.268266 6.023556 -0.462585 -1.348926 -0.488759
  time 14
    0 -0.059525 -3.567990 29.246867 1.557485 0.365800 1.650222
    1 -5.574535 -0.119304 0.054231 0.000977 -0.070673 0.560119
    2 -5.511719 -2.697266 -3.988281 0.393298 -0.165999 -0.903107
    3 10.569403 0.000000 0.000000 0.000000 0.000000 -2.401399
    4 13.357940 0.000000 0.000000 0.000000 0.000000 2.790964
    5 -5.433594 -2.621094 3.515625 2.761840 0.146227 -0.922288
    6 10.523520 0.000000 0.000000 0.000000 0.000000 2.412018
    7 13.611949 0.000001 0.000000 0.000000 0.000000 -2.810411
    8 -8.417345 1.069929 -0.018171 0.000000 0.000000 0.413875
    9 -9.984112 -4.710447 3.170796 -2.902503 -0.005474 -2.717765
    10 5.945618 0.000000 0.000000 0.000000 0.000000 0.734877
    11 -9.984110 -4.710446 -2.998739 -0.223381 0.004087 -2.697966
    12 5.945625 0.000000 0.000000 0.000000 0.000000 -0.753546
    13 -13.167568 0.616876 1.590356 3.140739 -0.157522 -3.136150
    14 1.939788 0.000000 0.000000 3.040688 0.121169 2.449692
    15 -13.157713 0.632509 -1.795553 1.570796 0.016921 -3.058550
    16 2.215697 0.000000 -0.000001 1.570796 -0.608107 -3.124672
    17 -2.618796 -6.269598 8.263164 -2.770331 0.328533 -0.660262
    18 11.485748 0.000000 0.000000 0.000000 0.000000 -1.719336
    19 24.536900 -0.000001 -0.000001 0.000000 0.000000 1.943872
    20 -2.618795 -6.269599 -8.136835 -0.112302 0.934018 -0.863399
    21 11.659968 0.000000 0.000000 0.000000 0.000000 1.309162
    22 25.724375 0.000000 0.000000 0.000000 0.000000 -1.085455
    23 3.880159 -0.980432 0.090609 0.000000 0.000000 0.588758
    24 13.389691 0.268266 -6.517195 0.542283 1.306249 -0.395924
    25 9.913784 0.000001 0.000000 1.832290 -0.425967 -1.518435
    26 21.016012 0.000002 -0.000001 0.000000 0.000000 -1.915044
    27 28.471630 -0.000002 0.000002 0.000000 0.000000 2.211637
    28 13.389687 0.268266 6.023556 -0.462585 -1.348926 -0.488759
    29 9.768897 0.000001 0.000001 0.773459 -1.359056 -3.660860
    30 19.931143 0.000001 -0.000001 0.000000 0.000000 -1.989419
    31 26.044123 -0.000001 -0.000001 0.000000 0.000000 2.887186
    32 -5.849911 4.319725 0.063164 0.463833 -0.345468 1.155753
    33 -5.827133 4.411094 0.063164 0.015709 0.079562 0.616429
    34 13.389687 0.268266 6.023556 -0.462585 -1.348926 -0.488759
end
