// Created by Crowbar 0.33.0.0
version 1
nodes
  0 "Antlion.Body_Bone" -1
  1 "Antlion.Chest_Bone" 0
  2 "Antlion.ArmR1_Bone" 1
  3 "Antlion.ArmR2_Bone" 2
  4 "Antlion.ArmR3_Bone" 3
  5 "Antlion.ArmL1_Bone" 1
  6 "Antlion.ArmL2_Bone" 5
  7 "Antlion.ArmL3_Bone" 6
  8 "Antlion.Head_Bone" 1
  9 "Antlion.FangBottomL1_Bone" 8
  10 "Antlion.FangBottomL2_Bone" 9
  11 "Antlion.FangBottomR1_Bone" 8
  12 "Antlion.FangBottomR2_Bone" 11
  13 "Antlion.FangTopL1_Bone" 8
  14 "Antlion.FangTopL2_Bone" 13
  15 "Antlion.FangTopR1_Bone" 8
  16 "Antlion.FangTopR2_Bone" 15
  17 "Antlion.LegMidL1_Bone" 0
  18 "Antlion.LegMidL2_Bone" 17
  19 "Antlion.LegMidL3_Bone" 18
  20 "Antlion.LegMidR1_Bone" 0
  21 "Antlion.LegMidR2_Bone" 20
  22 "Antlion.LegMidR3_Bone" 21
  23 "Antlion.Back_Bone" 0
  24 "Antlion.LegShoulder_R_Bone" 23
  25 "Antlion.LegL1_Bone" 24
  26 "Antlion.LegL2_Bone" 25
  27 "Antlion.LegL3_Bone" 26
  28 "Antlion.LegShoulder_L_Bone" 23
  29 "Antlion.LegR1_Bone" 28
  30 "Antlion.LegR2_Bone" 29
  31 "Antlion.LegR3_Bone" 30
  32 "Antlion.WingL_Bone" 0
  33 "Antlion.WingR_Bone" 0
  34 "Antlion.bone" 23
end
skeleton
  time 0
    0 -0.059525 1.526386 24.721458 1.570796 -0.244346 1.570720
    1 -5.574219 -0.123169 0.054230 0.000000 0.000000 -0.212930
    2 -5.511719 -2.697266 -3.988281 0.393298 -0.165999 -0.903107
    3 10.569403 0.000000 0.000000 0.000000 0.000000 -2.401399
    4 13.357940 0.000000 0.000000 0.000000 0.000000 2.790964
    5 -5.436410 -2.626257 3.516682 2.761840 0.146227 -0.922288
    6 10.523520 0.000000 0.000000 0.000000 0.000000 2.412018
    7 13.611949 0.000001 0.000000 0.000000 0.000000 -2.810411
    8 -8.414063 1.073242 -0.018158 0.000000 0.000000 0.172788
    9 -9.984112 -4.710447 3.170796 -2.902516 -0.005546 -2.717710
    10 5.945618 0.000000 0.000000 0.000000 0.000000 0.735012
    11 -9.984110 -4.710446 -2.998739 -0.223381 0.004087 -2.697966
    12 5.945625 0.000000 0.000000 0.000000 0.000000 -0.753546
    13 -13.167568 0.616876 1.590356 3.140739 -0.157522 -3.136150
    14 1.939788 0.000000 0.000000 3.040688 0.121169 2.449692
    15 -13.157713 0.632509 -1.795553 1.570796 0.016921 -3.058550
    16 2.215697 0.000000 -0.000001 1.570796 -0.608107 -3.124672
    17 -2.618796 -6.269598 8.263164 -2.853641 0.102244 -1.108530
    18 11.485748 0.000000 0.000000 0.000000 0.000000 -1.867910
    19 24.536900 -0.000001 -0.000001 0.000000 0.000000 2.267113
    20 -2.618795 -6.269599 -8.136835 -0.285485 -0.090719 -1.166819
    21 11.659968 0.000000 0.000000 0.000000 0.000000 1.907629
    22 25.724375 0.000000 0.000000 0.000000 0.000000 -2.273524
    23 3.880159 -0.980432 0.090609 0.000000 0.000000 0.769690
    24 13.389691 0.268266 -6.517195 0.542283 1.306249 -0.395924
    25 9.913784 0.000001 0.000000 1.463721 0.680571 -1.789576
    26 21.016012 0.000002 -0.000001 0.000000 0.000000 -1.855747
    27 28.471630 -0.000002 0.000002 0.000000 0.000000 2.096656
    28 13.389687 0.268266 6.023556 -0.462585 -1.348926 -0.488759
    29 9.768897 0.000001 0.000001 -1.503924 -0.788442 -1.726279
    30 19.931143 0.000001 -0.000001 0.000000 0.000000 -1.746197
    31 26.044123 -0.000001 -0.000001 0.000000 0.000000 2.098002
    32 -5.849911 4.319725 0.063164 0.461552 0.000000 0.804073
    33 -5.827133 4.411094 0.063164 -0.329881 0.005779 0.804072
    34 13.389687 0.268266 6.023556 -0.462585 -1.348926 -0.488759
  time 1
    0 -0.059525 1.526386 24.721458 1.570796 -0.287537 1.570720
    1 -5.574219 -0.123169 0.054230 0.000000 0.000000 -0.212930
    2 -5.511719 -2.697266 -3.988281 0.393298 -0.165999 -0.903107
    3 10.569403 0.000000 0.000000 0.000000 0.000000 -2.401399
    4 13.357940 0.000000 0.000000 0.000000 0.000000 2.790964
    5 -5.436410 -2.626257 3.516682 2.761840 0.146227 -0.922288
    6 10.523520 0.000000 0.000000 0.000000 0.000000 2.412018
    7 13.611949 0.000001 0.000000 0.000000 0.000000 -2.810411
    8 -8.414063 1.073242 -0.018158 0.000000 0.000000 0.172788
    9 -9.984112 -4.710447 3.170796 -2.902516 -0.005523 -2.717823
    10 5.945618 0.000000 0.000000 0.000000 0.000000 0.734813
    11 -9.984110 -4.710446 -2.998739 -0.223381 0.004075 -2.698047
    12 5.945625 0.000000 0.000000 0.000000 0.000000 -0.753343
    13 -13.167568 0.616876 1.590356 3.140739 -0.157522 -3.136150
    14 1.939788 0.000000 0.000000 3.040688 0.121169 2.449692
    15 -13.157713 0.632509 -1.795553 1.570796 0.016921 -3.058550
    16 2.215697 0.000000 -0.000001 1.570796 -0.608107 -3.124672
    17 -2.618796 -6.269598 8.263164 -2.862325 0.103563 -1.224585
    18 11.485748 0.000000 0.000000 0.000000 0.000000 -1.851507
    19 24.536900 -0.000001 -0.000001 0.000000 0.000000 2.231403
    20 -2.618795 -6.269599 -8.136835 -0.278901 -0.091589 -1.282308
    21 11.659968 0.000000 0.000000 0.000000 0.000000 1.891342
    22 25.724375 0.000000 0.000000 0.000000 0.000000 -2.239082
    23 3.880159 -0.980432 0.090609 0.000000 0.000000 0.652394
    24 13.389691 0.268266 -6.517195 0.542283 1.306249 -0.395924
    25 9.913784 0.000001 0.000000 1.467585 0.573778 -1.767148
    26 21.016012 0.000002 -0.000001 0.000000 0.000000 -1.815650
    27 28.471630 -0.000002 0.000002 0.000000 0.000000 2.019938
    28 13.389687 0.268266 6.023556 -0.462585 -1.348926 -0.488759
    29 9.768897 0.000001 0.000001 -1.503542 -0.664778 -1.719026
    30 19.931143 0.000001 -0.000001 0.000000 0.000000 -1.715448
    31 26.044123 -0.000001 -0.000001 0.000000 0.000000 2.028278
    32 -5.849911 4.319725 0.063164 0.461552 0.000000 0.685421
    33 -5.827133 4.411094 0.063164 -0.329881 0.005779 0.685400
    34 13.389687 0.268266 6.023556 -0.462585 -1.348926 -0.488759
  time 2
    0 -0.059525 1.526386 24.721458 1.570796 -0.301916 1.570720
    1 -5.574219 -0.123169 0.054230 0.000000 0.000000 -0.212930
    2 -5.511719 -2.697266 -3.988281 0.393298 -0.165999 -0.903107
    3 10.569403 0.000000 0.000000 0.000000 0.000000 -2.401399
    4 13.357940 0.000000 0.000000 0.000000 0.000000 2.790964
    5 -5.436410 -2.626257 3.516682 2.761840 0.146227 -0.922288
    6 10.523520 0.000000 0.000000 0.000000 0.000000 2.412018
    7 13.611949 0.000001 0.000000 0.000000 0.000000 -2.810411
    8 -8.414063 1.073242 -0.018158 0.000000 0.000000 0.172788
    9 -9.984112 -4.710447 3.170796 -2.902516 -0.005511 -2.717898
    10 5.945618 0.000000 0.000000 0.000000 0.000000 0.734615
    11 -9.984110 -4.710446 -2.998739 -0.223381 0.004051 -2.698128
    12 5.945625 0.000000 0.000000 0.000000 0.000000 -0.753191
    13 -13.167568 0.616876 1.590356 3.140739 -0.157522 -3.136150
    14 1.939788 0.000000 0.000000 3.040688 0.121169 2.449692
    15 -13.157713 0.632509 -1.795553 1.570796 0.016921 -3.058550
    16 2.215697 0.000000 -0.000001 1.570796 -0.608107 -3.124672
    17 -2.618796 -6.269598 8.263164 -2.867776 0.101567 -1.286427
    18 11.485748 0.000000 0.000000 0.000000 0.000000 -1.851896
    19 24.536900 -0.000001 -0.000001 0.000000 0.000000 2.232262
    20 -2.618795 -6.269599 -8.136835 -0.274798 -0.089807 -1.344529
    21 11.659968 0.000000 0.000000 0.000000 0.000000 1.891642
    22 25.724375 0.000000 0.000000 0.000000 0.000000 -2.239788
    23 3.880159 -0.980432 0.090609 0.000000 0.000000 0.631831
    24 13.389691 0.268266 -6.517195 0.542283 1.306249 -0.395924
    25 9.913784 0.000001 0.000000 1.468781 0.542570 -1.765620
    26 21.016012 0.000002 -0.000001 0.000000 0.000000 -1.781952
    27 28.471630 -0.000002 0.000002 0.000000 0.000000 1.956401
    28 13.389687 0.268266 6.023556 -0.462585 -1.348926 -0.488759
    29 9.768897 0.000001 0.000001 -1.504594 -0.628507 -1.718072
    30 19.931143 0.000001 -0.000001 0.000000 0.000000 -1.684645
    31 26.044123 -0.000001 -0.000001 0.000000 0.000000 1.960282
    32 -5.849911 4.319725 0.063164 0.461552 0.000000 0.648740
    33 -5.827133 4.411094 0.063164 -0.329881 0.005779 0.648779
    34 13.389687 0.268266 6.023556 -0.462585 -1.348926 -0.488759
  time 3
    0 -0.059525 1.526386 24.721458 1.570796 -0.293646 1.570720
    1 -5.574219 -0.123169 0.054230 0.000000 0.000000 -0.212930
    2 -5.511719 -2.697266 -3.988281 0.393298 -0.165999 -0.903107
    3 10.569403 0.000000 0.000000 0.000000 0.000000 -2.401399
    4 13.357940 0.000000 0.000000 0.000000 0.000000 2.790894
    5 -5.436410 -2.626257 3.516682 2.761840 0.146246 -0.922288
    6 10.523520 0.000000 0.000000 0.000000 0.000000 2.412018
    7 13.611949 0.000001 0.000000 0.000000 0.000000 -2.810338
    8 -8.414063 1.073242 -0.018158 0.000000 0.000000 0.172788
    9 -9.984112 -4.710447 3.170796 -2.902516 -0.005487 -2.717936
    10 5.945618 0.000000 0.000000 0.000000 0.000000 0.734466
    11 -9.984110 -4.710446 -2.998739 -0.223381 0.004039 -2.698168
    12 5.945625 0.000000 0.000000 0.000000 0.000000 -0.753089
    13 -13.167568 0.616876 1.590356 3.140739 -0.157522 -3.136150
    14 1.939788 0.000000 0.000000 3.040688 0.121169 2.449692
    15 -13.157713 0.632509 -1.795553 1.570796 0.016921 -3.058550
    16 2.215697 0.000000 -0.000001 1.570796 -0.608107 -3.124672
    17 -2.618796 -6.269598 8.263164 -2.871848 0.095261 -1.309895
    18 11.485748 0.000000 0.000000 0.000000 0.000000 -1.871635
    19 24.536900 -0.000001 -0.000001 0.000000 0.000000 2.275180
    20 -2.618795 -6.269599 -8.136835 -0.271745 -0.084338 -1.369544
    21 11.659968 0.000000 0.000000 0.000000 0.000000 1.911237
    22 25.724375 0.000000 0.000000 0.000000 0.000000 -2.281106
    23 3.880159 -0.980432 0.090609 0.000000 0.000000 0.780458
    24 13.389691 0.268266 -6.517195 0.542283 1.306249 -0.395924
    25 9.913784 0.000001 0.000000 1.467677 0.676029 -1.798070
    26 21.016012 0.000002 -0.000001 0.000000 0.000000 -1.755221
    27 28.471630 -0.000002 0.000002 0.000000 0.000000 1.906685
    28 13.389687 0.268266 6.023556 -0.462585 -1.348926 -0.488759
    29 9.768897 0.000001 0.000001 -1.507941 -0.737518 -1.741263
    30 19.931143 0.000001 -0.000001 0.000000 0.000000 -1.655122
    31 26.044123 -0.000001 -0.000001 0.000000 0.000000 1.896832
    32 -5.849911 4.319725 0.063164 0.461552 0.000000 0.765582
    33 -5.827133 4.411094 0.063164 -0.329881 0.005779 0.765583
    34 13.389687 0.268266 6.023556 -0.462585 -1.348926 -0.488759
  time 4
    0 -0.059525 1.526386 24.721458 1.570796 -0.244346 1.570720
    1 -5.574219 -0.123169 0.054230 0.000000 0.000000 -0.212930
    2 -5.511719 -2.697266 -3.988281 0.393298 -0.165999 -0.903107
    3 10.569403 0.000000 0.000000 0.000000 0.000000 -2.401399
    4 13.357940 0.000000 0.000000 0.000000 0.000000 2.790894
    5 -5.436410 -2.626257 3.516682 2.761840 0.146246 -0.922226
    6 10.523520 0.000000 0.000000 0.000000 0.000000 2.412018
    7 13.611949 0.000001 0.000000 0.000000 0.000000 -2.810338
    8 -8.414063 1.073242 -0.018158 0.000000 0.000000 0.172788
    9 -9.984112 -4.710447 3.170796 -2.902516 -0.005475 -2.718011
    10 5.945618 0.000000 0.000000 0.000000 0.000000 0.734366
    11 -9.984110 -4.710446 -2.998739 -0.223381 0.004039 -2.698209
    12 5.945625 0.000000 0.000000 0.000000 0.000000 -0.753039
    13 -13.167568 0.616876 1.590356 3.140739 -0.157522 -3.136150
    14 1.939788 0.000000 0.000000 3.040688 0.121169 2.449692
    15 -13.157713 0.632509 -1.795553 1.570796 0.016921 -3.058550
    16 2.215697 0.000000 -0.000001 1.570796 -0.608107 -3.124672
    17 -2.618796 -6.269598 8.263164 -2.873825 0.085355 -1.255506
    18 11.485748 0.000000 0.000000 0.000000 0.000000 -1.907611
    19 24.536900 -0.000001 -0.000001 0.000000 0.000000 2.352882
    20 -2.618795 -6.269599 -8.136835 -0.269741 -0.075719 -1.317736
    21 11.659968 0.000000 0.000000 0.000000 0.000000 1.946969
    22 25.724375 0.000000 0.000000 0.000000 0.000000 -2.355903
    23 3.880159 -0.980432 0.090609 0.000000 0.000000 1.074245
    24 13.389691 0.268266 -6.517195 0.542283 1.306249 -0.395924
    25 9.913784 0.000001 0.000000 1.454245 0.932048 -1.864972
    26 21.016012 0.000002 -0.000001 0.000000 0.000000 -1.730641
    27 28.471630 -0.000002 0.000002 0.000000 0.000000 1.861320
    28 13.389687 0.268266 6.023556 -0.462585 -1.348926 -0.488759
    29 9.768897 0.000001 0.000001 -1.503159 -0.989050 -1.796806
    30 19.931143 0.000001 -0.000001 0.000000 0.000000 -1.661304
    31 26.044123 -0.000001 -0.000001 0.000000 0.000000 1.909638
    32 -5.849911 4.319725 0.063164 0.461552 0.000000 1.035839
    33 -5.827133 4.411094 0.063164 -0.329881 0.005779 1.035810
    34 13.389687 0.268266 6.023556 -0.462585 -1.348926 -0.488759
  time 5
    0 -0.071244 1.526386 24.721458 1.570796 -0.096076 1.570720
    1 -5.574219 -0.123169 0.054230 0.000000 0.000000 -0.212930
    2 -5.511719 -2.697266 -3.988281 0.393298 -0.165999 -0.903107
    3 10.569403 0.000000 0.000000 0.000000 0.000000 -2.401399
    4 13.357940 0.000000 0.000000 0.000000 0.000000 2.790894
    5 -5.436410 -2.626257 3.516682 2.761840 0.146246 -0.922226
    6 10.523520 0.000000 0.000000 0.000000 0.000000 2.412018
    7 13.611949 0.000001 0.000000 0.000000 0.000000 -2.810338
    8 -8.414063 1.073242 -0.018158 0.000000 0.000000 0.172788
    9 -9.984112 -4.710447 3.170796 -2.902516 -0.005475 -2.718011
    10 5.945618 0.000000 0.000000 0.000000 0.000000 0.734317
    11 -9.984110 -4.710446 -2.998739 -0.223381 0.004027 -2.698249
    12 5.945625 0.000000 0.000000 0.000000 0.000000 -0.752937
    13 -13.167568 0.616876 1.590356 3.140739 -0.157522 -3.136150
    14 1.939788 0.000000 0.000000 3.040688 0.121169 2.449692
    15 -13.157713 0.632509 -1.795553 1.570796 0.016921 -3.058550
    16 2.215697 0.000000 -0.000001 1.570796 -0.608107 -3.124672
    17 -2.618796 -6.269598 8.263164 -2.869812 0.069821 -1.005285
    18 11.485748 0.000000 0.000000 0.000000 0.000000 -1.965384
    19 24.536900 -0.000001 -0.000001 0.000000 0.000000 2.476677
    20 -2.618795 -6.269599 -8.136835 -0.271363 -0.062500 -1.071139
    21 11.659968 0.000000 0.000000 0.000000 0.000000 2.004651
    22 25.724375 0.000000 0.000000 0.000000 0.000000 -2.475102
    23 3.880159 -0.980432 0.090609 0.000000 0.000000 1.368031
    24 13.389691 0.268266 -6.517195 0.542283 1.306249 -0.395924
    25 9.913784 0.000001 0.000000 1.450933 1.114362 -1.891122
    26 21.016012 0.000002 -0.000001 0.000000 0.000000 -1.627906
    27 28.471630 -0.000002 0.000002 0.000000 0.000000 1.677811
    28 13.389687 0.268266 6.023556 -0.462585 -1.348926 -0.488759
    29 9.768897 0.000001 0.000001 -1.497707 -1.220213 -1.826201
    30 19.931143 0.000001 -0.000001 0.000000 0.000000 -1.679583
    31 26.044123 -0.000001 -0.000001 0.000000 0.000000 1.949206
    32 -5.849911 4.319725 0.063164 0.461552 0.000000 1.352428
    33 -5.827133 4.411094 0.063164 -0.329881 0.005779 1.352427
    34 13.389687 0.268266 6.023556 -0.462585 -1.348926 -0.488759
  time 6
    0 -0.086869 1.526386 24.721458 1.570796 0.105550 1.570720
    1 -5.574219 -0.123169 0.054230 0.000000 0.000000 -0.212930
    2 -5.511719 -2.697266 -3.988281 0.393298 -0.165999 -0.903107
    3 10.569403 0.000000 0.000000 0.000000 0.000000 -2.401399
    4 13.357940 0.000000 0.000000 0.000000 0.000000 2.790894
    5 -5.436410 -2.626257 3.516682 2.761840 0.146246 -0.922226
    6 10.523520 0.000000 0.000000 0.000000 0.000000 2.412018
    7 13.611949 0.000001 0.000000 0.000000 0.000000 -2.810338
    8 -8.414063 1.073242 -0.018158 0.000000 0.000000 0.172788
    9 -9.984112 -4.710447 3.170796 -2.902516 -0.005463 -2.718048
    10 5.945618 0.000000 0.000000 0.000000 0.000000 0.734267
    11 -9.984110 -4.710446 -2.998739 -0.223381 0.004027 -2.698249
    12 5.945625 0.000000 0.000000 0.000000 0.000000 -0.752937
    13 -13.167568 0.616876 1.590356 3.140739 -0.157522 -3.136150
    14 1.939788 0.000000 0.000000 3.040688 0.121169 2.449692
    15 -13.157713 0.632509 -1.795553 1.570796 0.016921 -3.058550
    16 2.215697 0.000000 -0.000001 1.570796 -0.608107 -3.124672
    17 -2.618796 -6.269598 8.263164 -2.853581 0.050331 -0.625731
    18 11.485748 0.000000 0.000000 0.000000 0.000000 -2.031275
    19 24.536900 -0.000001 -0.000001 0.000000 0.000000 2.617003
    20 -2.618795 -6.269599 -8.136835 -0.283768 -0.047293 -0.695531
    21 11.659968 0.000000 0.000000 0.000000 0.000000 2.071002
    22 25.724375 0.000000 0.000000 0.000000 0.000000 -2.609787
    23 3.880159 -0.980432 0.090609 0.000000 0.000000 1.516658
    24 13.389691 0.268266 -6.517195 0.542283 1.306249 -0.395924
    25 9.913784 0.000001 0.000000 1.478534 1.137914 -1.840540
    26 21.016012 0.000002 -0.000001 0.000000 0.000000 -1.516166
    27 28.471630 -0.000002 0.000002 0.000000 0.000000 1.487840
    28 13.389687 0.268266 6.023556 -0.462585 -1.348926 -0.488759
    29 9.768897 0.000001 0.000001 -1.622050 -1.240386 -1.650598
    30 19.931143 0.000001 -0.000001 0.000000 0.000000 -1.596129
    31 26.044123 -0.000001 -0.000001 0.000000 0.000000 1.774159
    32 -5.849911 4.319725 0.063164 0.461552 0.000000 1.608155
    33 -5.827133 4.411094 0.063164 -0.329881 0.005779 1.608188
    34 13.389687 0.268266 6.023556 -0.462585 -1.348926 -0.488759
  time 7
    0 -0.098589 1.526386 24.721458 1.570796 0.242338 1.570720
    1 -5.574219 -0.123169 0.054230 0.000000 0.000000 -0.212930
    2 -5.511719 -2.697266 -3.988281 0.393298 -0.165999 -0.903107
    3 10.569403 0.000000 0.000000 0.000000 0.000000 -2.401399
    4 13.357940 0.000000 0.000000 0.000000 0.000000 2.790894
    5 -5.436410 -2.626257 3.516682 2.761840 0.146246 -0.922226
    6 10.523520 0.000000 0.000000 0.000000 0.000000 2.412018
    7 13.611949 0.000001 0.000000 0.000000 0.000000 -2.810338
    8 -8.414063 1.073242 -0.018158 0.000000 0.000000 0.172788
    9 -9.984112 -4.710447 3.170796 -2.902516 -0.005463 -2.718086
    10 5.945618 0.000000 0.000000 0.000000 0.000000 0.734217
    11 -9.984110 -4.710446 -2.998739 -0.223381 0.004015 -2.698249
    12 5.945625 0.000000 0.000000 0.000000 0.000000 -0.752887
    13 -13.167568 0.616876 1.590356 3.140739 -0.157522 -3.136150
    14 1.939788 0.000000 0.000000 3.040688 0.121169 2.449692
    15 -13.157713 0.632509 -1.795553 1.570796 0.016921 -3.058550
    16 2.215697 0.000000 -0.000001 1.570796 -0.608107 -3.124672
    17 -2.618796 -6.269598 8.263164 -2.829864 0.032052 -0.326129
    18 11.485748 0.000000 0.000000 0.000000 0.000000 -2.081263
    19 24.536900 -0.000001 -0.000001 0.000000 0.000000 2.722942
    20 -2.618795 -6.269599 -8.136835 -0.305237 -0.034282 -0.398841
    21 11.659968 0.000000 0.000000 0.000000 0.000000 2.121919
    22 25.724375 0.000000 0.000000 0.000000 0.000000 -2.710929
    23 3.880159 -0.980432 0.090609 0.000000 0.000000 1.427835
    24 13.389691 0.268266 -6.517195 0.542283 1.306249 -0.395924
    25 9.913784 0.000001 0.000000 1.489022 1.000757 -1.768865
    26 21.016012 0.000002 -0.000001 0.000000 0.000000 -1.461230
    27 28.471630 -0.000002 0.000002 0.000000 0.000000 1.397941
    28 13.389687 0.268266 6.023556 -0.462585 -1.348926 -0.488759
    29 9.768897 0.000001 0.000001 -1.632380 -1.065798 -1.546955
    30 19.931143 0.000001 -0.000001 0.000000 0.000000 -1.465778
    31 26.044123 -0.000001 -0.000001 0.000000 0.000000 1.522601
    32 -5.849911 4.319725 0.063164 0.461552 0.000000 1.695883
    33 -5.827133 4.411094 0.063164 -0.329881 0.005779 1.695897
    34 13.389687 0.268266 6.023556 -0.462585 -1.348926 -0.488759
  time 8
    0 -0.106401 1.526386 24.721458 1.570796 0.272150 1.570720
    1 -5.574219 -0.123169 0.054230 0.000000 0.000000 -0.212930
    2 -5.511719 -2.697266 -3.988281 0.393298 -0.165999 -0.903107
    3 10.569403 0.000000 0.000000 0.000000 0.000000 -2.401399
    4 13.357940 0.000000 0.000000 0.000000 0.000000 2.790894
    5 -5.436410 -2.626257 3.516682 2.761840 0.146246 -0.922226
    6 10.523520 0.000000 0.000000 0.000000 0.000000 2.412018
    7 13.611949 0.000001 0.000000 0.000000 0.000000 -2.810338
    8 -8.414063 1.073242 -0.018158 0.000000 0.000000 0.172788
    9 -9.984112 -4.710447 3.170796 -2.902516 -0.005463 -2.718086
    10 5.945618 0.000000 0.000000 0.000000 0.000000 0.734168
    11 -9.984110 -4.710446 -2.998739 -0.223381 0.004015 -2.698290
    12 5.945625 0.000000 0.000000 0.000000 0.000000 -0.752836
    13 -13.167568 0.616876 1.590356 3.140739 -0.157522 -3.136150
    14 1.939788 0.000000 0.000000 3.040688 0.121169 2.449692
    15 -13.157713 0.632509 -1.795553 1.570796 0.016921 -3.058550
    16 2.215697 0.000000 -0.000001 1.570796 -0.608107 -3.124672
    17 -2.618796 -6.269598 8.263164 -2.822317 -0.002082 -0.170418
    18 11.485748 0.000000 0.000000 0.000000 0.000000 -2.141538
    19 24.536900 -0.000001 -0.000001 0.000000 0.000000 2.855399
    20 -2.618795 -6.269599 -8.136835 -0.314874 -0.006850 -0.249448
    21 11.659968 0.000000 0.000000 0.000000 0.000000 2.185113
    22 25.724375 0.000000 0.000000 0.000000 0.000000 -2.836618
    23 3.880159 -0.980432 0.090609 0.000000 0.000000 1.151326
    24 13.389691 0.268266 -6.517195 0.542283 1.306249 -0.395924
    25 9.913784 0.000001 0.000000 1.473198 0.772377 -1.706830
    26 21.016012 0.000002 -0.000001 0.000000 0.000000 -1.322419
    27 28.471630 -0.000002 0.000002 0.000000 0.000000 1.184232
    28 13.389687 0.268266 6.023556 -0.462585 -1.348926 -0.488759
    29 9.768897 0.000001 0.000001 -1.550792 -0.824056 -1.545046
    30 19.931143 0.000001 -0.000001 0.000000 0.000000 -1.349230
    31 26.044123 -0.000001 -0.000001 0.000000 0.000000 1.315733
    32 -5.849911 4.319725 0.063164 0.449796 -0.002931 1.505623
    33 -5.827133 4.411094 0.063164 -0.329881 0.001912 1.517649
    34 13.389687 0.268266 6.023556 -0.462585 -1.348926 -0.488759
  time 9
    0 -0.110308 1.526386 24.721458 1.570796 0.234437 1.570720
    1 -5.574219 -0.123169 0.054230 0.000000 0.000000 -0.212930
    2 -5.511719 -2.697266 -3.988281 0.393298 -0.165999 -0.903107
    3 10.569403 0.000000 0.000000 0.000000 0.000000 -2.401399
    4 13.357940 0.000000 0.000000 0.000000 0.000000 2.790894
    5 -5.436410 -2.626257 3.516682 2.761840 0.146246 -0.922226
    6 10.523520 0.000000 0.000000 0.000000 0.000000 2.412018
    7 13.611949 0.000001 0.000000 0.000000 0.000000 -2.810338
    8 -8.414063 1.073242 -0.018158 0.000000 0.000000 0.172788
    9 -9.984112 -4.710447 3.170796 -2.902516 -0.005451 -2.718086
    10 5.945618 0.000000 0.000000 0.000000 0.000000 0.734168
    11 -9.984110 -4.710446 -2.998739 -0.223381 0.004015 -2.698290
    12 5.945625 0.000000 0.000000 0.000000 0.000000 -0.752836
    13 -13.167568 0.616876 1.590356 3.140739 -0.157522 -3.136150
    14 1.939788 0.000000 0.000000 3.040688 0.121169 2.449692
    15 -13.157713 0.632509 -1.795553 1.570796 0.016921 -3.058550
    16 2.215697 0.000000 -0.000001 1.570796 -0.608107 -3.124672
    17 -2.618796 -6.269598 8.263164 -2.842980 -0.068675 -0.044346
    18 11.485748 0.000000 0.000000 0.000000 0.000000 -2.207262
    19 24.536900 -0.000001 -0.000001 0.000000 0.000000 3.046050
    20 -2.618795 -6.269599 -8.136835 -0.302565 0.051037 -0.138023
    21 11.659968 0.000000 0.000000 0.000000 0.000000 2.264945
    22 25.724375 0.000000 0.000000 0.000000 0.000000 -3.017376
    23 3.880159 -0.980432 0.090609 0.000000 0.000000 0.755393
    24 13.389691 0.268266 -6.517195 0.542283 1.306249 -0.395924
    25 9.913784 0.000001 0.000000 1.441824 0.512725 -1.656534
    26 21.016012 0.000002 -0.000001 0.000000 0.000000 -1.106811
    27 28.471630 -0.000002 0.000002 0.000000 0.000000 0.887982
    28 13.389687 0.268266 6.023556 -0.462585 -1.348926 -0.488759
    29 9.768897 0.000001 0.000001 -1.480299 -0.540655 -1.528536
    30 19.931143 0.000001 -0.000001 0.000000 0.000000 -1.166707
    31 26.044123 -0.000001 -0.000001 0.000000 0.000000 1.027616
    32 -5.849911 4.319725 0.063164 0.423912 -0.009562 1.087051
    33 -5.827133 4.411094 0.063164 -0.329881 -0.006607 1.125227
    34 13.389687 0.268266 6.023556 -0.462585 -1.348926 -0.488759
  time 10
    0 -0.110308 1.526386 24.721458 1.570796 0.133150 1.570720
    1 -5.574219 -0.123169 0.054230 0.000000 0.000000 -0.212930
    2 -5.511719 -2.697266 -3.988281 0.393298 -0.165999 -0.903107
    3 10.569403 0.000000 0.000000 0.000000 0.000000 -2.401399
    4 13.357940 0.000000 0.000000 0.000000 0.000000 2.790894
    5 -5.436410 -2.626257 3.516682 2.761840 0.146246 -0.922226
    6 10.523520 0.000000 0.000000 0.000000 0.000000 2.412018
    7 13.611949 0.000001 0.000000 0.000000 0.000000 -2.810338
    8 -8.414063 1.073242 -0.018158 0.000000 0.000000 0.172788
    9 -9.984112 -4.710447 3.170796 -2.902516 -0.005451 -2.718086
    10 5.945618 0.000000 0.000000 0.000000 0.000000 0.734168
    11 -9.984110 -4.710446 -2.998739 -0.223381 0.004015 -2.698290
    12 5.945625 0.000000 0.000000 0.000000 0.000000 -0.752836
    13 -13.167568 0.616876 1.590356 3.140739 -0.157522 -3.136150
    14 1.939788 0.000000 0.000000 3.040688 0.121169 2.449692
    15 -13.157713 0.632509 -1.795553 1.570796 0.016921 -3.058550
    16 2.215697 0.000000 -0.000001 1.570796 -0.608107 -3.124672
    17 -2.618796 -6.269598 8.263164 -2.882988 -0.129746 0.005733
    18 11.485748 0.000000 0.000000 0.000000 0.000000 -2.196530
    19 24.536900 -0.000001 -0.000001 0.000000 0.000000 3.188361
    20 -2.618795 -6.269599 -8.136835 -0.271840 0.110872 -0.093834
    21 11.659968 0.000000 0.000000 0.000000 0.000000 2.280130
    22 25.724375 0.000000 0.000000 0.000000 0.000000 -3.159579
    23 3.880159 -0.980432 0.090609 0.000000 0.000000 0.308112
    24 13.389691 0.268266 -6.517195 0.542283 1.306249 -0.395924
    25 9.913784 0.000001 0.000000 1.408243 0.265141 -1.609101
    26 21.016012 0.000002 -0.000001 0.000000 0.000000 -0.939115
    27 28.471630 -0.000002 0.000002 0.000000 0.000000 0.689693
    28 13.389687 0.268266 6.023556 -0.462585 -1.348926 -0.488759
    29 9.768897 0.000001 0.000001 -1.423771 -0.272169 -1.497710
    30 19.931143 0.000001 -0.000001 0.000000 0.000000 -1.028096
    31 26.044123 -0.000001 -0.000001 0.000000 0.000000 0.835410
    32 -5.849911 4.319725 0.063164 0.398054 -0.016336 0.572306
    33 -5.827133 4.411094 0.063164 -0.329912 -0.015154 0.636341
    34 13.389687 0.268266 6.023556 -0.462585 -1.348926 -0.488759
  time 11
    0 -0.106401 1.526386 24.721458 1.570796 -0.027761 1.570720
    1 -5.574219 -0.123169 0.054230 0.000000 0.000000 -0.212930
    2 -5.511719 -2.697266 -3.988281 0.393298 -0.165999 -0.903107
    3 10.569403 0.000000 0.000000 0.000000 0.000000 -2.401399
    4 13.357940 0.000000 0.000000 0.000000 0.000000 2.790894
    5 -5.436410 -2.626257 3.516682 2.761840 0.146246 -0.922226
    6 10.523520 0.000000 0.000000 0.000000 0.000000 2.412018
    7 13.611949 0.000001 0.000000 0.000000 0.000000 -2.810338
    8 -8.414063 1.073242 -0.018158 0.000000 0.000000 0.172788
    9 -9.984112 -4.710447 3.170796 -2.902516 -0.005451 -2.718086
    10 5.945618 0.000000 0.000000 0.000000 0.000000 0.734168
    11 -9.984110 -4.710446 -2.998739 -0.223381 0.004015 -2.698290
    12 5.945625 0.000000 0.000000 0.000000 0.000000 -0.752836
    13 -13.167568 0.616876 1.590356 3.140739 -0.157522 -3.136150
    14 1.939788 0.000000 0.000000 3.040688 0.121169 2.449692
    15 -13.157713 0.632509 -1.795553 1.570796 0.016921 -3.058550
    16 2.215697 0.000000 -0.000001 1.570796 -0.608107 -3.124672
    17 -2.618796 -6.269598 8.263164 -2.877897 -0.117132 -0.217993
    18 11.485748 0.000000 0.000000 0.000000 0.000000 -2.205260
    19 24.536900 -0.000001 -0.000001 0.000000 0.000000 3.164356
    20 -2.618795 -6.269599 -8.136835 -0.274798 0.099104 -0.318081
    21 11.659968 0.000000 0.000000 0.000000 0.000000 2.283788
    22 25.724375 0.000000 0.000000 0.000000 0.000000 -3.134519
    23 3.880159 -0.980432 0.090609 0.000000 0.000000 -0.122316
    24 13.389691 0.268266 -6.517195 0.542283 1.306249 -0.395924
    25 9.913784 0.000001 0.000000 1.375857 0.016324 -1.552220
    26 21.016012 0.000002 -0.000001 0.000000 0.000000 -1.022368
    27 28.471630 -0.000002 0.000002 0.000000 0.000000 0.784902
    28 13.389687 0.268266 6.023556 -0.462585 -1.348926 -0.488759
    29 9.768897 0.000001 0.000001 -1.376425 -0.036866 -1.452187
    30 19.931143 0.000001 -0.000001 0.000000 0.000000 -1.098121
    31 26.044123 -0.000001 -0.000001 0.000000 0.000000 0.929401
    32 -5.849911 4.319725 0.063164 0.386298 -0.019466 0.092708
    33 -5.827133 4.411094 0.063164 -0.329928 -0.019021 0.168328
    34 13.389687 0.268266 6.023556 -0.462585 -1.348926 -0.488759
  time 12
    0 -0.098589 1.526386 24.721458 1.570796 -0.244346 1.570720
    1 -5.574219 -0.123169 0.054230 0.000000 0.000000 -0.212930
    2 -5.511719 -2.697266 -3.988281 0.393298 -0.165999 -0.903107
    3 10.569403 0.000000 0.000000 0.000000 0.000000 -2.401399
    4 13.357940 0.000000 0.000000 0.000000 0.000000 2.790894
    5 -5.436410 -2.626257 3.516682 2.761840 0.146246 -0.922226
    6 10.523520 0.000000 0.000000 0.000000 0.000000 2.412018
    7 13.611949 0.000001 0.000000 0.000000 0.000000 -2.810338
    8 -8.414063 1.073242 -0.018158 0.000000 0.000000 0.172788
    9 -9.984112 -4.710447 3.170796 -2.902516 -0.005451 -2.718086
    10 5.945618 0.000000 0.000000 0.000000 0.000000 0.734168
    11 -9.984110 -4.710446 -2.998739 -0.223381 0.004015 -2.698290
    12 5.945625 0.000000 0.000000 0.000000 0.000000 -0.752836
    13 -13.167568 0.616876 1.590356 3.140739 -0.157522 -3.136150
    14 1.939788 0.000000 0.000000 3.040688 0.121169 2.449692
    15 -13.157713 0.632509 -1.795553 1.570796 0.016921 -3.058550
    16 2.215697 0.000000 -0.000001 1.570796 -0.608107 -3.124672
    17 -2.618796 -6.269598 8.263164 -2.828666 -0.007533 -0.710400
    18 11.485748 0.000000 0.000000 0.000000 0.000000 -2.150379
    19 24.536900 -0.000001 -0.000001 0.000000 0.000000 2.876759
    20 -2.618795 -6.269599 -8.136835 -0.311248 -0.000096 -0.790449
    21 11.659968 0.000000 0.000000 0.000000 0.000000 2.195086
    22 25.724375 0.000000 0.000000 0.000000 0.000000 -2.856795
    23 3.880159 -0.980432 0.090609 0.000000 0.000000 -0.467632
    24 13.389691 0.268266 -6.517195 0.542283 1.306249 -0.395924
    25 9.913784 0.000001 0.000000 1.344300 -0.144320 -1.495720
    26 21.016012 0.000002 -0.000001 0.000000 0.000000 -1.321399
    27 28.471630 -0.000002 0.000002 0.000000 0.000000 1.182696
    28 13.389687 0.268266 6.023556 -0.462585 -1.348926 -0.488759
    29 9.768897 0.000001 0.000001 -1.336731 0.083118 -1.405137
    30 19.931143 0.000001 -0.000001 0.000000 0.000000 -1.354719
    31 26.044123 -0.000001 -0.000001 0.000000 0.000000 1.325081
    32 -5.849911 4.319725 0.063164 0.402746 -0.015083 -0.220426
    33 -5.827133 4.411094 0.063164 -0.329897 -0.013613 -0.161102
    34 13.389687 0.268266 6.023556 -0.462585 -1.348926 -0.488759
  time 13
    0 -0.079057 1.526386 24.721458 1.570796 -0.566063 1.570720
    1 -5.574219 -0.123169 0.054230 0.000000 0.000000 -0.212930
    2 -5.511719 -2.697266 -3.988281 0.393298 -0.165999 -0.903107
    3 10.569403 0.000000 0.000000 0.000000 0.000000 -2.401399
    4 13.357940 0.000000 0.000000 0.000000 0.000000 2.790894
    5 -5.436410 -2.626257 3.516682 2.761840 0.146246 -0.922226
    6 10.523520 0.000000 0.000000 0.000000 0.000000 2.412018
    7 13.611949 0.000001 0.000000 0.000000 0.000000 -2.810338
    8 -8.414063 1.073242 -0.018158 0.000000 0.000000 0.172788
    9 -9.984112 -4.710447 3.170796 -2.902516 -0.005451 -2.718086
    10 5.945618 0.000000 0.000000 0.000000 0.000000 0.734118
    11 -9.984110 -4.710446 -2.998739 -0.223381 0.004015 -2.698290
    12 5.945625 0.000000 0.000000 0.000000 0.000000 -0.752785
    13 -13.167568 0.616876 1.590356 3.140739 -0.157522 -3.136150
    14 1.939788 0.000000 0.000000 3.040688 0.121169 2.449692
    15 -13.157713 0.632509 -1.795553 1.570796 0.016921 -3.058550
    16 2.215697 0.000000 -0.000001 1.570796 -0.608107 -3.124672
    17 -2.618796 -6.269598 8.263164 -2.821239 0.140583 -1.364458
    18 11.485748 0.000000 0.000000 0.000000 0.000000 -1.765821
    19 24.536900 -0.000001 -0.000001 0.000000 0.000000 2.044653
    20 -2.618795 -6.269599 -8.136835 -0.316114 -0.124987 -1.417034
    21 11.659968 0.000000 0.000000 0.000000 0.000000 1.806598
    22 25.724375 0.000000 0.000000 0.000000 0.000000 -2.058966
    23 3.880159 -0.980432 0.090609 0.000000 0.000000 -0.659698
    24 13.389691 0.268266 -6.517195 0.542283 1.306249 -0.395924
    25 9.913784 0.000001 0.000000 1.330407 -0.105716 -1.454014
    26 21.016012 0.000002 -0.000001 0.000000 0.000000 -1.749954
    27 28.471630 -0.000002 0.000002 0.000000 0.000000 1.896959
    28 13.389687 0.268266 6.023556 -0.462585 -1.348926 -0.488759
    29 9.768897 0.000001 0.000001 -1.321810 -0.006640 -1.369731
    30 19.931143 0.000001 -0.000001 0.000000 0.000000 -1.720937
    31 26.044123 -0.000001 -0.000001 0.000000 0.000000 2.040443
    32 -5.849911 4.319725 0.063164 0.461552 0.000000 -0.234353
    33 -5.827133 4.411094 0.063164 -0.329881 0.005779 -0.234397
    34 13.389687 0.268266 6.023556 -0.462585 -1.348926 -0.488759
  time 14
    0 -0.059525 1.526386 24.721458 1.570796 -0.847171 1.570720
    1 -5.574219 -0.123169 0.054230 0.000000 0.000000 -0.212930
    2 -5.511719 -2.697266 -3.988281 0.393298 -0.165999 -0.903107
    3 10.569403 0.000000 0.000000 0.000000 0.000000 -2.401399
    4 13.357940 0.000000 0.000000 0.000000 0.000000 2.790894
    5 -5.436410 -2.626257 3.516682 2.761840 0.146246 -0.922226
    6 10.523520 0.000000 0.000000 0.000000 0.000000 2.412018
    7 13.611949 0.000001 0.000000 0.000000 0.000000 -2.810338
    8 -8.414063 1.073242 -0.018158 0.000000 0.000000 0.172788
    9 -9.984112 -4.710447 3.170796 -2.902516 -0.005451 -2.718124
    10 5.945618 0.000000 0.000000 0.000000 0.000000 0.734118
    11 -9.984110 -4.710446 -2.998739 -0.223381 0.004015 -2.698290
    12 5.945625 0.000000 0.000000 0.000000 0.000000 -0.752785
    13 -13.167568 0.616876 1.590356 3.140739 -0.157522 -3.136150
    14 1.939788 0.000000 0.000000 3.040688 0.121169 2.449692
    15 -13.157713 0.632509 -1.795553 1.570796 0.016921 -3.058550
    16 2.215697 0.000000 -0.000001 1.570796 -0.608107 -3.124672
    17 -2.618796 -6.269598 8.263164 -2.832918 0.190750 -1.839337
    18 11.485748 0.000000 0.000000 0.000000 0.000000 -1.389103
    19 24.536900 -0.000001 -0.000001 0.000000 0.000000 1.274643
    20 -2.618795 -6.269599 -8.136835 -0.312393 -0.165306 -1.870990
    21 11.659968 0.000000 0.000000 0.000000 0.000000 1.469678
    22 25.724375 0.000000 0.000000 0.000000 0.000000 -1.373653
    23 3.880159 -0.980432 0.090609 0.000000 0.000000 -0.685615
    24 13.389691 0.268266 -6.517195 0.542283 1.306249 -0.395924
    25 9.913784 0.000001 0.000000 1.360860 -0.207384 -1.425764
    26 21.016012 0.000002 -0.000001 0.000000 0.000000 -1.850593
    27 28.471630 -0.000002 0.000002 0.000000 0.000000 2.086738
    28 13.389687 0.268266 6.023556 -0.462585 -1.348926 -0.488759
    29 9.768897 0.000001 0.000001 -1.367243 0.123791 -1.337378
    30 19.931143 0.000001 -0.000001 0.000000 0.000000 -1.785366
    31 26.044123 -0.000001 -0.000001 0.000000 0.000000 2.189047
    32 -5.849911 4.319725 0.063164 0.598088 0.083044 0.101975
    33 -5.827133 4.411094 0.063164 -0.329881 0.006648 0.016826
    34 13.389687 0.268266 6.023556 -0.462585 -1.348926 -0.488759
  time 15
    0 -0.055619 1.526386 24.721458 1.570796 -0.893785 1.570720
    1 -5.574219 -0.123169 0.054230 0.000000 0.000000 -0.212930
    2 -5.511719 -2.697266 -3.988281 0.393298 -0.165999 -0.903107
    3 10.569403 0.000000 0.000000 0.000000 0.000000 -2.401399
    4 13.357940 0.000000 0.000000 0.000000 0.000000 2.790894
    5 -5.436410 -2.626257 3.516682 2.761840 0.146246 -0.922226
    6 10.523520 0.000000 0.000000 0.000000 0.000000 2.412018
    7 13.611949 0.000001 0.000000 0.000000 0.000000 -2.810338
    8 -8.414063 1.073242 -0.018158 0.000000 0.000000 0.172788
    9 -9.984112 -4.710447 3.170796 -2.902516 -0.005451 -2.718124
    10 5.945618 0.000000 0.000000 0.000000 0.000000 0.734118
    11 -9.984110 -4.710446 -2.998739 -0.223381 0.004015 -2.698290
    12 5.945625 0.000000 0.000000 0.000000 0.000000 -0.752785
    13 -13.167568 0.616876 1.590356 3.140739 -0.157522 -3.136150
    14 1.939788 0.000000 0.000000 3.040688 0.121169 2.449692
    15 -13.157713 0.632509 -1.795553 1.570796 0.016921 -3.058550
    16 2.215697 0.000000 -0.000001 1.570796 -0.608107 -3.124672
    17 -2.618796 -6.269598 8.263164 -2.844178 0.178957 -1.992545
    18 11.485748 0.000000 0.000000 0.000000 0.000000 -1.430695
    19 24.536900 -0.000001 -0.000001 0.000000 0.000000 1.352808
    20 -2.618795 -6.269599 -8.136835 -0.305904 -0.162654 -2.002796
    21 11.659968 0.000000 0.000000 0.000000 0.000000 1.472334
    22 25.724375 0.000000 0.000000 0.000000 0.000000 -1.378730
    23 3.880159 -0.980432 0.090609 0.000000 0.000000 -0.598312
    24 13.389691 0.268266 -6.517195 0.542283 1.306249 -0.395924
    25 9.913784 0.000001 0.000000 1.383217 -0.397484 -1.427673
    26 21.016012 0.000002 -0.000001 0.000000 0.000000 -1.649257
    27 28.471630 -0.000002 0.000002 0.000000 0.000000 1.715434
    28 13.389687 0.268266 6.023556 -0.462585 -1.348926 -0.488759
    29 9.768897 0.000001 0.000001 -1.399763 0.364219 -1.343772
    30 19.931143 0.000001 -0.000001 0.000000 0.000000 -1.592025
    31 26.044123 -0.000001 -0.000001 0.000000 0.000000 1.765771
    32 -5.849911 4.319725 0.063164 0.688539 0.048722 0.473887
    33 -5.827133 4.411094 0.063164 -0.330968 0.080235 0.436206
    34 13.389687 0.268266 6.023556 -0.462585 -1.348926 -0.488759
  time 16
    0 -0.059525 1.526386 24.721458 1.570796 -0.800820 1.570720
    1 -5.574219 -0.123169 0.054230 0.000000 0.000000 -0.212930
    2 -5.511719 -2.697266 -3.988281 0.393298 -0.165999 -0.903107
    3 10.569403 0.000000 0.000000 0.000000 0.000000 -2.401399
    4 13.357940 0.000000 0.000000 0.000000 0.000000 2.790894
    5 -5.436410 -2.626257 3.516682 2.761840 0.146246 -0.922226
    6 10.523520 0.000000 0.000000 0.000000 0.000000 2.411965
    7 13.611949 0.000001 0.000000 0.000000 0.000000 -2.810338
    8 -8.414063 1.073242 -0.018158 0.000000 0.000000 0.172788
    9 -9.984112 -4.710447 3.170796 -2.902516 -0.005451 -2.718124
    10 5.945618 0.000000 0.000000 0.000000 0.000000 0.734118
    11 -9.984110 -4.710446 -2.998739 -0.223381 0.004015 -2.698290
    12 5.945625 0.000000 0.000000 0.000000 0.000000 -0.752785
    13 -13.167568 0.616876 1.590356 3.140739 -0.157522 -3.136150
    14 1.939788 0.000000 0.000000 3.040688 0.121169 2.449692
    15 -13.157713 0.632509 -1.795553 1.570796 0.016921 -3.058550
    16 2.215697 0.000000 -0.000001 1.570796 -0.608107 -3.124672
    17 -2.618796 -6.269598 8.263164 -2.849688 0.159004 -1.892037
    18 11.485748 0.000000 0.000000 0.000000 0.000000 -1.600343
    19 24.536900 -0.000001 -0.000001 0.000000 0.000000 1.692052
    20 -2.618795 -6.269599 -8.136835 -0.298653 -0.163607 -1.894672
    21 11.659968 0.000000 0.000000 0.000000 0.000000 1.516385
    22 25.724375 0.000000 0.000000 0.000000 0.000000 -1.463486
    23 3.880159 -0.980432 0.090609 0.000000 0.000000 -0.428270
    24 13.389691 0.268266 -6.517195 0.542283 1.306249 -0.395924
    25 9.913784 0.000001 0.000000 1.377513 -0.660704 -1.414502
    26 21.016012 0.000002 -0.000001 0.000000 0.000000 -1.705609
    27 28.471630 -0.000002 0.000002 0.000000 0.000000 1.815890
    28 13.389687 0.268266 6.023556 -0.462585 -1.348926 -0.488759
    29 9.768897 0.000001 0.000001 -1.415163 0.470404 -1.357515
    30 19.931143 0.000001 -0.000001 0.000000 0.000000 -1.397672
    31 26.044123 -0.000001 -0.000001 0.000000 0.000000 1.399415
    32 -5.849911 4.319725 0.063164 0.665327 -0.427460 0.568468
    33 -5.827133 4.411094 0.063164 -0.355076 0.371668 0.813414
    34 13.389687 0.268266 6.023556 -0.462585 -1.348926 -0.488759
  time 17
    0 -0.059525 1.526386 24.721458 1.570796 -0.705010 1.570720
    1 -5.574219 -0.123169 0.054230 0.000000 0.000000 -0.212930
    2 -5.511719 -2.697266 -3.988281 0.393298 -0.165999 -0.903107
    3 10.569403 0.000000 0.000000 0.000000 0.000000 -2.401399
    4 13.357940 0.000000 0.000000 0.000000 0.000000 2.790894
    5 -5.436410 -2.626257 3.516682 2.761840 0.146246 -0.922226
    6 10.523520 0.000000 0.000000 0.000000 0.000000 2.411965
    7 13.611949 0.000001 0.000000 0.000000 0.000000 -2.810338
    8 -8.414063 1.073242 -0.018158 0.000000 0.000000 0.172788
    9 -9.984112 -4.710447 3.170796 -2.902516 -0.005451 -2.718124
    10 5.945618 0.000000 0.000000 0.000000 0.000000 0.734118
    11 -9.984110 -4.710446 -2.998739 -0.223381 0.004015 -2.698290
    12 5.945625 0.000000 0.000000 0.000000 0.000000 -0.752785
    13 -13.167568 0.616876 1.590356 3.140739 -0.157522 -3.136150
    14 1.939788 0.000000 0.000000 3.040688 0.121169 2.449692
    15 -13.157713 0.632509 -1.795553 1.570796 0.016921 -3.058550
    16 2.215697 0.000000 -0.000001 1.570796 -0.608107 -3.124672
    17 -2.618796 -6.269598 8.263164 -2.851066 0.163956 -1.742440
    18 11.485748 0.000000 0.000000 0.000000 0.000000 -1.715277
    19 24.536900 -0.000001 -0.000001 0.000000 0.000000 1.935143
    20 -2.618795 -6.269599 -8.136835 -0.301134 -0.169283 -1.720772
    21 11.659968 0.000000 0.000000 0.000000 0.000000 1.638464
    22 25.724375 0.000000 0.000000 0.000000 0.000000 -1.707217
    23 3.880159 -0.980432 0.090609 0.000000 0.000000 -0.206090
    24 13.389691 0.268266 -6.517195 0.542283 1.306249 -0.395924
    25 9.913784 0.000001 0.000000 1.333535 -0.961361 -1.344737
    26 21.016012 0.000002 -0.000001 0.000000 0.000000 -1.793279
    27 28.471630 -0.000002 0.000002 0.000000 0.000000 1.977516
    28 13.389687 0.268266 6.023556 -0.462585 -1.348926 -0.488759
    29 9.768897 0.000001 0.000001 -1.416597 0.642101 -1.299394
    30 19.931143 0.000001 -0.000001 0.000000 0.000000 -1.422239
    31 26.044123 -0.000001 -0.000001 0.000000 0.000000 1.443209
    32 -5.849911 4.319725 0.063164 0.749574 -0.858420 0.700006
    33 -5.827133 4.411094 0.063164 -0.433844 0.691012 1.028550
    34 13.389687 0.268266 6.023556 -0.462585 -1.348926 -0.488759
  time 18
    0 -0.059525 1.526386 24.721458 1.570796 -0.647915 1.570720
    1 -5.574219 -0.123169 0.054230 0.000000 0.000000 -0.212930
    2 -5.511719 -2.697266 -3.988281 0.393298 -0.165999 -0.903107
    3 10.569403 0.000000 0.000000 0.000000 0.000000 -2.401399
    4 13.357940 0.000000 0.000000 0.000000 0.000000 2.790894
    5 -5.436410 -2.626257 3.516682 2.761840 0.146246 -0.922226
    6 10.523520 0.000000 0.000000 0.000000 0.000000 2.411965
    7 13.611949 0.000001 0.000000 0.000000 0.000000 -2.810338
    8 -8.414063 1.073242 -0.018158 0.000000 0.000000 0.172788
    9 -9.984112 -4.710447 3.170796 -2.902516 -0.005451 -2.718124
    10 5.945618 0.000000 0.000000 0.000000 0.000000 0.734118
    11 -9.984110 -4.710446 -2.998739 -0.223381 0.004015 -2.698290
    12 5.945625 0.000000 0.000000 0.000000 0.000000 -0.752785
    13 -13.167568 0.616876 1.590356 3.140739 -0.157522 -3.136150
    14 1.939788 0.000000 0.000000 3.040688 0.121169 2.449692
    15 -13.157713 0.632509 -1.795553 1.570796 0.016921 -3.058550
    16 2.215697 0.000000 -0.000001 1.570796 -0.608107 -3.124672
    17 -2.618796 -6.269598 8.263164 -2.832260 0.183375 -1.552313
    18 11.485748 0.000000 0.000000 0.000000 0.000000 -1.863851
    19 24.536900 -0.000001 -0.000001 0.000000 0.000000 2.258251
    20 -2.618795 -6.269599 -8.136835 -0.315255 -0.188386 -1.562427
    21 11.659968 0.000000 0.000000 0.000000 0.000000 1.793318
    22 25.724375 0.000000 0.000000 0.000000 0.000000 -2.030693
    23 3.880159 -0.980432 0.090609 0.000000 0.000000 0.037688
    24 13.389691 0.268266 -6.517195 0.542283 1.306249 -0.395924
    25 9.913784 0.000001 0.000000 1.423699 -0.822452 -1.538477
    26 21.016012 0.000002 -0.000001 0.000000 0.000000 -1.897034
    27 28.471630 -0.000002 0.000002 0.000000 0.000000 2.176445
    28 13.389687 0.268266 6.023556 -0.462585 -1.348926 -0.488759
    29 9.768897 0.000001 0.000001 -1.436588 0.864919 -1.227531
    30 19.931143 0.000001 -0.000001 0.000000 0.000000 -1.390477
    31 26.044123 -0.000001 -0.000001 0.000000 0.000000 1.386866
    32 -5.849911 4.319725 0.063164 0.686845 -0.915055 1.005683
    33 -5.827133 4.411094 0.063164 -0.518852 0.858950 1.112842
    34 13.389687 0.268266 6.023556 -0.462585 -1.348926 -0.488759
  time 19
    0 -0.059525 1.526386 24.721458 1.570796 -0.584129 1.570720
    1 -5.574219 -0.123169 0.054230 0.000000 0.000000 -0.212930
    2 -5.511719 -2.697266 -3.988281 0.393298 -0.165999 -0.903107
    3 10.569403 0.000000 0.000000 0.000000 0.000000 -2.401399
    4 13.357940 0.000000 0.000000 0.000000 0.000000 2.790894
    5 -5.436410 -2.626257 3.516682 2.761840 0.146246 -0.922226
    6 10.523520 0.000000 0.000000 0.000000 0.000000 2.412018
    7 13.611949 0.000001 0.000000 0.000000 0.000000 -2.810338
    8 -8.414063 1.073242 -0.018158 0.000000 0.000000 0.172788
    9 -9.984112 -4.710447 3.170796 -2.902516 -0.005451 -2.718124
    10 5.945618 0.000000 0.000000 0.000000 0.000000 0.734118
    11 -9.984110 -4.710446 -2.998739 -0.223381 0.004015 -2.698290
    12 5.945625 0.000000 0.000000 0.000000 0.000000 -0.752785
    13 -13.167568 0.616876 1.590356 3.140739 -0.157522 -3.136150
    14 1.939788 0.000000 0.000000 3.040688 0.121169 2.449692
    15 -13.157713 0.632509 -1.795553 1.570796 0.016921 -3.058550
    16 2.215697 0.000000 -0.000001 1.570796 -0.608107 -3.124672
    17 -2.618796 -6.269598 8.263164 -2.758592 0.165951 -1.024560
    18 11.485748 0.000000 0.000000 0.000000 0.000000 -2.129472
    19 24.536900 -0.000001 -0.000001 0.000000 0.000000 2.828419
    20 -2.618795 -6.269599 -8.136835 -0.353041 -0.227875 -1.347703
    21 11.659968 0.000000 0.000000 0.000000 0.000000 1.944162
    22 25.724375 0.000000 0.000000 0.000000 0.000000 -2.350120
    23 3.880159 -0.980432 0.090609 0.000000 0.000000 0.272583
    24 13.389691 0.268266 -6.517195 0.542283 1.306249 -0.395924
    25 9.913784 0.000001 0.000000 1.461881 -0.620543 -1.686979
    26 21.016012 0.000002 -0.000001 0.000000 0.000000 -1.929938
    27 28.471630 -0.000002 0.000002 0.000000 0.000000 2.241198
    28 13.389687 0.268266 6.023556 -0.462585 -1.348926 -0.488759
    29 9.768897 0.000001 0.000001 -1.511576 0.896656 -1.293287
    30 19.931143 0.000001 -0.000001 0.000000 0.000000 -1.340490
    31 26.044123 -0.000001 -0.000001 0.000000 0.000000 1.301455
    32 -5.849911 4.319725 0.063164 0.655891 -0.932529 1.157836
    33 -5.827133 4.411094 0.063164 -0.567472 0.923990 1.162382
    34 13.389687 0.268266 6.023556 -0.462585 -1.348926 -0.488759
  time 20
    0 -0.059525 1.526386 24.721458 1.570796 -0.519344 1.570720
    1 -5.574219 -0.123169 0.054230 0.000000 0.000000 -0.212930
    2 -5.511719 -2.697266 -3.988281 0.393298 -0.165999 -0.903107
    3 10.569403 0.000000 0.000000 0.000000 0.000000 -2.401399
    4 13.357940 0.000000 0.000000 0.000000 0.000000 2.790894
    5 -5.436410 -2.626257 3.516682 2.761840 0.146246 -0.922226
    6 10.523520 0.000000 0.000000 0.000000 0.000000 2.412018
    7 13.611949 0.000001 0.000000 0.000000 0.000000 -2.810338
    8 -8.414063 1.073242 -0.018158 0.000000 0.000000 0.172788
    9 -9.984112 -4.710447 3.170796 -2.902516 -0.005451 -2.718124
    10 5.945618 0.000000 0.000000 0.000000 0.000000 0.734118
    11 -9.984110 -4.710446 -2.998739 -0.223381 0.004015 -2.698290
    12 5.945625 0.000000 0.000000 0.000000 0.000000 -0.752785
    13 -13.167568 0.616876 1.590356 3.140739 -0.157522 -3.136150
    14 1.939788 0.000000 0.000000 3.040688 0.121169 2.449692
    15 -13.157713 0.632509 -1.795553 1.570796 0.016921 -3.058550
    16 2.215697 0.000000 -0.000001 1.570796 -0.608107 -3.124672
    17 -2.618796 -6.269598 8.263164 -2.484166 -0.093545 0.091043
    18 11.485748 0.000000 0.000000 0.000000 0.000000 -2.110233
    19 24.536900 -0.000001 -0.000001 0.000000 0.000000 3.283785
    20 -2.618795 -6.269599 -8.136835 -0.427085 -0.272876 -1.096091
    21 11.659968 0.000000 0.000000 0.000000 0.000000 2.069749
    22 25.724375 0.000000 0.000000 0.000000 0.000000 -2.607281
    23 3.880159 -0.980432 0.090609 0.000000 0.000000 0.467995
    24 13.389691 0.268266 -6.517195 0.542283 1.306249 -0.395924
    25 9.913784 0.000001 0.000000 1.468321 -0.330462 -1.804559
    26 21.016012 0.000002 -0.000001 0.000000 0.000000 -1.999542
    27 28.471630 -0.000002 0.000002 0.000000 0.000000 2.382540
    28 13.389687 0.268266 6.023556 -0.462585 -1.348926 -0.488759
    29 9.768897 0.000001 0.000001 -1.564565 0.733502 -1.411054
    30 19.931143 0.000001 -0.000001 0.000000 0.000000 -1.508091
    31 26.044123 -0.000001 -0.000001 0.000000 0.000000 1.601161
    32 -5.849911 4.319725 0.063164 0.652346 -0.922226 1.191886
    33 -5.827133 4.411094 0.063164 -0.563110 0.918750 1.208612
    34 13.389687 0.268266 6.023556 -0.462585 -1.348926 -0.488759
  time 21
    0 -0.059525 1.526386 24.721458 1.570796 -0.459509 1.570720
    1 -5.574219 -0.123169 0.054230 0.000000 0.000000 -0.212930
    2 -5.511719 -2.697266 -3.988281 0.393298 -0.165999 -0.903107
    3 10.569403 0.000000 0.000000 0.000000 0.000000 -2.401399
    4 13.357940 0.000000 0.000000 0.000000 0.000000 2.790894
    5 -5.436410 -2.626257 3.516682 2.761840 0.146246 -0.922226
    6 10.523520 0.000000 0.000000 0.000000 0.000000 2.412018
    7 13.611949 0.000001 0.000000 0.000000 0.000000 -2.810338
    8 -8.414063 1.073242 -0.018158 0.000000 0.000000 0.172788
    9 -9.984112 -4.710447 3.170796 -2.902516 -0.005451 -2.718124
    10 5.945618 0.000000 0.000000 0.000000 0.000000 0.734118
    11 -9.984110 -4.710446 -2.998739 -0.223381 0.004015 -2.698290
    12 5.945625 0.000000 0.000000 0.000000 0.000000 -0.752785
    13 -13.167568 0.616876 1.590356 3.140739 -0.157522 -3.136150
    14 1.939788 0.000000 0.000000 3.040688 0.121169 2.449692
    15 -13.157713 0.632509 -1.795553 1.570796 0.016921 -3.058550
    16 2.215697 0.000000 -0.000001 1.570796 -0.608107 -3.124672
    17 -2.618796 -6.269598 8.263164 -2.432299 -0.092904 0.402233
    18 11.485748 0.000000 0.000000 0.000000 0.000000 -2.129361
    19 24.536900 -0.000001 -0.000001 0.000000 0.000000 3.269766
    20 -2.618795 -6.269599 -8.136835 -0.503514 -0.292890 -0.887081
    21 11.659968 0.000000 0.000000 0.000000 0.000000 2.155094
    22 25.724375 0.000000 0.000000 0.000000 0.000000 -2.776665
    23 3.880159 -0.980432 0.090609 0.000000 0.000000 0.593442
    24 13.389691 0.268266 -6.517195 0.542283 1.306249 -0.395924
    25 9.913784 0.000001 0.000000 1.456085 -0.026822 -1.909160
    26 21.016012 0.000002 -0.000001 0.000000 0.000000 -2.075546
    27 28.471630 -0.000002 0.000002 0.000000 0.000000 2.548261
    28 13.389687 0.268266 6.023556 -0.462585 -1.348926 -0.488759
    29 9.768897 0.000001 0.000001 -1.566096 0.457131 -1.511262
    30 19.931143 0.000001 -0.000001 0.000000 0.000000 -1.726373
    31 26.044123 -0.000001 -0.000001 0.000000 0.000000 2.052736
    32 -5.849911 4.319725 0.063164 0.666318 -0.894991 1.150599
    33 -5.827133 4.411094 0.063164 -0.525946 0.869458 1.247956
    34 13.389687 0.268266 6.023556 -0.462585 -1.348926 -0.488759
  time 22
    0 -0.059525 1.526386 24.721458 1.570796 -0.410419 1.570720
    1 -5.574219 -0.123169 0.054230 0.000000 0.000000 -0.212930
    2 -5.511719 -2.697266 -3.988281 0.393298 -0.165999 -0.903107
    3 10.569403 0.000000 0.000000 0.000000 0.000000 -2.401399
    4 13.357940 0.000000 0.000000 0.000000 0.000000 2.790894
    5 -5.436410 -2.626257 3.516682 2.761840 0.146246 -0.922226
    6 10.523520 0.000000 0.000000 0.000000 0.000000 2.412018
    7 13.611949 0.000001 0.000000 0.000000 0.000000 -2.810338
    8 -8.414063 1.073242 -0.018158 0.000000 0.000000 0.172788
    9 -9.984112 -4.710447 3.170796 -2.902516 -0.005451 -2.718124
    10 5.945618 0.000000 0.000000 0.000000 0.000000 0.734118
    11 -9.984110 -4.710446 -2.998739 -0.223381 0.004015 -2.698290
    12 5.945625 0.000000 0.000000 0.000000 0.000000 -0.752785
    13 -13.167568 0.616876 1.590356 3.140739 -0.157522 -3.136150
    14 1.939788 0.000000 0.000000 3.040688 0.121169 2.449692
    15 -13.157713 0.632509 -1.795553 1.570796 0.016921 -3.058550
    16 2.215697 0.000000 -0.000001 1.570796 -0.608107 -3.124672
    17 -2.618796 -6.269598 8.263164 -2.557294 0.055853 0.424827
    18 11.485748 0.000000 0.000000 0.000000 0.000000 -2.204482
    19 24.536900 -0.000001 -0.000001 0.000000 0.000000 3.167133
    20 -2.618795 -6.269599 -8.136835 -0.563341 -0.285763 -0.726959
    21 11.659968 0.000000 0.000000 0.000000 0.000000 2.217036
    22 25.724375 0.000000 0.000000 0.000000 0.000000 -2.903189
    23 3.880159 -0.980432 0.090609 0.000000 0.000000 0.660912
    24 13.389691 0.268266 -6.517195 0.542283 1.306249 -0.395924
    25 9.913784 0.000001 0.000000 1.432900 0.238216 -2.013761
    26 21.016012 0.000002 -0.000001 0.000000 0.000000 -2.143451
    27 28.471630 -0.000002 0.000002 0.000000 0.000000 2.718781
    28 13.389687 0.268266 6.023556 -0.462585 -1.348926 -0.488759
    29 9.768897 0.000001 0.000001 -1.552418 0.176555 -1.589138
    30 19.931143 0.000001 -0.000001 0.000000 0.000000 -1.890403
    31 26.044123 -0.000001 -0.000001 0.000000 0.000000 2.459236
    32 -5.849911 4.319725 0.063164 0.686715 -0.861466 1.078168
    33 -5.827133 4.411094 0.063164 -0.484001 0.800831 1.269202
    34 13.389687 0.268266 6.023556 -0.462585 -1.348926 -0.488759
  time 23
    0 -0.059525 1.526386 24.721458 1.570796 -0.371179 1.570720
    1 -5.574219 -0.123169 0.054230 0.000000 0.000000 -0.212930
    2 -5.511719 -2.697266 -3.988281 0.393298 -0.165999 -0.903107
    3 10.569403 0.000000 0.000000 0.000000 0.000000 -2.401399
    4 13.357940 0.000000 0.000000 0.000000 0.000000 2.790894
    5 -5.436410 -2.626257 3.516682 2.761840 0.146246 -0.922226
    6 10.523520 0.000000 0.000000 0.000000 0.000000 2.411965
    7 13.611949 0.000001 0.000000 0.000000 0.000000 -2.810338
    8 -8.414063 1.073242 -0.018158 0.000000 0.000000 0.172788
    9 -9.984112 -4.710447 3.170796 -2.902516 -0.005451 -2.718124
    10 5.945618 0.000000 0.000000 0.000000 0.000000 0.734118
    11 -9.984110 -4.710446 -2.998739 -0.223381 0.004015 -2.698290
    12 5.945625 0.000000 0.000000 0.000000 0.000000 -0.752785
    13 -13.167568 0.616876 1.590356 3.140739 -0.157522 -3.136150
    14 1.939788 0.000000 0.000000 3.040688 0.121169 2.449692
    15 -13.157713 0.632509 -1.795553 1.570796 0.016921 -3.058550
    16 2.215697 0.000000 -0.000001 1.570796 -0.608107 -3.124672
    17 -2.618796 -6.269598 8.263164 -2.681151 0.124834 0.489813
    18 11.485748 0.000000 0.000000 0.000000 0.000000 -2.213323
    19 24.536900 -0.000001 -0.000001 0.000000 0.000000 3.116809
    20 -2.618795 -6.269599 -8.136835 -0.591967 -0.258995 -0.619724
    21 11.659968 0.000000 0.000000 0.000000 0.000000 2.261187
    22 25.724375 0.000000 0.000000 0.000000 0.000000 -3.006645
    23 3.880159 -0.980432 0.090609 0.000000 0.000000 0.705445
    24 13.389691 0.268266 -6.517195 0.542283 1.306249 -0.395924
    25 9.913784 0.000001 0.000000 1.406679 0.424163 -2.100610
    26 21.016012 0.000002 -0.000001 0.000000 0.000000 -2.181906
    27 28.471630 -0.000002 0.000002 0.000000 0.000000 2.848222
    28 13.389687 0.268266 6.023556 -0.462585 -1.348926 -0.488759
    29 9.768897 0.000001 0.000001 -1.540175 -0.080826 -1.646972
    30 19.931143 0.000001 -0.000001 0.000000 0.000000 -1.975190
    31 26.044123 -0.000001 -0.000001 0.000000 0.000000 2.765408
    32 -5.849911 4.319725 0.063164 0.703762 -0.832152 1.016649
    33 -5.827133 4.411094 0.063164 -0.453947 0.739687 1.272245
    34 13.389687 0.268266 6.023556 -0.462585 -1.348926 -0.488759
  time 24
    0 -0.059525 1.526386 24.721458 1.570796 -0.337838 1.570720
    1 -5.574219 -0.123169 0.054230 0.000000 0.000000 -0.212930
    2 -5.511719 -2.697266 -3.988281 0.393298 -0.165999 -0.903107
    3 10.569403 0.000000 0.000000 0.000000 0.000000 -2.401399
    4 13.357940 0.000000 0.000000 0.000000 0.000000 2.790894
    5 -5.436410 -2.626257 3.516682 2.761840 0.146246 -0.922226
    6 10.523520 0.000000 0.000000 0.000000 0.000000 2.412018
    7 13.611949 0.000001 0.000000 0.000000 0.000000 -2.810338
    8 -8.414063 1.073242 -0.018158 0.000000 0.000000 0.172788
    9 -9.984112 -4.710447 3.170796 -2.902516 -0.005451 -2.718124
    10 5.945618 0.000000 0.000000 0.000000 0.000000 0.734118
    11 -9.984110 -4.710446 -2.998739 -0.223381 0.004015 -2.698290
    12 5.945625 0.000000 0.000000 0.000000 0.000000 -0.752785
    13 -13.167568 0.616876 1.590356 3.140739 -0.157522 -3.136150
    14 1.939788 0.000000 0.000000 3.040688 0.121169 2.449692
    15 -13.157713 0.632509 -1.795553 1.570796 0.016921 -3.058550
    16 2.215697 0.000000 -0.000001 1.570796 -0.608107 -3.124672
    17 -2.618796 -6.269598 8.263164 -2.818484 0.157008 0.498373
    18 11.485748 0.000000 0.000000 0.000000 0.000000 -2.208041
    19 24.536900 -0.000001 -0.000001 0.000000 0.000000 3.154635
    20 -2.618795 -6.269599 -8.136835 -0.605039 -0.222862 -0.533377
    21 11.659968 0.000000 0.000000 0.000000 0.000000 2.283688
    22 25.724375 0.000000 0.000000 0.000000 0.000000 -3.104831
    23 3.880159 -0.980432 0.090609 0.000000 0.000000 0.730815
    24 13.389691 0.268266 -6.517195 0.542283 1.306249 -0.395924
    25 9.913784 0.000001 0.000000 1.392970 0.504615 -2.136208
    26 21.016012 0.000002 -0.000001 0.000000 0.000000 -2.191704
    27 28.471630 -0.000002 0.000002 0.000000 0.000000 2.895571
    28 13.389687 0.268266 6.023556 -0.462585 -1.348926 -0.488759
    29 9.768897 0.000001 0.000001 -1.522958 -0.365213 -1.710150
    30 19.931143 0.000001 -0.000001 0.000000 0.000000 -1.991124
    31 26.044123 -0.000001 -0.000001 0.000000 0.000000 2.963761
    32 -5.849911 4.319725 0.063164 0.708884 -0.817410 1.006012
    33 -5.827133 4.411094 0.063164 -0.443142 0.714438 1.265786
    34 13.389687 0.268266 6.023556 -0.462585 -1.348926 -0.488759
  time 25
    0 -0.059525 1.526386 24.721458 1.570796 -0.311871 1.570720
    1 -5.574219 -0.123169 0.054230 0.000000 0.000000 -0.212930
    2 -5.511719 -2.697266 -3.988281 0.393298 -0.165999 -0.903107
    3 10.569403 0.000000 0.000000 0.000000 0.000000 -2.401399
    4 13.357940 0.000000 0.000000 0.000000 0.000000 2.790894
    5 -5.436410 -2.626257 3.516682 2.761840 0.146246 -0.922226
    6 10.523520 0.000000 0.000000 0.000000 0.000000 2.412018
    7 13.611949 0.000001 0.000000 0.000000 0.000000 -2.810338
    8 -8.414063 1.073242 -0.018158 0.000000 0.000000 0.172788
    9 -9.984112 -4.710447 3.170796 -2.902516 -0.005451 -2.718124
    10 5.945618 0.000000 0.000000 0.000000 0.000000 0.734118
    11 -9.984110 -4.710446 -2.998739 -0.223381 0.004015 -2.698290
    12 5.945625 0.000000 0.000000 0.000000 0.000000 -0.752785
    13 -13.167568 0.616876 1.590356 3.140739 -0.157522 -3.136150
    14 1.939788 0.000000 0.000000 3.040688 0.121169 2.449692
    15 -13.157713 0.632509 -1.795553 1.570796 0.016921 -3.058550
    16 2.215697 0.000000 -0.000001 1.570796 -0.608107 -3.124672
    17 -2.618796 -6.269598 8.263164 -2.931501 0.197948 0.419003
    18 11.485748 0.000000 0.000000 0.000000 0.000000 -2.184576
    19 24.536900 -0.000001 -0.000001 0.000000 0.000000 3.210514
    20 -2.618795 -6.269599 -8.136835 -0.634141 -0.169366 -0.413698
    21 11.659968 0.000000 0.000000 0.000000 0.000000 2.258080
    22 25.724375 0.000000 0.000000 0.000000 0.000000 -3.211628
    23 3.880159 -0.980432 0.090609 0.000000 0.000000 0.741035
    24 13.389691 0.268266 -6.517195 0.542283 1.306249 -0.395924
    25 9.913784 0.000001 0.000000 1.392418 0.517526 -2.134395
    26 21.016012 0.000002 -0.000001 0.000000 0.000000 -2.192440
    27 28.471630 -0.000002 0.000002 0.000000 0.000000 2.899474
    28 13.389687 0.268266 6.023556 -0.462585 -1.348926 -0.488759
    29 9.768897 0.000001 0.000001 -1.502394 -0.610109 -1.768653
    30 19.931143 0.000001 -0.000001 0.000000 0.000000 -1.979293
    31 26.044123 -0.000001 -0.000001 0.000000 0.000000 3.058327
    32 -5.849911 4.319725 0.063164 0.705626 -0.813825 1.030302
    33 -5.827133 4.411094 0.063164 -0.443965 0.716456 1.258846
    34 13.389687 0.268266 6.023556 -0.462585 -1.348926 -0.488759
  time 26
    0 -0.059525 1.526386 24.721458 1.570796 -0.294595 1.570720
    1 -5.574219 -0.123169 0.054230 0.000000 0.000000 -0.212930
    2 -5.511719 -2.697266 -3.988281 0.393298 -0.165999 -0.903107
    3 10.569403 0.000000 0.000000 0.000000 0.000000 -2.401399
    4 13.357940 0.000000 0.000000 0.000000 0.000000 2.790894
    5 -5.436410 -2.626257 3.516682 2.761840 0.146246 -0.922226
    6 10.523520 0.000000 0.000000 0.000000 0.000000 2.412018
    7 13.611949 0.000001 0.000000 0.000000 0.000000 -2.810338
    8 -8.414063 1.073242 -0.018158 0.000000 0.000000 0.172788
    9 -9.984112 -4.710447 3.170796 -2.902516 -0.005451 -2.718124
    10 5.945618 0.000000 0.000000 0.000000 0.000000 0.734118
    11 -9.984110 -4.710446 -2.998739 -0.223381 0.004015 -2.698290
    12 5.945625 0.000000 0.000000 0.000000 0.000000 -0.752785
    13 -13.167568 0.616876 1.590356 3.140739 -0.157522 -3.136150
    14 1.939788 0.000000 0.000000 3.040688 0.121169 2.449692
    15 -13.157713 0.632509 -1.795553 1.570796 0.016921 -3.058550
    16 2.215697 0.000000 -0.000001 1.570796 -0.608107 -3.124672
    17 -2.618796 -6.269598 8.263164 -2.980014 0.218649 0.222588
    18 11.485748 0.000000 0.000000 0.000000 0.000000 -2.171620
    19 24.536900 -0.000001 -0.000001 0.000000 0.000000 3.228501
    20 -2.618795 -6.269599 -8.136835 -0.641107 -0.137750 -0.353953
    21 11.659968 0.000000 0.000000 0.000000 0.000000 2.178598
    22 25.724375 0.000000 0.000000 0.000000 0.000000 -3.285397
    23 3.880159 -0.980432 0.090609 0.000000 0.000000 0.739879
    24 13.389691 0.268266 -6.517195 0.542283 1.306249 -0.395924
    25 9.913784 0.000001 0.000000 1.396282 0.509092 -2.124469
    26 21.016012 0.000002 -0.000001 0.000000 0.000000 -2.190401
    27 28.471630 -0.000002 0.000002 0.000000 0.000000 2.888021
    28 13.389687 0.268266 6.023556 -0.462585 -1.348926 -0.488759
    29 9.768897 0.000001 0.000001 -1.479534 -0.780163 -1.822765
    30 19.931143 0.000001 -0.000001 0.000000 0.000000 -1.974657
    31 26.044123 -0.000001 -0.000001 0.000000 0.000000 3.080032
    32 -5.849911 4.319725 0.063164 0.703110 -0.811035 1.047847
    33 -5.827133 4.411094 0.063164 -0.444617 0.718025 1.254095
    34 13.389687 0.268266 6.023556 -0.462585 -1.348926 -0.488759
  time 27
    0 -0.059525 1.526386 24.721458 1.570796 -0.287537 1.570720
    1 -5.574219 -0.123169 0.054230 0.000000 0.000000 -0.212930
    2 -5.511719 -2.697266 -3.988281 0.393298 -0.165999 -0.903107
    3 10.569403 0.000000 0.000000 0.000000 0.000000 -2.401399
    4 13.357940 0.000000 0.000000 0.000000 0.000000 2.790894
    5 -5.436410 -2.626257 3.516682 2.761840 0.146246 -0.922226
    6 10.523520 0.000000 0.000000 0.000000 0.000000 2.412018
    7 13.611949 0.000001 0.000000 0.000000 0.000000 -2.810338
    8 -8.414063 1.073242 -0.018158 0.000000 0.000000 0.172788
    9 -9.984112 -4.710447 3.170796 -2.902516 -0.005451 -2.718124
    10 5.945618 0.000000 0.000000 0.000000 0.000000 0.734118
    11 -9.984110 -4.710446 -2.998739 -0.223381 0.004015 -2.698290
    12 5.945625 0.000000 0.000000 0.000000 0.000000 -0.752785
    13 -13.167568 0.616876 1.590356 3.140739 -0.157522 -3.136150
    14 1.939788 0.000000 0.000000 3.040688 0.121169 2.449692
    15 -13.157713 0.632509 -1.795553 1.570796 0.016921 -3.058550
    16 2.215697 0.000000 -0.000001 1.570796 -0.608107 -3.124672
    17 -2.618796 -6.269598 8.263164 -3.020501 0.231405 0.052552
    18 11.485748 0.000000 0.000000 0.000000 0.000000 -2.178682
    19 24.536900 -0.000001 -0.000001 0.000000 0.000000 3.219441
    20 -2.618795 -6.269599 -8.136835 -0.655515 -0.133648 -0.326462
    21 11.659968 0.000000 0.000000 0.000000 0.000000 2.086738
    22 25.724375 0.000000 0.000000 0.000000 0.000000 -3.331598
    23 3.880159 -0.980432 0.090609 0.000000 0.000000 0.731301
    24 13.389691 0.268266 -6.517195 0.542283 1.306249 -0.395924
    25 9.913784 0.000001 0.000000 1.401986 0.487941 -2.111108
    26 21.016012 0.000002 -0.000001 0.000000 0.000000 -2.185644
    27 28.471630 -0.000002 0.000002 0.000000 0.000000 2.863771
    28 13.389687 0.268266 6.023556 -0.462585 -1.348926 -0.488759
    29 9.768897 0.000001 0.000001 -1.456291 -0.890356 -1.874109
    30 19.931143 0.000001 -0.000001 0.000000 0.000000 -1.976309
    31 26.044123 -0.000001 -0.000001 0.000000 0.000000 3.072925
    32 -5.849911 4.319725 0.063164 0.701234 -0.808929 1.059636
    33 -5.827133 4.411094 0.063164 -0.445114 0.719202 1.251105
    34 13.389687 0.268266 6.023556 -0.462585 -1.348926 -0.488759
  time 28
    0 0.053760 1.526386 24.721458 1.570796 -0.299282 1.570720
    1 -5.574219 -0.123169 0.054230 0.000000 0.000000 -0.212930
    2 -5.511719 -2.697266 -3.988281 0.393298 -0.165999 -0.903107
    3 10.569403 0.000000 0.000000 0.000000 0.000000 -2.401399
    4 13.357940 0.000000 0.000000 0.000000 0.000000 2.790894
    5 -5.436410 -2.626257 3.516682 2.761840 0.146246 -0.922226
    6 10.523520 0.000000 0.000000 0.000000 0.000000 2.412018
    7 13.611949 0.000001 0.000000 0.000000 0.000000 -2.810338
    8 -8.414063 1.073242 -0.018158 0.000000 0.000000 0.172788
    9 -9.984112 -4.710447 3.170796 -2.902516 -0.005451 -2.718124
    10 5.945618 0.000000 0.000000 0.000000 0.000000 0.734118
    11 -9.984110 -4.710446 -2.998739 -0.223381 0.004015 -2.698290
    12 5.945625 0.000000 0.000000 0.000000 0.000000 -0.752785
    13 -13.167568 0.616876 1.590356 3.140739 -0.157522 -3.136150
    14 1.939788 0.000000 0.000000 3.040688 0.121169 2.449692
    15 -13.157713 0.632509 -1.795553 1.570796 0.016921 -3.058550
    16 2.215697 0.000000 -0.000001 1.570796 -0.608107 -3.124672
    17 -2.618796 -6.269598 8.263164 -3.050447 0.249255 -0.080217
    18 11.485748 0.000000 0.000000 0.000000 0.000000 -2.185743
    19 24.536900 -0.000001 -0.000001 0.000000 0.000000 3.208596
    20 -2.618795 -6.269599 -8.136835 -0.640630 -0.149559 -0.372238
    21 11.659968 0.000000 0.000000 0.000000 0.000000 2.032063
    22 25.724375 0.000000 0.000000 0.000000 0.000000 -3.351904
    23 3.880159 -0.980432 0.090609 0.000000 0.000000 0.704776
    24 13.389691 0.268266 -6.517195 0.542283 1.306249 -0.395924
    25 9.913784 0.000001 0.000000 1.415235 0.425461 -2.075319
    26 21.016012 0.000002 -0.000001 0.000000 0.000000 -2.170126
    27 28.471630 -0.000002 0.000002 0.000000 0.000000 2.804329
    28 13.389687 0.268266 6.023556 -0.462585 -1.348926 -0.488759
    29 9.768897 0.000001 0.000001 -1.438405 -0.933789 -1.923736
    30 19.931143 0.000001 -0.000001 0.000000 0.000000 -1.980199
    31 26.044123 -0.000001 -0.000001 0.000000 0.000000 3.053589
    32 -5.849911 4.319725 0.063164 0.699891 -0.807393 1.066709
    33 -5.827133 4.411094 0.063164 -0.445471 0.720043 1.249611
    34 13.389687 0.268266 6.023556 -0.462585 -1.348926 -0.488759
  time 29
    0 0.346738 1.526386 24.721458 1.570796 -0.331781 1.570720
    1 -5.574219 -0.123169 0.054230 0.000000 0.000000 -0.212930
    2 -5.511719 -2.697266 -3.988281 0.393298 -0.165999 -0.903107
    3 10.569403 0.000000 0.000000 0.000000 0.000000 -2.401399
    4 13.357940 0.000000 0.000000 0.000000 0.000000 2.790894
    5 -5.436410 -2.626257 3.516682 2.761840 0.146246 -0.922226
    6 10.523520 0.000000 0.000000 0.000000 0.000000 2.412018
    7 13.611949 0.000001 0.000000 0.000000 0.000000 -2.810338
    8 -8.414063 1.073242 -0.018158 0.000000 0.000000 0.172788
    9 -9.984112 -4.710447 3.170796 -2.902516 -0.005451 -2.718124
    10 5.945618 0.000000 0.000000 0.000000 0.000000 0.734118
    11 -9.984110 -4.710446 -2.998739 -0.223381 0.004015 -2.698290
    12 5.945625 0.000000 0.000000 0.000000 0.000000 -0.752785
    13 -13.167568 0.616876 1.590356 3.140739 -0.157522 -3.136150
    14 1.939788 0.000000 0.000000 3.040688 0.121169 2.449692
    15 -13.157713 0.632509 -1.795553 1.570796 0.016921 -3.058550
    16 2.215697 0.000000 -0.000001 1.570796 -0.608107 -3.124672
    17 -2.618796 -6.269598 8.263164 -3.106087 0.282855 -0.296955
    18 11.485748 0.000000 0.000000 0.000000 0.000000 -2.198532
    19 24.536900 -0.000001 -0.000001 0.000000 0.000000 3.183732
    20 -2.618795 -6.269599 -8.136835 -0.552941 -0.169449 -0.546011
    21 11.659968 0.000000 0.000000 0.000000 0.000000 2.054063
    22 25.724375 0.000000 0.000000 0.000000 0.000000 -3.344321
    23 3.880159 -0.980432 0.090609 0.000000 0.000000 0.653611
    24 13.389691 0.268266 -6.517195 0.542283 1.306249 -0.395924
    25 9.913784 0.000001 0.000000 1.432440 0.329438 -2.025691
    26 21.016012 0.000002 -0.000001 0.000000 0.000000 -2.141412
    27 28.471630 -0.000002 0.000002 0.000000 0.000000 2.713022
    28 13.389687 0.268266 6.023556 -0.462585 -1.348926 -0.488759
    29 9.768897 0.000001 0.000001 -1.439840 -0.883325 -1.952462
    30 19.931143 0.000001 -0.000001 0.000000 0.000000 -1.986754
    31 26.044123 -0.000001 -0.000001 0.000000 0.000000 3.014405
    32 -5.849911 4.319725 0.063164 0.698992 -0.806368 1.070053
    33 -5.827133 4.411094 0.063164 -0.445704 0.720603 1.249184
    34 13.389687 0.268266 6.023556 -0.462585 -1.348926 -0.488759
  time 30
    0 0.737374 1.526386 24.721458 1.570796 -0.376393 1.570720
    1 -5.574219 -0.123169 0.054230 0.000000 0.000000 -0.212930
    2 -5.511719 -2.697266 -3.988281 0.393298 -0.165999 -0.903107
    3 10.569403 0.000000 0.000000 0.000000 0.000000 -2.401399
    4 13.357940 0.000000 0.000000 0.000000 0.000000 2.790894
    5 -5.436410 -2.626257 3.516682 2.761840 0.146246 -0.922226
    6 10.523520 0.000000 0.000000 0.000000 0.000000 2.412018
    7 13.611949 0.000001 0.000000 0.000000 0.000000 -2.810338
    8 -8.414063 1.073242 -0.018158 0.000000 0.000000 0.172788
    9 -9.984112 -4.710447 3.170796 -2.902516 -0.005451 -2.718124
    10 5.945618 0.000000 0.000000 0.000000 0.000000 0.734118
    11 -9.984110 -4.710446 -2.998739 -0.223381 0.004015 -2.698290
    12 5.945625 0.000000 0.000000 0.000000 0.000000 -0.752785
    13 -13.167568 0.616876 1.590356 3.140739 -0.157522 -3.136150
    14 1.939788 0.000000 0.000000 3.040688 0.121169 2.449692
    15 -13.157713 0.632509 -1.795553 1.570796 0.016921 -3.058550
    16 2.215697 0.000000 -0.000001 1.570796 -0.608107 -3.124672
    17 -2.618796 -6.269598 8.263164 -3.042422 0.264755 -0.581009
    18 11.485748 0.000000 0.000000 0.000000 0.000000 -2.211822
    19 24.536900 -0.000001 -0.000001 0.000000 0.000000 3.135523
    20 -2.618795 -6.269599 -8.136835 -0.443783 -0.174380 -0.806131
    21 11.659968 0.000000 0.000000 0.000000 0.000000 2.140611
    22 25.724375 0.000000 0.000000 0.000000 0.000000 -3.306987
    23 3.880159 -0.980432 0.090609 0.000000 0.000000 0.587845
    24 13.389691 0.268266 -6.517195 0.542283 1.306249 -0.395924
    25 9.913784 0.000001 0.000000 1.446516 0.242043 -1.983411
    26 21.016012 0.000002 -0.000001 0.000000 0.000000 -2.109980
    27 28.471630 -0.000002 0.000002 0.000000 0.000000 2.630802
    28 13.389687 0.268266 6.023556 -0.462585 -1.348926 -0.488759
    29 9.768897 0.000001 0.000001 -1.455526 -0.765904 -1.955802
    30 19.931143 0.000001 -0.000001 0.000000 0.000000 -1.991284
    31 26.044123 -0.000001 -0.000001 0.000000 0.000000 2.956974
    32 -5.849911 4.319725 0.063164 0.698432 -0.805742 1.070657
    33 -5.827133 4.411094 0.063164 -0.445859 0.720968 1.249504
    34 13.389687 0.268266 6.023556 -0.462585 -1.348926 -0.488759
  time 31
    0 1.151450 1.526386 24.721458 1.570796 -0.424430 1.570720
    1 -5.574219 -0.123169 0.054230 0.000000 0.000000 -0.212930
    2 -5.511719 -2.697266 -3.988281 0.393298 -0.165999 -0.903107
    3 10.569403 0.000000 0.000000 0.000000 0.000000 -2.401399
    4 13.357940 0.000000 0.000000 0.000000 0.000000 2.790894
    5 -5.436410 -2.626257 3.516682 2.761840 0.146246 -0.922226
    6 10.523520 0.000000 0.000000 0.000000 0.000000 2.412018
    7 13.611949 0.000001 0.000000 0.000000 0.000000 -2.810338
    8 -8.414063 1.073242 -0.018158 0.000000 0.000000 0.172788
    9 -9.984112 -4.710447 3.170796 -2.902516 -0.005451 -2.718124
    10 5.945618 0.000000 0.000000 0.000000 0.000000 0.734118
    11 -9.984110 -4.710446 -2.998739 -0.223381 0.004015 -2.698290
    12 5.945625 0.000000 0.000000 0.000000 0.000000 -0.752785
    13 -13.167568 0.616876 1.590356 3.140739 -0.157522 -3.136150
    14 1.939788 0.000000 0.000000 3.040688 0.121169 2.449692
    15 -13.157713 0.632509 -1.795553 1.570796 0.016921 -3.058550
    16 2.215697 0.000000 -0.000001 1.570796 -0.608107 -3.124672
    17 -2.618796 -6.269598 8.263164 -2.972407 0.254956 -0.885619
    18 11.485748 0.000000 0.000000 0.000000 0.000000 -2.210320
    19 24.536900 -0.000001 -0.000001 0.000000 0.000000 3.063244
    20 -2.618795 -6.269599 -8.136835 -0.353232 -0.175789 -1.123201
    21 11.659968 0.000000 0.000000 0.000000 0.000000 2.247305
    22 25.724375 0.000000 0.000000 0.000000 0.000000 -3.226793
    23 3.880159 -0.980432 0.090609 0.000000 0.000000 0.517395
    24 13.389691 0.268266 -6.517195 0.542283 1.306249 -0.395924
    25 9.913784 0.000001 0.000000 1.457189 0.175606 -1.949721
    26 21.016012 0.000002 -0.000001 0.000000 0.000000 -2.088289
    27 28.471630 -0.000002 0.000002 0.000000 0.000000 2.577886
    28 13.389687 0.268266 6.023556 -0.462585 -1.348926 -0.488759
    29 9.768897 0.000001 0.000001 -1.472839 -0.622396 -1.945973
    30 19.931143 0.000001 -0.000001 0.000000 0.000000 -1.989738
    31 26.044123 -0.000001 -0.000001 0.000000 0.000000 2.892500
    32 -5.849911 4.319725 0.063164 0.698132 -0.805401 1.069505
    33 -5.827133 4.411094 0.063164 -0.445937 0.721164 1.250198
    34 13.389687 0.268266 6.023556 -0.462585 -1.348926 -0.488759
  time 32
    0 1.514742 1.526386 24.721458 1.570796 -0.467357 1.570720
    1 -5.574219 -0.123169 0.054230 0.000000 0.000000 -0.212930
    2 -5.511719 -2.697266 -3.988281 0.393298 -0.165999 -0.903107
    3 10.569403 0.000000 0.000000 0.000000 0.000000 -2.401399
    4 13.357940 0.000000 0.000000 0.000000 0.000000 2.790894
    5 -5.436410 -2.626257 3.516682 2.761840 0.146246 -0.922226
    6 10.523520 0.000000 0.000000 0.000000 0.000000 2.412018
    7 13.611949 0.000001 0.000000 0.000000 0.000000 -2.810338
    8 -8.414063 1.073242 -0.018158 0.000000 0.000000 0.172788
    9 -9.984112 -4.710447 3.170796 -2.902516 -0.005451 -2.718124
    10 5.945618 0.000000 0.000000 0.000000 0.000000 0.734118
    11 -9.984110 -4.710446 -2.998739 -0.223381 0.004015 -2.698290
    12 5.945625 0.000000 0.000000 0.000000 0.000000 -0.752785
    13 -13.167568 0.616876 1.590356 3.140739 -0.157522 -3.136150
    14 1.939788 0.000000 0.000000 3.040688 0.121169 2.449692
    15 -13.157713 0.632509 -1.795553 1.570796 0.016921 -3.058550
    16 2.215697 0.000000 -0.000001 1.570796 -0.608107 -3.124672
    17 -2.618796 -6.269598 8.263164 -2.913953 0.257557 -1.155872
    18 11.485748 0.000000 0.000000 0.000000 0.000000 -2.189580
    19 24.536900 -0.000001 -0.000001 0.000000 0.000000 2.978863
    20 -2.618795 -6.269599 -8.136835 -0.293691 -0.179974 -1.438939
    21 11.659968 0.000000 0.000000 0.000000 0.000000 2.283638
    22 25.724375 0.000000 0.000000 0.000000 0.000000 -3.104189
    23 3.880159 -0.980432 0.090609 0.000000 0.000000 0.452177
    24 13.389691 0.268266 -6.517195 0.542283 1.306249 -0.395924
    25 9.913784 0.000001 0.000000 1.465009 0.122209 -1.922044
    26 21.016012 0.000002 -0.000001 0.000000 0.000000 -2.075886
    27 28.471630 -0.000002 0.000002 0.000000 0.000000 2.549029
    28 13.389687 0.268266 6.023556 -0.462585 -1.348926 -0.488759
    29 9.768897 0.000001 0.000001 -1.486612 -0.479414 -1.930035
    30 19.931143 0.000001 -0.000001 0.000000 0.000000 -1.983503
    31 26.044123 -0.000001 -0.000001 0.000000 0.000000 2.828346
    32 -5.849911 4.319725 0.063164 0.698001 -0.805230 1.067586
    33 -5.827133 4.411094 0.063164 -0.445968 0.721248 1.250945
    34 13.389687 0.268266 6.023556 -0.462585 -1.348926 -0.488759
  time 33
    0 1.737405 1.526386 24.721458 1.570796 -0.496379 1.570720
    1 -5.574219 -0.123169 0.054230 0.000000 0.000000 -0.212930
    2 -5.511719 -2.697266 -3.988281 0.393298 -0.165999 -0.903107
    3 10.569403 0.000000 0.000000 0.000000 0.000000 -2.401399
    4 13.357940 0.000000 0.000000 0.000000 0.000000 2.790894
    5 -5.436410 -2.626257 3.516682 2.761840 0.146246 -0.922226
    6 10.523520 0.000000 0.000000 0.000000 0.000000 2.412018
    7 13.611949 0.000001 0.000000 0.000000 0.000000 -2.810338
    8 -8.414063 1.073242 -0.018158 0.000000 0.000000 0.172788
    9 -9.984112 -4.710447 3.170796 -2.902516 -0.005451 -2.718124
    10 5.945618 0.000000 0.000000 0.000000 0.000000 0.734118
    11 -9.984110 -4.710446 -2.998739 -0.223381 0.004015 -2.698290
    12 5.945625 0.000000 0.000000 0.000000 0.000000 -0.752785
    13 -13.167568 0.616876 1.590356 3.140739 -0.157522 -3.136150
    14 1.939788 0.000000 0.000000 3.040688 0.121169 2.449692
    15 -13.157713 0.632509 -1.795553 1.570796 0.016921 -3.058550
    16 2.215697 0.000000 -0.000001 1.570796 -0.608107 -3.124672
    17 -2.618796 -6.269598 8.263164 -2.875981 0.263935 -1.356538
    18 11.485748 0.000000 0.000000 0.000000 0.000000 -2.158998
    19 24.536900 -0.000001 -0.000001 0.000000 0.000000 2.897788
    20 -2.618795 -6.269599 -8.136835 -0.264589 -0.179767 -1.659440
    21 11.659968 0.000000 0.000000 0.000000 0.000000 2.253820
    22 25.724375 0.000000 0.000000 0.000000 0.000000 -2.987175
    23 3.880159 -0.980432 0.090609 0.000000 0.000000 0.402046
    24 13.389691 0.268266 -6.517195 0.542283 1.306249 -0.395924
    25 9.913784 0.000001 0.000000 1.469793 0.082437 -1.907060
    26 21.016012 0.000002 -0.000001 0.000000 0.000000 -2.075093
    27 28.471630 -0.000002 0.000002 0.000000 0.000000 2.547238
    28 13.389687 0.268266 6.023556 -0.462585 -1.348926 -0.488759
    29 9.768897 0.000001 0.000001 -1.496081 -0.348785 -1.912570
    30 19.931143 0.000001 -0.000001 0.000000 0.000000 -1.974977
    31 26.044123 -0.000001 -0.000001 0.000000 0.000000 2.764192
    32 -5.849911 4.319725 0.063164 0.697949 -0.805173 1.065886
    33 -5.827133 4.411094 0.063164 -0.445983 0.721276 1.251426
    34 13.389687 0.268266 6.023556 -0.462585 -1.348926 -0.488759
end
