// Created by Crowbar 0.33.0.0
version 1
nodes
  0 "Antlion.Body_Bone" -1
  1 "Antlion.Chest_Bone" 0
  2 "Antlion.ArmR1_Bone" 1
  3 "Antlion.ArmR2_Bone" 2
  4 "Antlion.ArmR3_Bone" 3
  5 "Antlion.ArmL1_Bone" 1
  6 "Antlion.ArmL2_Bone" 5
  7 "Antlion.ArmL3_Bone" 6
  8 "Antlion.Head_Bone" 1
  9 "Antlion.FangBottomL1_Bone" 8
  10 "Antlion.FangBottomL2_Bone" 9
  11 "Antlion.FangBottomR1_Bone" 8
  12 "Antlion.FangBottomR2_Bone" 11
  13 "Antlion.FangTopL1_Bone" 8
  14 "Antlion.FangTopL2_Bone" 13
  15 "Antlion.FangTopR1_Bone" 8
  16 "Antlion.FangTopR2_Bone" 15
  17 "Antlion.LegMidL1_Bone" 0
  18 "Antlion.LegMidL2_Bone" 17
  19 "Antlion.LegMidL3_Bone" 18
  20 "Antlion.LegMidR1_Bone" 0
  21 "Antlion.LegMidR2_Bone" 20
  22 "Antlion.LegMidR3_Bone" 21
  23 "Antlion.Back_Bone" 0
  24 "Antlion.LegShoulder_R_Bone" 23
  25 "Antlion.LegL1_Bone" 24
  26 "Antlion.LegL2_Bone" 25
  27 "Antlion.LegL3_Bone" 26
  28 "Antlion.LegShoulder_L_Bone" 23
  29 "Antlion.LegR1_Bone" 28
  30 "Antlion.LegR2_Bone" 29
  31 "Antlion.LegR3_Bone" 30
  32 "Antlion.WingL_Bone" 0
  33 "Antlion.WingR_Bone" 0
  34 "Antlion.bone" 23
end
skeleton
  time 0
    0 -0.204061 0.003991 27.580286 1.532491 -0.195256 1.481843
    1 0.000000 0.000000 0.000000 0.003405 -0.191951 -0.205781
    2 -5.513216 -2.701017 -3.989360 0.393185 -0.134116 -0.907903
    3 10.569403 0.000000 0.000000 0.000000 0.000000 -2.446638
    4 13.357940 0.000000 0.000000 0.000000 0.000000 2.905515
    5 -5.436410 -2.626257 3.516682 0.379856 -3.016024 2.212585
    6 10.523520 0.000000 0.000000 0.000000 0.000000 2.454404
    7 13.611949 0.000001 0.000000 0.000000 0.000000 -2.922465
    8 0.000000 0.000000 0.000000 0.146221 -0.455925 -0.200225
    9 -9.984112 -4.710447 3.170796 -0.239077 3.136046 0.423882
    10 5.945618 0.000000 0.000000 0.000000 0.000000 0.735012
    11 -9.984110 -4.710446 -2.998739 -0.223381 0.004087 -2.697966
    12 5.945625 0.000000 0.000000 0.000000 0.000000 -0.753546
    13 -13.167568 0.616876 1.590356 0.000854 2.984071 0.005443
    14 1.939788 0.000000 0.000000 0.100905 -3.020423 -0.691901
    15 -13.157713 0.632509 -1.795553 1.570796 0.000000 -3.075471
    16 2.215697 0.000000 -0.000001 1.570796 0.000000 -2.516564
    17 -2.618796 -6.269598 8.263164 -0.884359 -3.105692 2.623357
    18 11.485748 0.000000 0.000000 0.000000 0.000000 -0.000056
    19 24.536900 -0.000001 -0.000001 0.000000 0.000000 0.000000
    20 -2.618795 -6.269599 -8.136835 -0.452180 0.251592 -1.283387
    21 11.659968 0.000000 0.000000 0.000000 0.000000 2.188922
    22 25.724375 0.000000 0.000000 0.000000 0.000000 -2.844265
    23 3.880159 -0.980432 0.090609 0.002502 0.184005 0.433256
    24 13.389691 0.268266 -6.517195 0.542283 1.306249 -0.395924
    25 9.913784 0.000001 0.000000 1.493898 0.710935 -1.494480
    26 21.016012 0.000002 -0.000001 0.000000 0.000000 -2.202748
    27 28.471630 -0.000002 0.000002 0.000000 0.000000 3.010232
    28 13.389687 0.268266 6.023556 -0.462585 -1.348926 -0.488759
    29 9.768897 0.000001 0.000001 -1.522289 -0.782528 -1.895773
    30 19.931143 0.000001 -0.000001 0.000000 0.000000 -0.000053
    31 26.044123 -0.000001 -0.000001 0.000000 0.000000 0.000000
    32 -5.849911 4.319725 0.063164 0.504001 0.071120 0.390106
    33 -5.827133 4.411094 0.063164 -0.287408 0.076872 0.390350
    34 13.389687 0.268266 6.023556 -0.462585 -1.348926 -0.488759
end
