// Created by Crowbar 0.33.0.0
version 1
nodes
  0 "Antlion.Body_Bone" -1
  1 "Antlion.Chest_Bone" 0
  2 "Antlion.ArmR1_Bone" 1
  3 "Antlion.ArmR2_Bone" 2
  4 "Antlion.ArmR3_Bone" 3
  5 "Antlion.ArmL1_Bone" 1
  6 "Antlion.ArmL2_Bone" 5
  7 "Antlion.ArmL3_Bone" 6
  8 "Antlion.Head_Bone" 1
  9 "Antlion.FangBottomL1_Bone" 8
  10 "Antlion.FangBottomL2_Bone" 9
  11 "Antlion.FangBottomR1_Bone" 8
  12 "Antlion.FangBottomR2_Bone" 11
  13 "Antlion.FangTopL1_Bone" 8
  14 "Antlion.FangTopL2_Bone" 13
  15 "Antlion.FangTopR1_Bone" 8
  16 "Antlion.FangTopR2_Bone" 15
  17 "Antlion.LegMidL1_Bone" 0
  18 "Antlion.LegMidL2_Bone" 17
  19 "Antlion.LegMidL3_Bone" 18
  20 "Antlion.LegMidR1_Bone" 0
  21 "Antlion.LegMidR2_Bone" 20
  22 "Antlion.LegMidR3_Bone" 21
  23 "Antlion.Back_Bone" 0
  24 "Antlion.LegShoulder_R_Bone" 23
  25 "Antlion.LegL1_Bone" 24
  26 "Antlion.LegL2_Bone" 25
  27 "Antlion.LegL3_Bone" 26
  28 "Antlion.LegShoulder_L_Bone" 23
  29 "Antlion.LegR1_Bone" 28
  30 "Antlion.LegR2_Bone" 29
  31 "Antlion.LegR3_Bone" 30
  32 "Antlion.WingL_Bone" 0
  33 "Antlion.WingR_Bone" 0
  34 "Antlion.bone" 23
end
skeleton
  time 0
    0 3.878095 1.526386 16.969719 2.086952 -0.819571 0.908925
    1 -5.574535 -0.119304 0.054231 -0.195998 0.205415 -0.326338
    2 -5.511719 -2.697266 -3.988281 0.406064 -0.135632 -0.988901
    3 10.569403 0.000000 0.000000 0.000000 0.000000 -2.438888
    4 13.357940 0.000000 0.000000 0.000000 0.000000 2.881865
    5 -5.433594 -2.621094 3.515625 2.747943 0.105389 -1.032854
    6 10.523520 0.000000 0.000000 0.000000 0.000000 2.454556
    7 13.611949 0.000001 0.000000 0.000000 0.000000 -2.922795
    8 -8.417345 1.069929 -0.018171 -0.036996 -0.042852 -0.771248
    9 -9.984112 -4.710447 3.170796 -2.902516 -0.005523 -2.717823
    10 5.945618 0.000000 0.000000 0.000000 0.000000 0.734764
    11 -9.984110 -4.710446 -2.998739 -0.207118 0.046932 -2.710178
    12 5.945625 0.000000 0.000000 0.000000 0.000000 -0.747662
    13 -13.167568 0.616876 1.590356 3.140739 -0.157522 -3.136150
    14 1.939788 0.000000 0.000000 3.040688 0.121169 2.449692
    15 -13.157713 0.632509 -1.795553 1.570796 0.016921 -3.058550
    16 2.215697 0.000000 -0.000001 1.570796 -0.608107 -3.124672
    17 -2.618796 -6.269598 8.263164 -2.820640 -0.538534 -1.398174
    18 11.485748 0.000000 0.000000 0.000000 0.000000 -0.894115
    19 24.536900 -0.000001 -0.000001 0.000000 0.000000 0.532077
    20 -2.618795 -6.269599 -8.136835 -1.268001 0.244382 -1.962225
    21 11.659968 0.000000 0.000000 0.000000 0.000000 1.351859
    22 25.724375 0.000000 0.000000 0.000000 0.000000 -1.158774
    23 3.880159 -0.980432 0.090609 -0.161419 0.300523 -0.235292
    24 13.389691 0.268266 -6.517195 0.542283 1.306249 -0.395924
    25 9.913784 0.000001 0.000000 1.712500 0.505329 -1.503164
    26 21.016012 0.000002 -0.000001 0.000000 0.000000 -1.721240
    27 28.471630 -0.000002 0.000002 0.000000 0.000000 1.844044
    28 13.389687 0.268266 6.023556 -0.462585 -1.348926 -0.488759
    29 9.768897 0.000001 0.000001 -1.443857 -0.721353 -1.666441
    30 19.931143 0.000001 -0.000001 0.000000 0.000000 -1.743106
    31 26.044123 -0.000001 -0.000001 0.000000 0.000000 2.090895
    32 -5.849911 4.319725 0.063164 0.301738 0.307276 0.220298
    33 -5.827133 4.411094 0.063164 -0.489993 0.312989 0.219309
    34 13.389687 0.268266 6.023556 -0.462585 -1.348926 -0.488759
  time 1
    0 3.878095 1.526386 16.969719 2.051328 -0.810669 0.953457
    1 -5.574535 -0.119304 0.054231 -0.161824 0.169147 -0.287171
    2 -5.511719 -2.697266 -3.988281 0.406064 -0.135632 -0.988901
    3 10.569403 0.000000 0.000000 0.000000 0.000000 -2.438888
    4 13.357940 0.000000 0.000000 0.000000 0.000000 2.881865
    5 -5.433594 -2.621094 3.515625 2.747943 0.105389 -1.032854
    6 10.523520 0.000000 0.000000 0.000000 0.000000 2.454556
    7 13.611949 0.000001 0.000000 0.000000 0.000000 -2.922795
    8 -8.417345 1.069929 -0.018171 -0.037351 -0.043305 -0.771166
    9 -9.984112 -4.710447 3.170796 -2.902516 -0.005499 -2.717898
    10 5.945618 0.000000 0.000000 0.000000 0.000000 0.734615
    11 -9.984110 -4.710446 -2.998739 -0.207130 0.046920 -2.710259
    12 5.945625 0.000000 0.000000 0.000000 0.000000 -0.747510
    13 -13.167568 0.616876 1.590356 3.140739 -0.157522 -3.136150
    14 1.939788 0.000000 0.000000 3.040688 0.121169 2.449692
    15 -13.157713 0.632509 -1.795553 1.570796 0.016921 -3.058550
    16 2.215697 0.000000 -0.000001 1.570796 -0.608107 -3.124672
    17 -2.618796 -6.269598 8.263164 -2.795725 -0.493639 -1.451631
    18 11.485748 0.000000 0.000000 0.000000 0.000000 -1.120535
    19 24.536900 -0.000001 -0.000001 0.000000 0.000000 0.825823
    20 -2.618795 -6.269599 -8.136835 -1.282027 0.290501 -1.951242
    21 11.659968 0.000000 0.000000 0.000000 0.000000 1.233489
    22 25.724375 0.000000 0.000000 0.000000 0.000000 -0.961823
    23 3.880159 -0.980432 0.090609 -0.160264 0.269080 -0.229999
    24 13.389691 0.268266 -6.517195 0.542283 1.306249 -0.395924
    25 9.913784 0.000001 0.000000 1.711396 0.472175 -1.442752
    26 21.016012 0.000002 -0.000001 0.000000 0.000000 -1.672477
    27 28.471630 -0.000002 0.000002 0.000000 0.000000 1.756129
    28 13.389687 0.268266 6.023556 -0.462585 -1.348926 -0.488759
    29 9.768897 0.000001 0.000001 -1.636110 -0.720236 -1.432337
    30 19.931143 0.000001 -0.000001 0.000000 0.000000 -1.736232
    31 26.044123 -0.000001 -0.000001 0.000000 0.000000 2.075209
    32 -5.849911 4.319725 0.063164 0.334921 0.302381 0.217501
    33 -5.827133 4.411094 0.063164 -0.456741 0.308113 0.216747
    34 13.389687 0.268266 6.023556 -0.462585 -1.348926 -0.488759
  time 2
    0 3.878095 1.526386 16.969719 1.938234 -0.813145 1.039803
    1 -5.574535 -0.119304 0.054231 -0.089913 0.132879 -0.251158
    2 -5.511719 -2.697266 -3.988281 0.406064 -0.135632 -0.988901
    3 10.569403 0.000000 0.000000 0.000000 0.000000 -2.438888
    4 13.357940 0.000000 0.000000 0.000000 0.000000 2.881865
    5 -5.433594 -2.621094 3.515625 2.747943 0.105389 -1.032854
    6 10.523520 0.000000 0.000000 0.000000 0.000000 2.454556
    7 13.611949 0.000001 0.000000 0.000000 0.000000 -2.922795
    8 -8.417345 1.069929 -0.018171 -0.037867 -0.043985 -0.771045
    9 -9.984112 -4.710447 3.170796 -2.902516 -0.005487 -2.717936
    10 5.945618 0.000000 0.000000 0.000000 0.000000 0.734466
    11 -9.984110 -4.710446 -2.998739 -0.207130 0.046908 -2.710300
    12 5.945625 0.000000 0.000000 0.000000 0.000000 -0.747408
    13 -13.167568 0.616876 1.590356 3.140739 -0.157522 -3.136150
    14 1.939788 0.000000 0.000000 3.040688 0.121169 2.449692
    15 -13.157713 0.632509 -1.795553 1.570796 0.016921 -3.058550
    16 2.215697 0.000000 -0.000001 1.570796 -0.608107 -3.124672
    17 -2.618796 -6.269598 8.263164 -2.754220 -0.404599 -1.482028
    18 11.485748 0.000000 0.000000 0.000000 0.000000 -1.268442
    19 24.536900 -0.000001 -0.000001 0.000000 0.000000 1.060318
    20 -2.618795 -6.269599 -8.136835 -1.276111 0.418708 -1.923750
    21 11.659968 0.000000 0.000000 0.000000 0.000000 1.064753
    22 25.724375 0.000000 0.000000 0.000000 0.000000 -0.715778
    23 3.880159 -0.980432 0.090609 -0.159302 0.237662 -0.224767
    24 13.389691 0.268266 -6.517195 0.542283 1.306249 -0.395924
    25 9.913784 0.000001 0.000000 1.681679 0.468022 -1.356953
    26 21.016012 0.000002 -0.000001 0.000000 0.000000 -1.624734
    27 28.471630 -0.000002 0.000002 0.000000 0.000000 1.672244
    28 13.389687 0.268266 6.023556 -0.462585 -1.348926 -0.488759
    29 9.768897 0.000001 0.000001 -1.910716 -0.517394 -1.142689
    30 19.931143 0.000001 -0.000001 0.000000 0.000000 -1.614034
    31 26.044123 -0.000001 -0.000001 0.000000 0.000000 1.810974
    32 -5.849911 4.319725 0.063164 0.380602 0.269027 0.209935
    33 -5.827133 4.411094 0.063164 -0.410962 0.274794 0.209487
    34 13.389687 0.268266 6.023556 -0.462585 -1.348926 -0.488759
  time 3
    0 3.878095 1.526386 16.969719 1.800528 -0.810301 1.140680
    1 -5.574535 -0.119304 0.054231 -0.021312 0.106752 -0.224576
    2 -5.511719 -2.697266 -3.988281 0.406064 -0.135632 -0.988901
    3 10.569403 0.000000 0.000000 0.000000 0.000000 -2.438888
    4 13.357940 0.000000 0.000000 0.000000 0.000000 2.881865
    5 -5.433594 -2.621094 3.515625 2.747943 0.105389 -1.032854
    6 10.523520 0.000000 0.000000 0.000000 0.000000 2.454556
    7 13.611949 0.000001 0.000000 0.000000 0.000000 -2.922795
    8 -8.417345 1.069929 -0.018171 -0.038489 -0.044805 -0.770883
    9 -9.984112 -4.710447 3.170796 -2.902516 -0.005475 -2.718011
    10 5.945618 0.000000 0.000000 0.000000 0.000000 0.734366
    11 -9.984110 -4.710446 -2.998739 -0.207130 0.046896 -2.710340
    12 5.945625 0.000000 0.000000 0.000000 0.000000 -0.747307
    13 -13.167568 0.616876 1.590356 3.140739 -0.157522 -3.136150
    14 1.939788 0.000000 0.000000 3.040688 0.121169 2.449692
    15 -13.157713 0.632509 -1.795553 1.570796 0.016921 -3.058550
    16 2.215697 0.000000 -0.000001 1.570796 -0.608107 -3.124672
    17 -2.618796 -6.269598 8.263164 -2.714212 -0.298385 -1.495188
    18 11.485748 0.000000 0.000000 0.000000 0.000000 -1.374868
    19 24.536900 -0.000001 -0.000001 0.000000 0.000000 1.248192
    20 -2.618795 -6.269599 -8.136835 -1.197964 0.586693 -1.826420
    21 11.659968 0.000000 0.000000 0.000000 0.000000 1.041701
    22 25.724375 0.000000 0.000000 0.000000 0.000000 -0.685449
    23 3.880159 -0.980432 0.090609 -0.158468 0.205274 -0.219474
    24 13.389691 0.268266 -6.517195 0.542283 1.306249 -0.395924
    25 9.913784 0.000001 0.000000 1.654906 0.478338 -1.269340
    26 21.016012 0.000002 -0.000001 0.000000 0.000000 -1.573027
    27 28.471630 -0.000002 0.000002 0.000000 0.000000 1.582730
    28 13.389687 0.268266 6.023556 -0.462585 -1.348926 -0.488759
    29 9.768897 0.000001 0.000001 -1.971644 -0.303972 -1.056606
    30 19.931143 0.000001 -0.000001 0.000000 0.000000 -1.438653
    31 26.044123 -0.000001 -0.000001 0.000000 0.000000 1.472853
    32 -5.849911 4.319725 0.063164 0.433361 0.226366 0.198640
    33 -5.827133 4.411094 0.063164 -0.358103 0.232144 0.198490
    34 13.389687 0.268266 6.023556 -0.462585 -1.348926 -0.488759
  time 4
    0 3.878095 1.526386 16.969719 1.657556 -0.798766 1.242776
    1 -5.574535 -0.119304 0.054231 0.021343 0.096352 -0.205479
    2 -5.511719 -2.697266 -3.988281 0.406064 -0.135632 -0.988901
    3 10.569403 0.000000 0.000000 0.000000 0.000000 -2.438888
    4 13.357940 0.000000 0.000000 0.000000 0.000000 2.881865
    5 -5.433594 -2.621094 3.515625 2.747943 0.105389 -1.032854
    6 10.523520 0.000000 0.000000 0.000000 0.000000 2.454556
    7 13.611949 0.000001 0.000000 0.000000 0.000000 -2.922795
    8 -8.417345 1.069929 -0.018171 -0.039182 -0.045711 -0.770720
    9 -9.984112 -4.710447 3.170796 -2.902516 -0.005475 -2.718011
    10 5.945618 0.000000 0.000000 0.000000 0.000000 0.734317
    11 -9.984110 -4.710446 -2.998739 -0.207130 0.046896 -2.710380
    12 5.945625 0.000000 0.000000 0.000000 0.000000 -0.747256
    13 -13.167568 0.616876 1.590356 3.140739 -0.157522 -3.136150
    14 1.939788 0.000000 0.000000 3.040688 0.121169 2.449692
    15 -13.157713 0.632509 -1.795553 1.570796 0.016921 -3.058550
    16 2.215697 0.000000 -0.000001 1.570796 -0.608107 -3.124672
    17 -2.618796 -6.269598 8.263164 -2.679714 -0.183084 -1.496353
    18 11.485748 0.000000 0.000000 0.000000 0.000000 -1.455216
    19 24.536900 -0.000001 -0.000001 0.000000 0.000000 1.400091
    20 -2.618795 -6.269599 -8.136835 -1.014190 0.622660 -1.675313
    21 11.659968 0.000000 0.000000 0.000000 0.000000 1.360629
    22 25.724375 0.000000 0.000000 0.000000 0.000000 -1.174260
    23 3.880159 -0.980432 0.090609 -0.157795 0.170995 -0.213877
    24 13.389691 0.268266 -6.517195 0.542283 1.306249 -0.395924
    25 9.913784 0.000001 0.000000 1.639909 0.500333 -1.191367
    26 21.016012 0.000002 -0.000001 0.000000 0.000000 -1.512145
    27 28.471630 -0.000002 0.000002 0.000000 0.000000 1.481186
    28 13.389687 0.268266 6.023556 -0.462585 -1.348926 -0.488759
    29 9.768897 0.000001 0.000001 -1.928698 -0.188851 -1.081896
    30 19.931143 0.000001 -0.000001 0.000000 0.000000 -1.381205
    31 26.044123 -0.000001 -0.000001 0.000000 0.000000 1.370539
    32 -5.849911 4.319725 0.063164 0.474299 0.182880 0.186522
    33 -5.827133 4.411094 0.063164 -0.317121 0.188653 0.186585
    34 13.389687 0.268266 6.023556 -0.462585 -1.348926 -0.488759
  time 5
    0 3.878095 1.526386 16.973992 1.528661 -0.779857 1.332778
    1 -5.574535 -0.119304 0.054231 0.059143 0.090316 -0.187859
    2 -5.511719 -2.697266 -3.988281 0.406064 -0.135632 -0.988901
    3 10.569403 0.000000 0.000000 0.000000 0.000000 -2.438888
    4 13.357940 0.000000 0.000000 0.000000 0.000000 2.881865
    5 -5.433594 -2.621094 3.515625 2.747943 0.105389 -1.032854
    6 10.523520 0.000000 0.000000 0.000000 0.000000 2.454556
    7 13.611949 0.000001 0.000000 0.000000 0.000000 -2.922795
    8 -8.417345 1.069929 -0.018171 -0.039858 -0.046617 -0.770558
    9 -9.984112 -4.710447 3.170796 -2.902516 -0.005463 -2.718048
    10 5.945618 0.000000 0.000000 0.000000 0.000000 0.734267
    11 -9.984110 -4.710446 -2.998739 -0.207130 0.046884 -2.710380
    12 5.945625 0.000000 0.000000 0.000000 0.000000 -0.747206
    13 -13.167568 0.616876 1.590356 3.140739 -0.157522 -3.136150
    14 1.939788 0.000000 0.000000 3.040688 0.121169 2.449692
    15 -13.157713 0.632509 -1.795553 1.570796 0.016921 -3.058550
    16 2.215697 0.000000 -0.000001 1.570796 -0.608107 -3.124672
    17 -2.618796 -6.269598 8.263164 -2.656176 -0.068319 -1.488549
    18 11.485748 0.000000 0.000000 0.000000 0.000000 -1.517882
    19 24.536900 -0.000001 -0.000001 0.000000 0.000000 1.523025
    20 -2.618795 -6.269599 -8.136835 -0.714388 0.567674 -1.448589
    21 11.659968 0.000000 0.000000 0.000000 0.000000 1.630396
    22 25.724375 0.000000 0.000000 0.000000 0.000000 -1.690638
    23 3.880159 -0.980432 0.090609 -0.157282 0.133881 -0.207915
    24 13.389691 0.268266 -6.517195 0.542283 1.306249 -0.395924
    25 9.913784 0.000001 0.000000 1.642945 0.527972 -1.135631
    26 21.016012 0.000002 -0.000001 0.000000 0.000000 -1.437670
    27 28.471630 -0.000002 0.000002 0.000000 0.000000 1.360190
    28 13.389687 0.268266 6.023556 -0.462585 -1.348926 -0.488759
    29 9.768897 0.000001 0.000001 -1.877526 -0.131815 -1.158913
    30 19.931143 0.000001 -0.000001 0.000000 0.000000 -1.419255
    31 26.044123 -0.000001 -0.000001 0.000000 0.000000 1.437895
    32 -5.849911 4.319725 0.063164 0.484543 0.146452 0.178627
    33 -5.827133 4.411094 0.063164 -0.306875 0.152224 0.178738
    34 13.389687 0.268266 6.023556 -0.462585 -1.348926 -0.488759
  time 6
    0 3.878095 1.526386 16.973992 1.430314 -0.758946 1.400186
    1 -5.574535 -0.119304 0.054231 0.087580 0.089891 -0.174937
    2 -5.511719 -2.697266 -3.988281 0.406064 -0.135632 -0.988901
    3 10.569403 0.000000 0.000000 0.000000 0.000000 -2.438888
    4 13.357940 0.000000 0.000000 0.000000 0.000000 2.881865
    5 -5.433594 -2.621094 3.515625 2.747943 0.105389 -1.032854
    6 10.523520 0.000000 0.000000 0.000000 0.000000 2.454556
    7 13.611949 0.000001 0.000000 0.000000 0.000000 -2.922795
    8 -8.417345 1.069929 -0.018171 -0.040498 -0.047438 -0.770396
    9 -9.984112 -4.710447 3.170796 -2.902516 -0.005463 -2.718086
    10 5.945618 0.000000 0.000000 0.000000 0.000000 0.734217
    11 -9.984110 -4.710446 -2.998739 -0.207130 0.046884 -2.710421
    12 5.945625 0.000000 0.000000 0.000000 0.000000 -0.747155
    13 -13.167568 0.616876 1.590356 3.140739 -0.157522 -3.136150
    14 1.939788 0.000000 0.000000 3.040688 0.121169 2.449692
    15 -13.157713 0.632509 -1.795553 1.570796 0.016921 -3.058550
    16 2.215697 0.000000 -0.000001 1.570796 -0.608107 -3.124672
    17 -2.618796 -6.269598 8.263164 -2.649708 0.035188 -1.474108
    18 11.485748 0.000000 0.000000 0.000000 0.000000 -1.567258
    19 24.536900 -0.000001 -0.000001 0.000000 0.000000 1.623542
    20 -2.618795 -6.269599 -8.136835 -0.514106 0.437851 -1.358623
    21 11.659968 0.000000 0.000000 0.000000 0.000000 1.732429
    22 25.724375 0.000000 0.000000 0.000000 0.000000 -1.902176
    23 3.880159 -0.980432 0.090609 -0.156929 0.078234 -0.199033
    24 13.389691 0.268266 -6.517195 0.542283 1.306249 -0.395924
    25 9.913784 0.000001 0.000000 1.676435 0.559050 -1.146224
    26 21.016012 0.000002 -0.000001 0.000000 0.000000 -1.331537
    27 28.471630 -0.000002 0.000002 0.000000 0.000000 1.197797
    28 13.389687 0.268266 6.023556 -0.462585 -1.348926 -0.488759
    29 9.768897 0.000001 0.000001 -1.883361 -0.115191 -1.199759
    30 19.931143 0.000001 -0.000001 0.000000 0.000000 -1.479527
    31 26.044123 -0.000001 -0.000001 0.000000 0.000000 1.547635
    32 -5.849911 4.319725 0.063164 0.460405 0.111874 0.176489
    33 -5.827133 4.411094 0.063164 -0.331030 0.117645 0.176496
    34 13.389687 0.268266 6.023556 -0.462585 -1.348926 -0.488759
  time 7
    0 3.878095 1.526386 16.973992 1.404171 -0.752257 1.418186
    1 -5.574535 -0.119304 0.054231 0.102145 0.096635 -0.169869
    2 -5.511719 -2.697266 -3.988281 0.406064 -0.135632 -0.988901
    3 10.569403 0.000000 0.000000 0.000000 0.000000 -2.438888
    4 13.357940 0.000000 0.000000 0.000000 0.000000 2.881865
    5 -5.433594 -2.621094 3.515625 2.747943 0.105389 -1.032854
    6 10.523520 0.000000 0.000000 0.000000 0.000000 2.454556
    7 13.611949 0.000001 0.000000 0.000000 0.000000 -2.922795
    8 -8.417345 1.069929 -0.018171 -0.041014 -0.048117 -0.770274
    9 -9.984112 -4.710447 3.170796 -2.902516 -0.005451 -2.718086
    10 5.945618 0.000000 0.000000 0.000000 0.000000 0.734168
    11 -9.984110 -4.710446 -2.998739 -0.207130 0.046884 -2.710421
    12 5.945625 0.000000 0.000000 0.000000 0.000000 -0.747104
    13 -13.167568 0.616876 1.590356 3.140739 -0.157522 -3.136150
    14 1.939788 0.000000 0.000000 3.040688 0.121169 2.449692
    15 -13.157713 0.632509 -1.795553 1.570796 0.016921 -3.058550
    16 2.215697 0.000000 -0.000001 1.570796 -0.608107 -3.124672
    17 -2.618796 -6.269598 8.263164 -2.683247 0.102173 -1.462287
    18 11.485748 0.000000 0.000000 0.000000 0.000000 -1.608906
    19 24.536900 -0.000001 -0.000001 0.000000 0.000000 1.709973
    20 -2.618795 -6.269599 -8.136835 -0.508667 0.354853 -1.462620
    21 11.659968 0.000000 0.000000 0.000000 0.000000 1.734584
    22 25.724375 0.000000 0.000000 0.000000 0.000000 -1.906674
    23 3.880159 -0.980432 0.090609 -0.157185 0.008557 -0.188021
    24 13.389691 0.268266 -6.517195 0.542283 1.306249 -0.395924
    25 9.913784 0.000001 0.000000 1.807265 0.630743 -1.223339
    26 21.016012 0.000002 -0.000001 0.000000 0.000000 -1.224837
    27 28.471630 -0.000002 0.000002 0.000000 0.000000 1.044617
    28 13.389687 0.268266 6.023556 -0.462585 -1.348926 -0.488759
    29 9.768897 0.000001 0.000001 -1.912438 -0.144760 -1.190598
    30 19.931143 0.000001 -0.000001 0.000000 0.000000 -1.555787
    31 26.044123 -0.000001 -0.000001 0.000000 0.000000 1.693998
    32 -5.849911 4.319725 0.063164 0.416705 0.072970 0.178243
    33 -5.827133 4.411094 0.063164 -0.374745 0.078749 0.177990
    34 13.389687 0.268266 6.023556 -0.462585 -1.348926 -0.488759
  time 8
    0 3.878095 1.526386 16.973992 1.453105 -0.767268 1.382373
    1 -5.574535 -0.119304 0.054231 0.070934 0.131818 -0.191181
    2 -5.511719 -2.697266 -3.988281 0.406064 -0.135632 -0.988901
    3 10.569403 0.000000 0.000000 0.000000 0.000000 -2.438888
    4 13.357940 0.000000 0.000000 0.000000 0.000000 2.881865
    5 -5.433594 -2.621094 3.515625 2.747943 0.105389 -1.032854
    6 10.523520 0.000000 0.000000 0.000000 0.000000 2.454556
    7 13.611949 0.000001 0.000000 0.000000 0.000000 -2.922795
    8 -8.417345 1.069929 -0.018171 -0.041351 -0.048598 -0.770193
    9 -9.984112 -4.710447 3.170796 -2.902516 -0.005451 -2.718086
    10 5.945618 0.000000 0.000000 0.000000 0.000000 0.734168
    11 -9.984110 -4.710446 -2.998739 -0.207130 0.046884 -2.710421
    12 5.945625 0.000000 0.000000 0.000000 0.000000 -0.747104
    13 -13.167568 0.616876 1.590356 3.140739 -0.157522 -3.136150
    14 1.939788 0.000000 0.000000 3.040688 0.121169 2.449692
    15 -13.157713 0.632509 -1.795553 1.570796 0.016921 -3.058550
    16 2.215697 0.000000 -0.000001 1.570796 -0.608107 -3.124672
    17 -2.618796 -6.269598 8.263164 -2.762126 0.134133 -1.463859
    18 11.485748 0.000000 0.000000 0.000000 0.000000 -1.645716
    19 24.536900 -0.000001 -0.000001 0.000000 0.000000 1.786815
    20 -2.618795 -6.269599 -8.136835 -0.605230 0.391649 -1.509095
    21 11.659968 0.000000 0.000000 0.000000 0.000000 1.711731
    22 25.724375 0.000000 0.000000 0.000000 0.000000 -1.858802
    23 3.880159 -0.980432 0.090609 -0.157923 -0.045821 -0.179382
    24 13.389691 0.268266 -6.517195 0.542283 1.306249 -0.395924
    25 9.913784 0.000001 0.000000 1.752430 0.632949 -1.491044
    26 21.016012 0.000002 -0.000001 0.000000 0.000000 -1.448827
    27 28.471630 -0.000002 0.000002 0.000000 0.000000 1.378042
    28 13.389687 0.268266 6.023556 -0.462585 -1.348926 -0.488759
    29 9.768897 0.000001 0.000001 -1.939124 -0.220719 -1.145552
    30 19.931143 0.000001 -0.000001 0.000000 0.000000 -1.633699
    31 26.044123 -0.000001 -0.000001 0.000000 0.000000 1.851374
    32 -5.849911 4.319725 0.063164 0.362017 0.036143 0.184110
    33 -5.827133 4.411094 0.063164 -0.429435 0.041900 0.183542
    34 13.389687 0.268266 6.023556 -0.462585 -1.348926 -0.488759
  time 9
    0 3.878095 1.526386 16.973992 1.534502 -0.789864 1.320028
    1 -5.574535 -0.119304 0.054231 0.013178 0.172378 -0.227194
    2 -5.511719 -2.697266 -3.988281 0.406064 -0.135632 -0.988901
    3 10.569403 0.000000 0.000000 0.000000 0.000000 -2.438888
    4 13.357940 0.000000 0.000000 0.000000 0.000000 2.881865
    5 -5.433594 -2.621094 3.515625 2.747943 0.105389 -1.032854
    6 10.523520 0.000000 0.000000 0.000000 0.000000 2.454556
    7 13.611949 0.000001 0.000000 0.000000 0.000000 -2.922795
    8 -8.417345 1.069929 -0.018171 -0.041494 -0.048768 -0.770153
    9 -9.984112 -4.710447 3.170796 -2.902516 -0.005451 -2.718086
    10 5.945618 0.000000 0.000000 0.000000 0.000000 0.734168
    11 -9.984110 -4.710446 -2.998739 -0.207130 0.046884 -2.710421
    12 5.945625 0.000000 0.000000 0.000000 0.000000 -0.747104
    13 -13.167568 0.616876 1.590356 3.140739 -0.157522 -3.136150
    14 1.939788 0.000000 0.000000 3.040688 0.121169 2.449692
    15 -13.157713 0.632509 -1.795553 1.570796 0.016921 -3.058550
    16 2.215697 0.000000 -0.000001 1.570796 -0.608107 -3.124672
    17 -2.618796 -6.269598 8.263164 -2.861427 0.157471 -1.477602
    18 11.485748 0.000000 0.000000 0.000000 0.000000 -1.676242
    19 24.536900 -0.000001 -0.000001 0.000000 0.000000 1.851754
    20 -2.618795 -6.269599 -8.136835 -0.722880 0.404287 -1.581538
    21 11.659968 0.000000 0.000000 0.000000 0.000000 1.683868
    22 25.724375 0.000000 0.000000 0.000000 0.000000 -1.800520
    23 3.880159 -0.980432 0.090609 -0.158116 -0.055721 -0.177800
    24 13.389691 0.268266 -6.517195 0.542283 1.306249 -0.395924
    25 9.913784 0.000001 0.000000 1.550665 0.572026 -1.830232
    26 21.016012 0.000002 -0.000001 0.000000 0.000000 -1.701191
    27 28.471630 -0.000002 0.000002 0.000000 0.000000 1.807892
    28 13.389687 0.268266 6.023556 -0.462585 -1.348926 -0.488759
    29 9.768897 0.000001 0.000001 -1.945054 -0.315340 -1.124842
    30 19.931143 0.000001 -0.000001 0.000000 0.000000 -1.689175
    31 26.044123 -0.000001 -0.000001 0.000000 0.000000 1.969822
    32 -5.849911 4.319725 0.063164 0.304918 0.007656 0.193212
    33 -5.827133 4.411094 0.063164 -0.486516 0.013345 0.192297
    34 13.389687 0.268266 6.023556 -0.462585 -1.348926 -0.488759
  time 10
    0 3.878095 1.526386 16.973992 1.630647 -0.810775 1.245120
    1 -5.574535 -0.119304 0.054231 -0.034805 0.197279 -0.256897
    2 -5.511719 -2.697266 -3.988281 0.406064 -0.135632 -0.988901
    3 10.569403 0.000000 0.000000 0.000000 0.000000 -2.438888
    4 13.357940 0.000000 0.000000 0.000000 0.000000 2.881865
    5 -5.433594 -2.621094 3.515625 2.747943 0.105389 -1.032854
    6 10.523520 0.000000 0.000000 0.000000 0.000000 2.454556
    7 13.611949 0.000001 0.000000 0.000000 0.000000 -2.922795
    8 -8.417345 1.069929 -0.018171 -0.041334 -0.048570 -0.770193
    9 -9.984112 -4.710447 3.170796 -2.902516 -0.005451 -2.718086
    10 5.945618 0.000000 0.000000 0.000000 0.000000 0.734168
    11 -9.984110 -4.710446 -2.998739 -0.207130 0.046884 -2.710421
    12 5.945625 0.000000 0.000000 0.000000 0.000000 -0.747104
    13 -13.167568 0.616876 1.590356 3.140739 -0.157522 -3.136150
    14 1.939788 0.000000 0.000000 3.040688 0.121169 2.449692
    15 -13.157713 0.632509 -1.795553 1.570796 0.016921 -3.058550
    16 2.215697 0.000000 -0.000001 1.570796 -0.608107 -3.124672
    17 -2.618796 -6.269598 8.263164 -2.918624 0.119382 -1.406443
    18 11.485748 0.000000 0.000000 0.000000 0.000000 -1.700542
    19 24.536900 -0.000001 -0.000001 0.000000 0.000000 1.903335
    20 -2.618795 -6.269599 -8.136835 -0.843869 0.399315 -1.663250
    21 11.659968 0.000000 0.000000 0.000000 0.000000 1.648637
    22 25.724375 0.000000 0.000000 0.000000 0.000000 -1.728101
    23 3.880159 -0.980432 0.090609 -0.157442 -0.013582 -0.184492
    24 13.389691 0.268266 -6.517195 0.542283 1.306249 -0.395924
    25 9.913784 0.000001 0.000000 1.422871 0.482491 -2.014906
    26 21.016012 0.000002 -0.000001 0.000000 0.000000 -1.781499
    27 28.471630 -0.000002 0.000002 0.000000 0.000000 1.955569
    28 13.389687 0.268266 6.023556 -0.462585 -1.348926 -0.488759
    29 9.768897 0.000001 0.000001 -1.916168 -0.410683 -1.160631
    30 19.931143 0.000001 -0.000001 0.000000 0.000000 -1.717420
    31 26.044123 -0.000001 -0.000001 0.000000 0.000000 2.032439
    32 -5.849911 4.319725 0.063164 0.254271 -0.006460 0.203191
    33 -5.827133 4.411094 0.063164 -0.537154 -0.000806 0.202013
    34 13.389687 0.268266 6.023556 -0.462585 -1.348926 -0.488759
  time 11
    0 3.878095 1.526386 16.973992 1.738571 -0.827419 1.159993
    1 -5.574535 -0.119304 0.054231 -0.085877 0.222275 -0.289453
    2 -5.511719 -2.697266 -3.988281 0.406064 -0.135632 -0.988901
    3 10.569403 0.000000 0.000000 0.000000 0.000000 -2.438888
    4 13.357940 0.000000 0.000000 0.000000 0.000000 2.881865
    5 -5.433594 -2.621094 3.515625 2.747943 0.105389 -1.032854
    6 10.523520 0.000000 0.000000 0.000000 0.000000 2.454556
    7 13.611949 0.000001 0.000000 0.000000 0.000000 -2.922795
    8 -8.417345 1.069929 -0.018171 -0.040854 -0.047947 -0.770315
    9 -9.984112 -4.710447 3.170796 -2.902516 -0.005451 -2.718086
    10 5.945618 0.000000 0.000000 0.000000 0.000000 0.734168
    11 -9.984110 -4.710446 -2.998739 -0.207130 0.046884 -2.710421
    12 5.945625 0.000000 0.000000 0.000000 0.000000 -0.747104
    13 -13.167568 0.616876 1.590356 3.140739 -0.157522 -3.136150
    14 1.939788 0.000000 0.000000 3.040688 0.121169 2.449692
    15 -13.157713 0.632509 -1.795553 1.570796 0.016921 -3.058550
    16 2.215697 0.000000 -0.000001 1.570796 -0.608107 -3.124672
    17 -2.618796 -6.269598 8.263164 -2.883947 -0.074447 -1.373891
    18 11.485748 0.000000 0.000000 0.000000 0.000000 -1.637931
    19 24.536900 -0.000001 -0.000001 0.000000 0.000000 1.770217
    20 -2.618795 -6.269599 -8.136835 -0.962569 0.377519 -1.748581
    21 11.659968 0.000000 0.000000 0.000000 0.000000 1.605589
    22 25.724375 0.000000 0.000000 0.000000 0.000000 -1.640067
    23 3.880159 -0.980432 0.090609 -0.156929 0.059677 -0.196112
    24 13.389691 0.268266 -6.517195 0.542283 1.306249 -0.395924
    25 9.913784 0.000001 0.000000 1.503283 0.488654 -1.962606
    26 21.016012 0.000002 -0.000001 0.000000 0.000000 -1.791467
    27 28.471630 -0.000002 0.000002 0.000000 0.000000 1.973997
    28 13.389687 0.268266 6.023556 -0.462585 -1.348926 -0.488759
    29 9.768897 0.000001 0.000001 -1.856388 -0.497813 -1.239747
    30 19.931143 0.000001 -0.000001 0.000000 0.000000 -1.728717
    31 26.044123 -0.000001 -0.000001 0.000000 0.000000 2.058050
    32 -5.849911 4.319725 0.063164 0.219186 -0.000711 0.211251
    33 -5.827133 4.411094 0.063164 -0.572254 0.004910 0.209860
    34 13.389687 0.268266 6.023556 -0.462585 -1.348926 -0.488759
  time 12
    0 3.878095 1.526386 16.973992 1.853772 -0.837795 1.068304
    1 -5.574535 -0.119304 0.054231 -0.136698 0.241612 -0.321606
    2 -5.511719 -2.697266 -3.988281 0.406064 -0.135632 -0.988901
    3 10.569403 0.000000 0.000000 0.000000 0.000000 -2.438888
    4 13.357940 0.000000 0.000000 0.000000 0.000000 2.881865
    5 -5.433594 -2.621094 3.515625 2.747943 0.105389 -1.032854
    6 10.523520 0.000000 0.000000 0.000000 0.000000 2.454556
    7 13.611949 0.000001 0.000000 0.000000 0.000000 -2.922795
    8 -8.417345 1.069929 -0.018171 -0.039982 -0.046787 -0.770518
    9 -9.984112 -4.710447 3.170796 -2.902516 -0.005451 -2.718086
    10 5.945618 0.000000 0.000000 0.000000 0.000000 0.734118
    11 -9.984110 -4.710446 -2.998739 -0.207130 0.046884 -2.710461
    12 5.945625 0.000000 0.000000 0.000000 0.000000 -0.747104
    13 -13.167568 0.616876 1.590356 3.140739 -0.157522 -3.136150
    14 1.939788 0.000000 0.000000 3.040688 0.121169 2.449692
    15 -13.157713 0.632509 -1.795553 1.570796 0.016921 -3.058550
    16 2.215697 0.000000 -0.000001 1.570796 -0.608107 -3.124672
    17 -2.618796 -6.269598 8.263164 -2.813873 -0.307862 -1.402600
    18 11.485748 0.000000 0.000000 0.000000 0.000000 -1.409231
    19 24.536900 -0.000001 -0.000001 0.000000 0.000000 1.312205
    20 -2.618795 -6.269599 -8.136835 -1.073921 0.341842 -1.831816
    21 11.659968 0.000000 0.000000 0.000000 0.000000 1.553069
    22 25.724375 0.000000 0.000000 0.000000 0.000000 -1.534620
    23 3.880159 -0.980432 0.090609 -0.157474 0.150771 -0.210653
    24 13.389691 0.268266 -6.517195 0.542283 1.306249 -0.395924
    25 9.913784 0.000001 0.000000 1.624084 0.519213 -1.831473
    26 21.016012 0.000002 -0.000001 0.000000 0.000000 -1.783595
    27 28.471630 -0.000002 0.000002 0.000000 0.000000 1.959409
    28 13.389687 0.268266 6.023556 -0.462585 -1.348926 -0.488759
    29 9.768897 0.000001 0.000001 -1.766957 -0.569501 -1.351121
    30 19.931143 0.000001 -0.000001 0.000000 0.000000 -1.729037
    31 26.044123 -0.000001 -0.000001 0.000000 0.000000 2.058818
    32 -5.849911 4.319725 0.063164 0.217569 0.062468 0.214431
    33 -5.827133 4.411094 0.063164 -0.573946 0.068073 0.213010
    34 13.389687 0.268266 6.023556 -0.462585 -1.348926 -0.488759
  time 13
    0 3.878095 1.526386 16.973992 1.970793 -0.840955 0.974739
    1 -5.574535 -0.119304 0.054231 -0.183199 0.250077 -0.349362
    2 -5.511719 -2.697266 -3.988281 0.406064 -0.135632 -0.988901
    3 10.569403 0.000000 0.000000 0.000000 0.000000 -2.438888
    4 13.357940 0.000000 0.000000 0.000000 0.000000 2.881865
    5 -5.433594 -2.621094 3.515625 2.747943 0.105389 -1.032854
    6 10.523520 0.000000 0.000000 0.000000 0.000000 2.454556
    7 13.611949 0.000001 0.000000 0.000000 0.000000 -2.922795
    8 -8.417345 1.069929 -0.018171 -0.038685 -0.045060 -0.770842
    9 -9.984112 -4.710447 3.170796 -2.902516 -0.005451 -2.718124
    10 5.945618 0.000000 0.000000 0.000000 0.000000 0.734118
    11 -9.984110 -4.710446 -2.998739 -0.207130 0.046872 -2.710461
    12 5.945625 0.000000 0.000000 0.000000 0.000000 -0.747104
    13 -13.167568 0.616876 1.590356 3.140739 -0.157522 -3.136150
    14 1.939788 0.000000 0.000000 3.040688 0.121169 2.449692
    15 -13.157713 0.632509 -1.795553 1.570796 0.016921 -3.058550
    16 2.215697 0.000000 -0.000001 1.570796 -0.608107 -3.124672
    17 -2.618796 -6.269598 8.263164 -2.793509 -0.457225 -1.404463
    18 11.485748 0.000000 0.000000 0.000000 0.000000 -1.032068
    19 24.536900 -0.000001 -0.000001 0.000000 0.000000 0.701632
    20 -2.618795 -6.269599 -8.136835 -1.174205 0.297214 -1.908830
    21 11.659968 0.000000 0.000000 0.000000 0.000000 1.488622
    22 25.724375 0.000000 0.000000 0.000000 0.000000 -1.409830
    23 3.880159 -0.980432 0.090609 -0.159527 0.246294 -0.226166
    24 13.389691 0.268266 -6.517195 0.542283 1.306249 -0.395924
    25 9.913784 0.000001 0.000000 1.680115 0.543998 -1.700245
    26 21.016012 0.000002 -0.000001 0.000000 0.000000 -1.777478
    27 28.471630 -0.000002 0.000002 0.000000 0.000000 1.947955
    28 13.389687 0.268266 6.023556 -0.462585 -1.348926 -0.488759
    29 9.768897 0.000001 0.000001 -1.660692 -0.623185 -1.480913
    30 19.931143 0.000001 -0.000001 0.000000 0.000000 -1.723761
    31 26.044123 -0.000001 -0.000001 0.000000 0.000000 2.046845
    32 -5.849911 4.319725 0.063164 0.243453 0.180432 0.216460
    33 -5.827133 4.411094 0.063164 -0.548223 0.186075 0.215199
    34 13.389687 0.268266 6.023556 -0.462585 -1.348926 -0.488759
  time 14
    0 3.878095 1.526386 16.969719 2.086952 -0.819571 0.908925
    1 -5.574535 -0.119304 0.054231 -0.195998 0.205415 -0.326338
    2 -5.511719 -2.697266 -3.988281 0.406064 -0.135632 -0.988901
    3 10.569403 0.000000 0.000000 0.000000 0.000000 -2.438888
    4 13.357940 0.000000 0.000000 0.000000 0.000000 2.881865
    5 -5.433594 -2.621094 3.515625 2.747943 0.105389 -1.032854
    6 10.523520 0.000000 0.000000 0.000000 0.000000 2.454556
    7 13.611949 0.000001 0.000000 0.000000 0.000000 -2.922795
    8 -8.417345 1.069929 -0.018171 -0.036996 -0.042852 -0.771248
    9 -9.984112 -4.710447 3.170796 -2.902516 -0.005523 -2.717823
    10 5.945618 0.000000 0.000000 0.000000 0.000000 0.734764
    11 -9.984110 -4.710446 -2.998739 -0.207118 0.046932 -2.710178
    12 5.945625 0.000000 0.000000 0.000000 0.000000 -0.747662
    13 -13.167568 0.616876 1.590356 3.140739 -0.157522 -3.136150
    14 1.939788 0.000000 0.000000 3.040688 0.121169 2.449692
    15 -13.157713 0.632509 -1.795553 1.570796 0.016921 -3.058550
    16 2.215697 0.000000 -0.000001 1.570796 -0.608107 -3.124672
    17 -2.618796 -6.269598 8.263164 -2.820640 -0.538534 -1.398174
    18 11.485748 0.000000 0.000000 0.000000 0.000000 -0.894115
    19 24.536900 -0.000001 -0.000001 0.000000 0.000000 0.532077
    20 -2.618795 -6.269599 -8.136835 -1.268001 0.244382 -1.962225
    21 11.659968 0.000000 0.000000 0.000000 0.000000 1.351859
    22 25.724375 0.000000 0.000000 0.000000 0.000000 -1.158774
    23 3.880159 -0.980432 0.090609 -0.161419 0.300523 -0.235292
    24 13.389691 0.268266 -6.517195 0.542283 1.306249 -0.395924
    25 9.913784 0.000001 0.000000 1.712500 0.505329 -1.503164
    26 21.016012 0.000002 -0.000001 0.000000 0.000000 -1.721240
    27 28.471630 -0.000002 0.000002 0.000000 0.000000 1.844044
    28 13.389687 0.268266 6.023556 -0.462585 -1.348926 -0.488759
    29 9.768897 0.000001 0.000001 -1.443857 -0.721353 -1.666441
    30 19.931143 0.000001 -0.000001 0.000000 0.000000 -1.743106
    31 26.044123 -0.000001 -0.000001 0.000000 0.000000 2.090895
    32 -5.849911 4.319725 0.063164 0.301738 0.307276 0.220298
    33 -5.827133 4.411094 0.063164 -0.489993 0.312989 0.219309
    34 13.389687 0.268266 6.023556 -0.462585 -1.348926 -0.488759
end
