<?xml version="1.0" encoding="utf-8"?>
<COLLADA xmlns="http://www.collada.org/2005/11/COLLADASchema" version="1.4.1">
  <asset>
    <contributor>
      <author>Blender User</author>
      <authoring_tool>Blender 2.77.0 commit date:2016-03-18, commit time:12:34, hash:22a2853</authoring_tool>
    </contributor>
    <created>2016-07-01T06:14:54</created>
    <modified>2016-07-01T06:14:54</modified>
    <unit name="meter" meter="1"/>
    <up_axis>Z_UP</up_axis>
  </asset>
  <library_images>
    <image id="wingblur_png" name="wingblur_png">
      <init_from>wingblur.png</init_from>
    </image>
  </library_images>
  <library_effects>
    <effect id="wingblur-effect">
      <profile_COMMON>
        <newparam sid="wingblur_png-surface">
          <surface type="2D">
            <init_from>wingblur_png</init_from>
          </surface>
        </newparam>
        <newparam sid="wingblur_png-sampler">
          <sampler2D>
            <source>wingblur_png-surface</source>
          </sampler2D>
        </newparam>
        <technique sid="common">
          <phong>
            <emission>
              <color sid="emission">0 0 0 1</color>
            </emission>
            <ambient>
              <color sid="ambient">0 0 0 1</color>
            </ambient>
            <diffuse>
              <texture texture="wingblur_png-sampler" texcoord="UVMap"/>
            </diffuse>
            <specular>
              <color sid="specular">0.5 0.5 0.5 1</color>
            </specular>
            <shininess>
              <float sid="shininess">50</float>
            </shininess>
            <transparent>
              <texture texture="wingblur_png-sampler" texcoord="UVMap"/>
            </transparent>
            <transparency>
              <float sid="transparency">0</float>
            </transparency>
            <index_of_refraction>
              <float sid="index_of_refraction">1</float>
            </index_of_refraction>
          </phong>
        </technique>
      </profile_COMMON>
    </effect>
  </library_effects>
  <library_materials>
    <material id="wingblur-material" name="wingblur">
      <instance_effect url="#wingblur-effect"/>
    </material>
  </library_materials>
  <library_geometries>
    <geometry id="antlion_wings_reference_002-mesh" name="antlion_wings_reference.002">
      <mesh>
        <source id="antlion_wings_reference_002-mesh-positions">
          <float_array id="antlion_wings_reference_002-mesh-positions-array" count="294">-0.398543 -1.60036 26.35391 1.164862 -4.744603 26.60444 -0.419784 -1.608655 26.38534 -0.426099 -1.613207 26.40321 12.44203 -14.13999 61.54155 16.51236 -15.6496 54.75241 0.308589 -4.925598 27.24493 28.59688 -11.20614 51.4219 32.58291 -9.882763 46.47627 27.91527 -5.608848 52.2925 23.82106 -12.37738 55.65494 21.37337 -14.7668 51.70739 0.56131 -4.892622 27.1394 0.792359 -4.85066 26.99467 35.66979 -8.443541 40.95371 25.6451 -13.71919 47.92116 0.9954 -4.800868 26.8147 31.97146 -11.24819 38.55789 29.21039 -12.5355 43.49755 1.296099 -4.683417 26.36966 1.385509 -4.618982 26.11678 19.94349 9.187755 34.42882 28.39501 6.764354 36.01753 36.92353 -1.408863 36.17636 26.79039 5.607979 40.55581 34.85889 -2.896745 42.01565 21.39384 3.500151 48.54291 31.82843 -4.309659 47.43727 23.22674 -6.758677 56.44816 9.06789 1.261658 56.26408 18.38642 -13.36436 59.05929 17.89144 -7.727611 59.79027 33.85255 -9.892574 33.23769 37.77287 -6.927956 35.00569 18.80361 8.366301 37.65267 17.13051 7.586242 40.64591 14.97008 6.868967 43.32645 24.43513 4.509872 44.76945 12.38157 6.23415 45.62077 17.74994 2.606508 51.77267 13.60338 1.853459 54.37014 -0.367881 -1.593878 26.33098 9.435983 5.69921 47.46593 -0.410513 -1.604333 26.36876 -12.05572 -8.489067 62.22716 -11.19542 -16.34337 56.97266 0.350028 -1.591549 26.32352 -1.385511 -4.618984 26.11678 -19.94349 9.187751 34.42882 -36.92352 -1.408868 36.17636 -16.51237 -15.6496 54.75239 -21.37337 -14.76681 51.70738 -25.6451 -13.71919 47.92115 -29.21039 -12.5355 43.49754 -1.296101 -4.683417 26.36965 -33.85255 -9.892577 33.23768 -37.77287 -6.927961 35.00568 -34.85889 -2.896749 42.01565 -26.79038 5.607977 40.5558 -28.395 6.764349 36.01753 -18.80361 8.366301 37.65266 -24.43513 4.509871 44.76945 -31.82843 -4.309659 47.43726 -35.66979 -8.443546 40.95371 -31.97146 -11.24819 38.55789 -32.5829 -9.882765 46.47626 -18.38642 -13.36435 59.05928 -12.44204 -14.13999 61.54154 -17.89145 -7.727609 59.79026 -14.97008 6.868965 43.32645 0.398542 -1.60036 26.35391 0.384199 -1.596843 26.3412 -9.435986 5.69921 47.46592 -12.38157 6.23415 45.62077 -21.39385 3.50015 48.5429 -27.91527 -5.60885 52.29249 -23.22674 -6.758677 56.44815 -28.59689 -11.20614 51.42189 -23.82106 -12.37738 55.65493 -13.60339 1.853461 54.37013 -17.74995 2.606508 51.77266 -9.067895 1.261661 56.26407 -6.214117 5.278812 48.81132 6.214111 5.278811 48.81132 11.19541 -16.34337 56.97266 12.05572 -8.489068 62.22717 -0.35003 -1.591549 26.32352 -0.384201 -1.596842 26.3412 -17.13052 7.586239 40.6459 0.419781 -1.608655 26.38534 0.410512 -1.604334 26.36876 -0.792361 -4.850659 26.99466 -0.995402 -4.800868 26.8147 -0.561312 -4.892622 27.1394 -0.308592 -4.925597 27.24493 0.367879 -1.593877 26.33097 -1.164864 -4.744604 26.60444 0.426097 -1.613206 26.4032</float_array>
          <technique_common>
            <accessor source="#antlion_wings_reference_002-mesh-positions-array" count="98" stride="3">
              <param name="X" type="float"/>
              <param name="Y" type="float"/>
              <param name="Z" type="float"/>
            </accessor>
          </technique_common>
        </source>
        <source id="antlion_wings_reference_002-mesh-normals">
          <float_array id="antlion_wings_reference_002-mesh-normals-array" count="294">-0.7177018 -0.608136 -0.3392267 -0.249738 -0.43798 0.8635998 0.4657223 -0.437309 0.7693268 -0.2306044 -0.7150994 -0.6598899 0.5999369 -0.4129487 0.6852367 -0.3048226 -0.7285773 -0.613399 0.7178674 -0.3839287 0.5807456 -0.3700149 -0.7445772 -0.5556022 0.8161608 -0.3513746 0.4587128 -0.4244613 -0.7626447 -0.4880633 0.8923459 -0.315872 0.322403 -0.4666094 -0.782301 -0.4126513 0.924579 -0.1037347 -0.3665965 -0.29851 -0.5185852 0.801225 0.1590647 -0.9871961 0.0119329 0.4500711 -0.5462076 0.7064655 -0.4965795 -0.8411425 0.214215 0.8078154 0.3681543 0.4603226 0.8816906 -0.1825639 -0.4350772 0.8272203 0.4637683 -0.3172156 0.859079 -0.4297683 0.2779974 0.7372344 0.3352591 0.5865891 0.7860255 -0.4638329 0.4086844 0.6460984 0.3050122 0.6996602 0.6917088 -0.4951371 0.525717 0.5369226 0.2782427 0.7964265 0.5786812 -0.522861 0.625895 0.4126583 0.2556644 0.8742704 0.197885 -0.9801474 -0.01236015 0.3852136 -0.5900891 -0.7095108 0.2825464 -0.9520453 -0.1173767 0.2604804 -0.9623277 -0.0779457 0.2320043 -0.9717813 -0.04260426 -0.2260856 -0.4681631 -0.8542299 0.05331659 0.8982949 -0.4361464 0.5057974 0.7887729 -0.3492941 0.4278222 0.8094989 0.4020943 0.3889416 0.7913728 0.4716497 0.3387624 0.7746977 0.5339322 0.2786115 0.7599632 0.5872235 0.2101549 0.7475364 0.6300987 -0.5006754 0.5022014 0.7050659 -0.3585409 0.1261668 0.9249489 -0.1267471 0.9729285 0.1932489 -0.1182008 0.976919 0.1779268 -0.1071231 0.980589 0.164225 -0.09387624 0.9838392 0.1524726 -0.07879936 0.9865792 0.1430108 -0.6499103 0.6980699 0.3005244 0.4965795 -0.8411425 0.214215 0.3585409 0.1261668 0.9249489 0.29851 -0.5185852 0.801225 0.5006754 0.5022014 0.7050659 0.6499103 0.6980699 0.3005244 0.7177018 -0.608136 -0.3392267 0.249585 -0.4380097 0.8636288 0.2260856 -0.4681631 -0.8542299 -0.05331659 0.8982949 -0.4361464 -0.9246173 -0.1037051 -0.3665081 -0.3852136 -0.5900891 -0.7095108 -0.5057974 0.7887729 -0.3492941 -0.8272203 0.4637683 -0.3172156 -0.8816838 -0.1825689 -0.4350889 -0.1590647 -0.9871961 0.0119329 0.2306044 -0.7150994 -0.6598899 0.3047949 -0.7285841 -0.6134048 -0.197885 -0.9801474 -0.01236015 0.3700212 -0.7445898 -0.5555811 -0.2320043 -0.9717813 -0.04260426 0.4244613 -0.7626447 -0.4880633 -0.2604804 -0.9623277 -0.0779457 0.4666094 -0.782301 -0.4126513 -0.2825464 -0.9520453 -0.1173767 -0.859079 -0.4297683 0.2779974 -0.8078154 0.3681543 0.4603226 -0.4278222 0.8094989 0.4020943 0.1267471 0.9729285 0.1932489 -0.8923457 -0.3158413 0.3224335 -0.8161494 -0.3513697 0.4587369 0.1182008 0.976919 0.1779268 -0.3889416 0.7913728 0.4716497 -0.7372344 0.3352591 0.5865891 -0.7860255 -0.4638329 0.4086844 -0.6917088 -0.4951371 0.525717 -0.5786812 -0.522861 0.625895 -0.4500711 -0.5462076 0.7064655 -0.4126583 0.2556644 0.8742704 -0.3387624 0.7746977 0.5339322 0.1071231 0.980589 0.164225 -0.7177574 -0.3840268 0.5808165 0.09387624 0.9838392 0.1524726 -0.5998878 -0.4128959 0.6853114 -0.4657556 -0.4373726 0.7692704 0.07879936 0.9865792 0.1430108 -0.2786115 0.7599632 0.5872235 -0.6460984 0.3050122 0.6996602 -0.5369226 0.2782427 0.7964265 -0.2101549 0.7475364 0.6300987</float_array>
          <technique_common>
            <accessor source="#antlion_wings_reference_002-mesh-normals-array" count="98" stride="3">
              <param name="X" type="float"/>
              <param name="Y" type="float"/>
              <param name="Z" type="float"/>
            </accessor>
          </technique_common>
        </source>
        <source id="antlion_wings_reference_002-mesh-map">
          <float_array id="antlion_wings_reference_002-mesh-map-array" count="1128">0.01257997 0.04660099 0.01132398 4.99e-4 0.01073896 5.37e-4 0.020868 0.04606395 0.01073896 5.37e-4 0.01016896 6.56e-4 0.02893799 0.04438197 0.01016896 6.56e-4 0.009629964 8.53e-4 0.03656697 0.04159998 0.009629964 8.53e-4 0.009136974 0.001120984 0.04354798 0.03779596 0.009136974 0.001120984 0.008702993 0.001454949 0.04968798 0.03307199 0.008702993 0.001454949 0.008340954 0.001843988 0.005975961 0.999501 0.182823 0.884051 0.200928 0.986871 0.005975961 0.999501 0.008448958 0.895347 0.182823 0.884051 0.008448958 0.895347 0.020868 0.04606395 0.182823 0.884051 0.008448958 0.895347 0.01257997 0.04660099 0.020868 0.04606395 0.01257997 0.04660099 0.01073896 5.37e-4 0.020868 0.04606395 0.860019 0.66739 0.999501 0.551623 0.978498 0.540101 0.860019 0.66739 0.878815 0.681282 0.999501 0.551623 0.718239 0.776457 0.878815 0.681282 0.860019 0.66739 0.718239 0.776457 0.734395 0.79238 0.878815 0.681282 0.557047 0.864312 0.734395 0.79238 0.718239 0.776457 0.557047 0.864312 0.570202 0.881871 0.734395 0.79238 0.380864 0.928545 0.570202 0.881871 0.557047 0.864312 0.380864 0.928545 0.390739 0.9473 0.570202 0.881871 0.194523 0.967393 0.390739 0.9473 0.380864 0.928545 0.194523 0.967393 0.200928 0.986871 0.390739 0.9473 0.200928 0.986871 0.352599 0.848656 0.390739 0.9473 0.200928 0.986871 0.182823 0.884051 0.352599 0.848656 0.182823 0.884051 0.02893799 0.04438197 0.352599 0.848656 0.182823 0.884051 0.020868 0.04606395 0.02893799 0.04438197 0.020868 0.04606395 0.01016896 6.56e-4 0.02893799 0.04438197 0.878815 0.681282 0.897105 0.494744 0.999501 0.551623 0.878815 0.681282 0.789159 0.610717 0.897105 0.494744 0.734395 0.79238 0.789159 0.610717 0.878815 0.681282 0.734395 0.79238 0.659982 0.710089 0.789159 0.610717 0.570202 0.881871 0.659982 0.710089 0.734395 0.79238 0.570202 0.881871 0.51312 0.790134 0.659982 0.710089 0.390739 0.9473 0.51312 0.790134 0.570202 0.881871 0.390739 0.9473 0.352599 0.848656 0.51312 0.790134 0.352599 0.848656 0.03656697 0.04159998 0.51312 0.790134 0.352599 0.848656 0.02893799 0.04438197 0.03656697 0.04159998 0.02893799 0.04438197 0.009629964 8.53e-4 0.03656697 0.04159998 0.789159 0.610717 0.05481898 0.02755999 0.897105 0.494744 0.789159 0.610717 0.04968798 0.03307199 0.05481898 0.02755999 0.659982 0.710089 0.04968798 0.03307199 0.789159 0.610717 0.659982 0.710089 0.04354798 0.03779596 0.04968798 0.03307199 0.51312 0.790134 0.04354798 0.03779596 0.659982 0.710089 0.51312 0.790134 0.03656697 0.04159998 0.04354798 0.03779596 0.03656697 0.04159998 0.009136974 0.001120984 0.04354798 0.03779596 0.04354798 0.03779596 0.008702993 0.001454949 0.04968798 0.03307199 0.04968798 0.03307199 0.008340954 0.001843988 0.05481898 0.02755999 0.05481898 0.02755999 0.008340954 0.001843988 0.539492 0.296786 0.897105 0.494744 0.05481898 0.02755999 0.539492 0.296786 0.897105 0.494744 0.539492 0.296786 0.758547 0.418262 0.897105 0.494744 0.758547 0.418262 0.978498 0.540101 0.666465 0.51719 0.978498 0.540101 0.758547 0.418262 0.666465 0.51719 0.860019 0.66739 0.978498 0.540101 0.556275 0.601957 0.860019 0.66739 0.666465 0.51719 0.556275 0.601957 0.718239 0.776457 0.860019 0.66739 0.430997 0.670237 0.718239 0.776457 0.556275 0.601957 0.430997 0.670237 0.557047 0.864312 0.718239 0.776457 0.294069 0.720159 0.557047 0.864312 0.430997 0.670237 0.294069 0.720159 0.380864 0.928545 0.557047 0.864312 0.149246 0.750351 0.380864 0.928545 0.294069 0.720159 0.149246 0.750351 0.194523 0.967393 0.380864 0.928545 5e-4 0.759987 0.194523 0.967393 0.149246 0.750351 5e-4 0.759987 0.003134965 0.979791 0.194523 0.967393 0.003134965 0.979791 0.200928 0.986871 0.194523 0.967393 0.003134965 0.979791 0.005975961 0.999501 0.200928 0.986871 0.897105 0.494744 0.978498 0.540101 0.999501 0.551623 0.008702993 0.001454949 0.47408 0.367061 0.539492 0.296786 0.47408 0.367061 0.758547 0.418262 0.539492 0.296786 0.47408 0.367061 0.666465 0.51719 0.758547 0.418262 0.395804 0.427277 0.666465 0.51719 0.47408 0.367061 0.395804 0.427277 0.556275 0.601957 0.666465 0.51719 0.306811 0.475781 0.556275 0.601957 0.395804 0.427277 0.306811 0.475781 0.430997 0.670237 0.556275 0.601957 0.209541 0.511244 0.430997 0.670237 0.306811 0.475781 0.209541 0.511244 0.294069 0.720159 0.430997 0.670237 0.106664 0.532691 0.294069 0.720159 0.209541 0.511244 0.106664 0.532691 0.149246 0.750351 0.294069 0.720159 9.99e-4 0.539537 0.149246 0.750351 0.106664 0.532691 9.99e-4 0.539537 5e-4 0.759987 0.149246 0.750351 0.01073896 5.37e-4 0.106664 0.532691 0.209541 0.511244 0.01132398 4.99e-4 9.99e-4 0.539537 0.106664 0.532691 0.01016896 6.56e-4 0.209541 0.511244 0.306811 0.475781 0.009136974 0.001120984 0.395804 0.427277 0.47408 0.367061 0.009629964 8.53e-4 0.306811 0.475781 0.395804 0.427277 0.05300396 0.862098 0.02296096 0.999501 0.04044497 0.986165 0.05300396 0.862098 0.002330958 0.825036 0.02296096 0.999501 0.05300396 0.862098 5e-4 0.6151 0.002330958 0.825036 0.05300396 0.862098 0.05920398 0.02927196 5e-4 0.6151 0.05920398 0.02927196 0.050659 5e-4 5e-4 0.6151 0.09997797 0.01139497 0.52031 0.387187 0.04777795 0.001761972 0.91083 0.485979 0.52031 0.387187 0.09997797 0.01139497 0.91083 0.485979 0.734078 0.504198 0.52031 0.387187 0.91083 0.485979 0.964486 0.586684 0.734078 0.504198 0.91083 0.485979 0.9995 0.565663 0.964486 0.586684 0.04044497 0.986165 0.220238 0.856373 0.05300396 0.862098 0.05300396 0.862098 0.220238 0.856373 0.06715297 0.02899998 0.220238 0.856373 0.07491099 0.02756196 0.06715297 0.02899998 0.220238 0.856373 0.383457 0.826124 0.07491099 0.02756196 0.383457 0.826124 0.08226495 0.02499794 0.07491099 0.02756196 0.383457 0.826124 0.538185 0.772182 0.08226495 0.02499794 0.538185 0.772182 0.089015 0.02137798 0.08226495 0.02499794 0.538185 0.772182 0.680176 0.696026 0.089015 0.02137798 0.680176 0.696026 0.09497296 0.01680195 0.089015 0.02137798 0.680176 0.696026 0.805538 0.599745 0.09497296 0.01680195 0.805538 0.599745 0.09997797 0.01139497 0.09497296 0.01680195 0.805538 0.599745 0.91083 0.485979 0.09997797 0.01139497 0.881783 0.692853 0.91083 0.485979 0.805538 0.599745 0.881783 0.692853 0.9995 0.565663 0.91083 0.485979 0.84892 0.71155 0.9995 0.565663 0.881783 0.692853 0.84892 0.71155 0.964486 0.586684 0.9995 0.565663 0.644261 0.601243 0.964486 0.586684 0.84892 0.71155 0.644261 0.601243 0.734078 0.504198 0.964486 0.586684 0.456507 0.456124 0.734078 0.504198 0.644261 0.601243 0.456507 0.456124 0.52031 0.387187 0.734078 0.504198 0.048132 0.001379966 0.52031 0.387187 0.456507 0.456124 0.04855298 0.001056969 0.456507 0.456124 0.380543 0.514467 0.380543 0.514467 0.456507 0.456124 0.644261 0.601243 0.380543 0.514467 0.644261 0.601243 0.537325 0.683373 0.537325 0.683373 0.644261 0.601243 0.84892 0.71155 0.537325 0.683373 0.84892 0.71155 0.711328 0.817225 0.711328 0.817225 0.84892 0.71155 0.881783 0.692853 0.711328 0.817225 0.881783 0.692853 0.741629 0.800496 0.741629 0.800496 0.881783 0.692853 0.805538 0.599745 0.741629 0.800496 0.805538 0.599745 0.680176 0.696026 0.582881 0.885639 0.741629 0.800496 0.680176 0.696026 0.582881 0.885639 0.680176 0.696026 0.538185 0.772182 0.409895 0.945947 0.582881 0.885639 0.538185 0.772182 0.409895 0.945947 0.538185 0.772182 0.383457 0.826124 0.227414 0.979765 0.409895 0.945947 0.383457 0.826124 0.227414 0.979765 0.383457 0.826124 0.220238 0.856373 0.04044497 0.986165 0.227414 0.979765 0.220238 0.856373 0.02296096 0.999501 0.227414 0.979765 0.04044497 0.986165 0.02296096 0.999501 0.206513 0.993217 0.227414 0.979765 0.416203 0.748336 0.537325 0.683373 0.711328 0.817225 0.294501 0.560615 0.537325 0.683373 0.416203 0.748336 0.294501 0.560615 0.380543 0.514467 0.537325 0.683373 0.04902994 8.02e-4 0.380543 0.514467 0.294501 0.560615 0.200742 0.593302 0.294501 0.560615 0.416203 0.748336 0.04954898 6.2e-4 0.294501 0.560615 0.200742 0.593302 0.05009698 5.19e-4 0.200742 0.593302 0.101837 0.611631 0.101837 0.611631 0.200742 0.593302 0.284216 0.79435 0.200742 0.593302 0.416203 0.748336 0.284216 0.79435 0.284216 0.79435 0.416203 0.748336 0.555482 0.900812 0.416203 0.748336 0.711328 0.817225 0.555482 0.900812 0.555482 0.900812 0.711328 0.817225 0.741629 0.800496 0.555482 0.900812 0.741629 0.800496 0.582881 0.885639 0.385658 0.960017 0.555482 0.900812 0.582881 0.885639 0.385658 0.960017 0.582881 0.885639 0.409895 0.945947 0.206513 0.993217 0.385658 0.960017 0.409895 0.945947 0.206513 0.993217 0.409895 0.945947 0.227414 0.979765 0.101837 0.611631 0.284216 0.79435 0.144986 0.820153 0.144986 0.820153 0.284216 0.79435 0.385658 0.960017 0.284216 0.79435 0.555482 0.900812 0.385658 0.960017 0.144986 0.820153 0.385658 0.960017 0.206513 0.993217 0.002330958 0.825036 0.206513 0.993217 0.02296096 0.999501 0.002330958 0.825036 0.144986 0.820153 0.206513 0.993217 5e-4 0.6151 0.144986 0.820153 0.002330958 0.825036 5e-4 0.6151 0.101837 0.611631 0.144986 0.820153 0.050659 5e-4 0.101837 0.611631 5e-4 0.6151 0.01257997 0.04660099 9.99e-4 0.539537 0.01132398 4.99e-4 0.008448958 0.895347 9.99e-4 0.539537 0.01257997 0.04660099 0.008448958 0.895347 5e-4 0.759987 9.99e-4 0.539537 0.008448958 0.895347 0.003134965 0.979791 5e-4 0.759987 0.008448958 0.895347 0.005975961 0.999501 0.003134965 0.979791 0.01132398 4.99e-4 0.106664 0.532691 0.01073896 5.37e-4 0.01073896 5.37e-4 0.209541 0.511244 0.01016896 6.56e-4 0.01016896 6.56e-4 0.306811 0.475781 0.009629964 8.53e-4 0.009629964 8.53e-4 0.395804 0.427277 0.009136974 0.001120984 0.009136974 0.001120984 0.47408 0.367061 0.008702993 0.001454949 0.008702993 0.001454949 0.539492 0.296786 0.008340954 0.001843988 0.050659 5e-4 0.05009698 5.19e-4 0.101837 0.611631 0.05009698 5.19e-4 0.04954898 6.2e-4 0.200742 0.593302 0.04954898 6.2e-4 0.04902994 8.02e-4 0.294501 0.560615 0.04902994 8.02e-4 0.04855298 0.001056969 0.380543 0.514467 0.04855298 0.001056969 0.048132 0.001379966 0.456507 0.456124 0.048132 0.001379966 0.04777795 0.001761972 0.52031 0.387187 0.05300396 0.862098 0.06715297 0.02899998 0.05920398 0.02927196 -0.02409398 0.01142996 -0.02405297 0.004423975 0.032597 0.008958995 -0.02276295 0.01834398 -0.02409398 0.01142996 0.03259998 0.008464992 -0.02009695 0.02497899 -0.02276295 0.01834398 0.03250598 0.007975995 -0.01616799 0.03115099 -0.02009695 0.02497899 0.03231698 0.007507979 -0.01108497 0.03669095 -0.01616799 0.03115099 0.03203999 0.007071971 -0.004986941 0.04144799 -0.01108497 0.03669095 0.031681 0.006679952 -0.01108497 0.03669095 0.03203999 0.007071971 0.031681 0.006679952 -0.004986941 0.04144799 0.031681 0.006679952 0.03125 0.00634396 -0.01616799 0.03115099 0.03231698 0.007507979 0.03203999 0.007071971 -0.02009695 0.02497899 0.03250598 0.007975995 0.03231698 0.007507979 -0.02276295 0.01834398 0.03259998 0.008464992 0.03250598 0.007975995 -0.02409398 0.01142996 0.032597 0.008958995 0.03259998 0.008464992</float_array>
          <technique_common>
            <accessor source="#antlion_wings_reference_002-mesh-map-array" count="564" stride="2">
              <param name="S" type="float"/>
              <param name="T" type="float"/>
            </accessor>
          </technique_common>
        </source>
        <vertices id="antlion_wings_reference_002-mesh-vertices">
          <input semantic="POSITION" source="#antlion_wings_reference_002-mesh-positions"/>
        </vertices>
        <polylist material="wingblur-material" count="188">
          <input semantic="VERTEX" source="#antlion_wings_reference_002-mesh-vertices" offset="0"/>
          <input semantic="NORMAL" source="#antlion_wings_reference_002-mesh-normals" offset="1"/>
          <input semantic="TEXCOORD" source="#antlion_wings_reference_002-mesh-map" offset="2" set="0"/>
          <vcount>3 3 3 3 3 3 3 3 3 3 3 3 3 3 3 3 3 3 3 3 3 3 3 3 3 3 3 3 3 3 3 3 3 3 3 3 3 3 3 3 3 3 3 3 3 3 3 3 3 3 3 3 3 3 3 3 3 3 3 3 3 3 3 3 3 3 3 3 3 3 3 3 3 3 3 3 3 3 3 3 3 3 3 3 3 3 3 3 3 3 3 3 3 3 3 3 3 3 3 3 3 3 3 3 3 3 3 3 3 3 3 3 3 3 3 3 3 3 3 3 3 3 3 3 3 3 3 3 3 3 3 3 3 3 3 3 3 3 3 3 3 3 3 3 3 3 3 3 3 3 3 3 3 3 3 3 3 3 3 3 3 3 3 3 3 3 3 3 3 3 3 3 3 3 3 3 3 3 3 3 3 3 3 3 3 3 3 3 </vcount>
          <p>6 0 0 86 1 1 41 2 2 12 3 3 41 2 4 87 4 5 13 5 6 87 4 7 0 6 8 16 7 9 0 6 10 43 8 11 1 9 12 43 8 13 2 10 14 19 11 15 2 10 16 3 12 17 4 13 18 5 14 19 30 15 20 4 13 21 84 16 22 5 14 23 84 16 24 12 3 25 5 14 26 84 16 27 6 0 28 12 3 29 6 0 30 41 2 31 12 3 32 25 17 33 33 18 34 23 19 35 25 17 36 14 20 37 33 18 38 27 21 39 14 20 40 25 17 41 27 21 42 8 22 43 14 20 44 9 23 45 8 22 46 27 21 47 9 23 48 7 24 49 8 22 50 28 25 51 7 24 52 9 23 53 28 25 54 10 26 55 7 24 56 31 27 57 10 26 58 28 25 59 31 27 60 30 15 61 10 26 62 30 15 63 11 28 64 10 26 65 30 15 66 5 14 67 11 28 68 5 14 69 13 5 70 11 28 71 5 14 72 12 3 73 13 5 74 12 3 75 87 4 76 13 5 77 14 20 78 32 29 79 33 18 80 14 20 81 17 30 82 32 29 83 8 22 84 17 30 85 14 20 86 8 22 87 18 31 88 17 30 89 7 24 90 18 31 91 8 22 92 7 24 93 15 32 94 18 31 95 10 26 96 15 32 97 7 24 98 10 26 99 11 28 100 15 32 101 11 28 102 16 7 103 15 32 104 11 28 105 13 5 106 16 7 107 13 5 108 0 6 109 16 7 110 17 30 111 20 33 112 32 29 113 17 30 114 19 11 115 20 33 116 18 31 117 19 11 118 17 30 119 18 31 120 1 9 121 19 11 122 15 32 123 1 9 124 18 31 125 15 32 126 16 7 127 1 9 128 16 7 129 43 8 130 1 9 131 1 9 132 2 10 133 19 11 134 19 11 135 3 12 136 20 33 137 20 33 138 3 12 139 21 34 140 32 29 141 20 33 142 21 34 143 32 29 144 21 34 145 22 35 146 32 29 147 22 35 148 23 19 149 24 36 150 23 19 151 22 35 152 24 36 153 25 17 154 23 19 155 37 37 156 25 17 157 24 36 158 37 37 159 27 21 160 25 17 161 26 38 162 27 21 163 37 37 164 26 38 165 9 23 166 27 21 167 39 39 168 9 23 169 26 38 170 39 39 171 28 25 172 9 23 173 40 40 174 28 25 175 39 39 176 40 40 177 31 27 178 28 25 179 29 41 180 31 27 181 40 40 182 29 41 183 85 42 184 31 27 185 85 42 186 30 15 187 31 27 188 85 42 189 4 13 190 30 15 191 32 29 192 23 19 193 33 18 194 2 10 195 34 43 196 21 34 197 34 43 198 22 35 199 21 34 200 34 43 201 24 36 202 22 35 203 35 44 204 24 36 205 34 43 206 35 44 207 37 37 208 24 36 209 36 45 210 37 37 211 35 44 212 36 45 213 26 38 214 37 37 215 38 46 216 26 38 217 36 45 218 38 46 219 39 39 220 26 38 221 42 47 222 39 39 223 38 46 224 42 47 225 40 40 226 39 39 227 83 48 228 40 40 229 42 47 230 83 48 231 29 41 232 40 40 233 41 2 234 42 47 235 38 46 236 86 1 237 83 48 238 42 47 239 87 4 240 38 46 241 36 45 242 43 8 243 35 44 244 34 43 245 0 6 246 36 45 247 35 44 248 45 49 249 44 50 250 67 51 251 45 49 252 81 52 253 44 50 254 45 49 255 82 53 256 81 52 257 45 49 258 94 54 259 82 53 260 94 54 261 46 55 262 82 53 263 47 56 264 48 57 265 97 58 266 55 59 267 48 57 268 47 56 269 55 59 270 59 60 271 48 57 272 55 59 273 49 61 274 59 60 275 55 59 276 56 62 277 49 61 278 67 51 279 50 63 280 45 49 281 45 49 282 50 63 283 93 64 284 50 63 285 91 65 286 93 64 287 50 63 288 51 66 289 91 65 290 51 66 291 92 67 292 91 65 293 51 66 294 52 68 295 92 67 296 52 68 297 96 69 298 92 67 299 52 68 300 53 70 301 96 69 302 53 70 303 54 71 304 96 69 305 53 70 306 64 72 307 54 71 308 64 72 309 47 56 310 54 71 311 64 72 312 55 59 313 47 56 314 63 73 315 55 59 316 64 72 317 63 73 318 56 62 319 55 59 320 57 74 321 56 62 322 63 73 323 57 74 324 49 61 325 56 62 326 58 75 327 49 61 328 57 74 329 58 75 330 59 60 331 49 61 332 60 76 333 59 60 334 58 75 335 60 76 336 48 57 337 59 60 338 89 77 339 48 57 340 60 76 341 90 78 342 60 76 343 88 79 344 88 79 345 60 76 346 58 75 347 88 79 348 58 75 349 61 80 350 61 80 351 58 75 352 57 74 353 61 80 354 57 74 355 62 81 356 62 81 357 57 74 358 63 73 359 62 81 360 63 73 361 65 82 362 65 82 363 63 73 364 64 72 365 65 82 366 64 72 367 53 70 368 77 83 369 65 82 370 53 70 371 77 83 372 53 70 373 52 68 374 78 84 375 77 83 376 52 68 377 78 84 378 52 68 379 51 66 380 66 85 381 78 84 382 51 66 383 66 85 384 51 66 385 50 63 386 67 51 387 66 85 388 50 63 389 44 50 390 66 85 391 67 51 392 44 50 393 68 86 394 66 85 395 74 87 396 61 80 397 62 81 398 69 88 399 61 80 400 74 87 401 69 88 402 88 79 403 61 80 404 70 89 405 88 79 406 69 88 407 73 90 408 69 88 409 74 87 410 71 91 411 69 88 412 73 90 413 95 92 414 73 90 415 72 93 416 72 93 417 73 90 418 80 94 419 73 90 420 74 87 421 80 94 422 80 94 423 74 87 424 75 95 425 74 87 426 62 81 427 75 95 428 75 95 429 62 81 430 65 82 431 75 95 432 65 82 433 77 83 434 76 96 435 75 95 436 77 83 437 76 96 438 77 83 439 78 84 440 68 86 441 76 96 442 78 84 443 68 86 444 78 84 445 66 85 446 72 93 447 80 94 448 79 97 449 79 97 450 80 94 451 76 96 452 80 94 453 75 95 454 76 96 455 79 97 456 76 96 457 68 86 458 81 52 459 68 86 460 44 50 461 81 52 462 79 97 463 68 86 464 82 53 465 79 97 466 81 52 467 82 53 468 72 93 469 79 97 470 46 55 471 72 93 472 82 53 473 6 0 474 83 48 475 86 1 476 84 16 477 83 48 478 6 0 479 84 16 480 29 41 481 83 48 482 84 16 483 85 42 484 29 41 485 84 16 486 4 13 487 85 42 488 86 1 489 42 47 490 41 2 491 41 2 492 38 46 493 87 4 494 87 4 495 36 45 496 0 6 497 0 6 498 35 44 499 43 8 500 43 8 501 34 43 502 2 10 503 2 10 504 21 34 505 3 12 506 46 55 507 95 92 508 72 93 509 95 92 510 71 91 511 73 90 512 71 91 513 70 89 514 69 88 515 70 89 516 90 78 517 88 79 518 90 78 519 89 77 520 60 76 521 89 77 522 97 58 523 48 57 524 45 49 525 93 64 526 94 54 527 54 71 528 47 56 529 97 58 530 96 69 531 54 71 532 89 77 533 92 67 534 96 69 535 90 78 536 91 65 537 92 67 538 70 89 539 93 64 540 91 65 541 71 91 542 94 54 543 93 64 544 95 92 545 93 64 546 71 91 547 95 92 548 94 54 549 95 92 550 46 55 551 91 65 552 70 89 553 71 91 554 92 67 555 90 78 556 70 89 557 96 69 558 89 77 559 90 78 560 54 71 561 97 58 562 89 77 563</p>
        </polylist>
      </mesh>
    </geometry>
  </library_geometries>
  <library_controllers>
    <controller id="antlion_wings_reference_skeleton_antlion_wings_reference-skin" name="antlion_wings_reference_skeleton">
      <skin source="#antlion_wings_reference_002-mesh">
        <bind_shape_matrix>1 0 0 0 0 1 0 0 0 0 1 0 0 0 0 1</bind_shape_matrix>
        <source id="antlion_wings_reference_skeleton_antlion_wings_reference-skin-joints">
          <Name_array id="antlion_wings_reference_skeleton_antlion_wings_reference-skin-joints-array" count="35">Antlion_Body_Bone Antlion_Chest_Bone Antlion_ArmR1_Bone Antlion_ArmR2_Bone Antlion_ArmR3_Bone Antlion_ArmL1_Bone Antlion_ArmL2_Bone Antlion_ArmL3_Bone Antlion_Head_Bone Antlion_FangBottomL1_Bone Antlion_FangBottomL2_Bone Antlion_FangBottomR1_Bone Antlion_FangBottomR2_Bone Antlion_FangTopL1_Bone Antlion_FangTopL2_Bone Antlion_FangTopR1_Bone Antlion_FangTopR2_Bone Antlion_LegMidL1_Bone Antlion_LegMidL2_Bone Antlion_LegMidL3_Bone Antlion_LegMidR1_Bone Antlion_LegMidR2_Bone Antlion_LegMidR3_Bone Antlion_Back_Bone Antlion_LegShoulder_R_Bone Antlion_LegL1_Bone Antlion_LegL2_Bone Antlion_LegL3_Bone Antlion_LegShoulder_L_Bone Antlion_LegR1_Bone Antlion_LegR2_Bone Antlion_LegR3_Bone Antlion_bone Antlion_WingL_Bone Antlion_WingR_Bone</Name_array>
          <technique_common>
            <accessor source="#antlion_wings_reference_skeleton_antlion_wings_reference-skin-joints-array" count="35" stride="1">
              <param name="JOINT" type="name"/>
            </accessor>
          </technique_common>
        </source>
        <source id="antlion_wings_reference_skeleton_antlion_wings_reference-skin-bind_poses">
          <float_array id="antlion_wings_reference_skeleton_antlion_wings_reference-skin-bind_poses-array" count="560">3.57946e-7 0.9702961 0.2419211 -7.461762 -2.42819e-7 -0.2419204 0.9702959 -23.61785 0.9999999 -4.55184e-7 3.32249e-7 0.06315743 0 0 0 1 4.38722e-7 0.9995064 0.03141105 2.997842 -1.61692e-7 -0.03141111 0.9995064 -27.36198 0.9999999 -4.87749e-7 3.31958e-7 0.008926391 0 0 0 1 0.1652383 0.6346879 -0.7548953 21.93839 0.3779677 0.6662262 0.6428711 -5.40942 0.9109536 -0.3915531 -0.1298056 2.654164 0 0 0 1 -0.3769151 -0.9179369 0.1237981 -4.74592 -0.1676271 -0.06384927 -0.9837806 11.66156 0.9109533 -0.3915539 -0.1298055 2.654155 0 0 0 1 0.296406 0.8401566 -0.4541791 21.00794 0.2868917 0.3752617 0.8814032 -4.733648 0.9109535 -0.3915537 -0.129804 2.654137 0 0 0 1 -0.1457058 0.6220244 -0.7693213 21.9784 0.3667339 -0.6882609 -0.6259418 5.184162 -0.9188448 -0.3733398 -0.1278333 2.40145 0 0 0 1 0.3530666 -0.9224565 0.1562668 -5.083537 -0.176261 0.09845072 0.9794078 -11.49989 -0.9188449 -0.3733397 -0.1278331 2.401452 0 0 0 1 -0.2765632 0.840311 -0.4662494 21.41893 0.2814896 -0.3930567 -0.8753685 4.795796 -0.9188451 -0.3733395 -0.1278337 2.401469 0 0 0 1 4.00967e-7 0.9792221 0.20279 7.167076 -2.26394e-7 -0.20279 0.9792222 -26.05594 0.9999999 -4.82483e-7 3.24566e-7 0.02709746 0 0 0 1 0.005547702 -0.809143 -0.5875855 -6.871329 -0.2368031 -0.5719445 0.7853683 -25.02123 -0.9715417 0.134785 -0.1947808 9.295196 0 0 0 1 -0.154682 -0.9837847 0.09077841 -26.28701 -0.1793882 0.1183243 0.9766365 -9.966361 -0.9715417 0.1347833 -0.1947826 9.295186 0 0 0 1 -0.004086077 -0.7973897 -0.6034513 -6.341534 -0.2215262 0.5891846 -0.7770376 25.31437 0.9751458 0.1305053 -0.1790502 8.827133 0 0 0 1 0.1485933 -0.9846478 0.09159076 -26.28141 -0.1643481 -0.1159205 -0.9795673 10.05379 0.975146 0.1305044 -0.1790496 8.827104 0 0 0 1 0.1568712 -0.9659933 -0.2055434 -20.18434 8.43368e-4 -0.2079891 0.9781308 -26.78181 -0.9876186 -0.153613 -0.03181397 -1.646023 0 0 0 1 0 0.6252444 0.780429 0.1491204 -2.06987e-6 -0.7804289 0.6252443 -34.72668 0.9999998 -1.19209e-6 2.12342e-7 -1.867572 0 0 0 1 -0.01692634 -0.9588906 -0.2832706 -18.06939 0.999857 -0.01623123 -0.004796743 1.517108 1.39437e-6 -0.2833111 0.9590279 -28.28232 0 0 0 1 7.72114e-7 0.6252448 0.7804285 0.4670662 -1.47707e-6 -0.7804283 0.6252449 -34.78501 1 -1.87755e-6 1.45286e-7 1.860109 0 0 0 1 -0.1062096 0.5460052 -0.831022 18.88188 -0.2663515 -0.8208299 -0.5052673 13.71127 -0.9580063 0.1676797 0.2326091 2.653995 0 0 0 1 0.2843959 0.659363 0.6959593 -15.11929 -0.03667467 0.7328864 -0.6793617 3.756143 -0.958005 0.1676837 0.2326117 2.653909 0 0 0 1 -0.19001 0.2362806 -0.9529256 25.37289 -0.214751 -0.9571065 -0.1944964 30.70727 -0.9580074 0.1676853 0.2326009 2.654214 0 0 0 1 0.0957936 0.4996417 -0.8609191 19.47743 -0.2676333 0.8459764 0.46119 -12.76458 0.958747 0.1862315 0.21476 3.043508 0 0 0 1 -0.2838733 0.6668556 0.6889986 -14.4719 -0.01489949 -0.72154 0.6922122 -3.82248 0.958746 0.1862348 0.2147619 3.043465 0 0 0 1 0.1739693 0.213079 -0.9614214 26.0417 -0.2248081 0.9591219 0.17189 -30.85739 0.9587469 0.186232 0.2147603 3.043549 0 0 0 1 0 0.528441 0.8489698 -23.89858 -4.23474e-7 -0.8489699 0.5284408 -8.36359 0.9999999 -3.98082e-7 4.16941e-7 -0.02745389 0 0 0 1 -0.9652108 0.2130929 0.1515229 -14.38917 0.1349442 -0.0903927 0.9867214 -33.74266 0.2239599 0.9728414 0.05849254 -12.70535 0 0 0 1 -0.0815829 -0.5793169 -0.8110092 37.67505 0.1139067 0.8029703 -0.5850331 12.26254 0.990136 -0.1401084 4.7943e-4 17.91218 0 0 0 1 -0.08638155 -0.6077446 0.7894204 -16.45094 -0.110315 -0.7816746 -0.6138527 12.54026 0.9901357 -0.1401107 4.79235e-4 17.91219 0 0 0 1 -0.05204963 -0.3710148 -0.9271669 33.39491 0.1300819 0.9179962 -0.3746476 32.55884 0.990136 -0.1401082 4.81129e-4 17.91219 0 0 0 1 0.9754877 0.1903876 0.1103475 -12.25557 -0.0982027 -0.07211285 0.9925501 -34.46152 0.1969266 -0.9790571 -0.05164837 12.79623 0 0 0 1 0.101574 -0.6649618 -0.7399381 35.48079 -0.1113461 0.7315126 -0.6726747 16.4089 0.9885773 0.1507155 2.61873e-4 -17.55786 0 0 0 1 0.09189933 -0.6042529 0.7914749 -18.87033 0.1194496 -0.7824096 -0.6112012 12.4476 0.988578 0.1507104 2.75016e-4 -17.55816 0 0 0 1 0.0569843 -0.3721668 -0.9264149 33.35474 -0.1395235 0.9158481 -0.3765039 32.55349 0.9885779 0.1507115 2.62856e-4 -17.55792 0 0 0 1 0.9754877 0.1903876 0.1103475 -12.25557 -0.0982027 -0.07211285 0.9925501 -34.46152 0.1969266 -0.9790571 -0.05164837 12.79623 0 0 0 1 7.43726e-6 0.4989417 0.8666355 -21.23857 0.4453388 -0.7759542 0.4467308 -16.31491 0.8953621 0.3859431 -0.2222036 8.114945 0 0 0 1 -0.005778849 0.4989351 0.8666203 -21.31979 -0.3239259 -0.8208401 0.4704186 -17.24374 0.9460646 -0.2780023 0.1663616 -6.034359 0 0 0 1</float_array>
          <technique_common>
            <accessor source="#antlion_wings_reference_skeleton_antlion_wings_reference-skin-bind_poses-array" count="35" stride="16">
              <param name="TRANSFORM" type="float4x4"/>
            </accessor>
          </technique_common>
        </source>
        <source id="antlion_wings_reference_skeleton_antlion_wings_reference-skin-weights">
          <float_array id="antlion_wings_reference_skeleton_antlion_wings_reference-skin-weights-array" count="98">1 1 1 1 1 1 1 1 1 1 1 1 1 1 1 1 1 1 1 1 1 1 1 1 1 1 1 1 1 1 1 1 1 1 1 1 1 1 1 1 1 1 1 1 1 1 1 1 1 1 1 1 1 1 1 1 1 1 1 1 1 1 1 1 1 1 1 1 1 1 1 1 1 1 1 1 1 1 1 1 1 1 1 1 1 1 1 1 1 1 1 1 1 1 1 1 1 1</float_array>
          <technique_common>
            <accessor source="#antlion_wings_reference_skeleton_antlion_wings_reference-skin-weights-array" count="98" stride="1">
              <param name="WEIGHT" type="float"/>
            </accessor>
          </technique_common>
        </source>
        <joints>
          <input semantic="JOINT" source="#antlion_wings_reference_skeleton_antlion_wings_reference-skin-joints"/>
          <input semantic="INV_BIND_MATRIX" source="#antlion_wings_reference_skeleton_antlion_wings_reference-skin-bind_poses"/>
        </joints>
        <vertex_weights count="98">
          <input semantic="JOINT" source="#antlion_wings_reference_skeleton_antlion_wings_reference-skin-joints" offset="0"/>
          <input semantic="WEIGHT" source="#antlion_wings_reference_skeleton_antlion_wings_reference-skin-weights" offset="1"/>
          <vcount>1 1 1 1 1 1 1 1 1 1 1 1 1 1 1 1 1 1 1 1 1 1 1 1 1 1 1 1 1 1 1 1 1 1 1 1 1 1 1 1 1 1 1 1 1 1 1 1 1 1 1 1 1 1 1 1 1 1 1 1 1 1 1 1 1 1 1 1 1 1 1 1 1 1 1 1 1 1 1 1 1 1 1 1 1 1 1 1 1 1 1 1 1 1 1 1 1 1 </vcount>
          <v>0 0 0 1 0 2 0 3 0 4 0 5 0 6 0 7 0 8 0 9 0 10 0 11 0 12 0 13 0 14 0 15 0 16 0 17 0 18 0 19 0 20 0 21 0 22 0 23 0 24 0 25 0 26 0 27 0 28 0 29 0 30 0 31 0 32 0 33 0 34 0 35 0 36 0 37 0 38 0 39 0 40 0 41 0 42 0 43 0 44 0 45 0 46 0 47 0 48 0 49 0 50 0 51 0 52 0 53 0 54 0 55 0 56 0 57 0 58 0 59 0 60 0 61 0 62 0 63 0 64 0 65 0 66 0 67 0 68 0 69 0 70 0 71 0 72 0 73 0 74 0 75 0 76 0 77 0 78 0 79 0 80 0 81 0 82 0 83 0 84 0 85 0 86 0 87 0 88 0 89 0 90 0 91 0 92 0 93 0 94 0 95 0 96 0 97</v>
        </vertex_weights>
      </skin>
    </controller>
  </library_controllers>
  <library_visual_scenes>
    <visual_scene id="Default" name="Default">
      <node id="antlion_wings_reference_skeleton" name="antlion_wings_reference_skeleton" type="NODE">
        <matrix sid="transform">1 0 0 0 0 1 0 0 0 0 1 0 0 0 0 1</matrix>
        <node id="Antlion_Body_Bone" name="Antlion.Body_Bone" sid="Antlion_Body_Bone" type="JOINT">
          <matrix sid="transform">3.56157e-7 -4.32134e-7 1 -0.063165 0.970296 -0.2419211 -4.06057e-7 1.526461 0.2419211 0.970296 1.49012e-7 24.72146 0 0 0 1</matrix>
          <node id="Antlion_Chest_Bone" name="Antlion.Chest_Bone" sid="Antlion_Chest_Bone" type="JOINT">
            <matrix sid="transform">0.9774164 0.2113238 -3.66983e-8 -4.609666 -0.211323 0.9774163 7.93432e-9 3.759708 3.24568e-8 -7.26743e-10 1 0.05423096 0 0 0 1</matrix>
            <node id="Antlion_ArmR1_Bone" name="Antlion.ArmR1_Bone" sid="Antlion_ArmR1_Bone" type="JOINT">
              <matrix sid="transform">0.610663 0.6860906 -0.3954368 -5.638217 -0.7744594 0.6216267 -0.1174427 -6.697229 0.1652377 0.3779676 0.9109539 -3.98936 0 0 0 1</matrix>
              <node id="Antlion_ArmR2_Bone" name="Antlion.ArmR2_Bone" sid="Antlion_ArmR2_Bone" type="JOINT">
                <matrix sid="transform">-0.7383397 0.6744292 -4.76837e-7 10.5694 -0.6744293 -0.7383395 -8.56817e-7 -1.28746e-5 -9.18284e-7 -1.49012e-8 1 5.00679e-6 0 0 0 1</matrix>
                <node id="Antlion_ArmR3_Bone" name="Antlion.ArmR3_Bone" sid="Antlion_ArmR3_Bone" type="JOINT">
                  <matrix sid="transform">-0.9391588 -0.3434842 -1.13621e-7 13.35793 0.3434842 -0.9391586 -1.2517e-6 2.57492e-5 4.06057e-7 -1.43051e-6 1 9.53674e-7 0 0 0 1</matrix>
                </node>
              </node>
            </node>
            <node id="Antlion_ArmL1_Bone" name="Antlion.ArmL1_Bone" sid="Antlion_ArmL1_Bone" type="JOINT">
              <matrix sid="transform">0.5975519 -0.7075825 -0.3771714 -5.56141 -0.7884802 -0.6040138 -0.1160432 -6.622467 -0.1457068 0.3667339 -0.9188447 3.516681 0 0 0 1</matrix>
              <node id="Antlion_ArmL2_Bone" name="Antlion.ArmL2_Bone" sid="Antlion_ArmL2_Bone" type="JOINT">
                <matrix sid="transform">-0.7454525 -0.6665578 -6.18398e-7 10.52352 0.6665577 -0.7454532 -3.05474e-7 0 4.65661e-8 -2.23517e-7 0.9999999 -4.05312e-6 0 0 0 1</matrix>
                <node id="Antlion_ArmL3_Bone" name="Antlion.ArmL3_Bone" sid="Antlion_ArmL3_Bone" type="JOINT">
                  <matrix sid="transform">-0.9456567 0.3251717 -2.62633e-7 13.61196 -0.3251718 -0.945655 -4.91738e-7 1.05858e-4 -5.10365e-7 -4.54485e-7 0.9999999 -4.29153e-6 0 0 0 1</matrix>
                </node>
              </node>
            </node>
            <node id="Antlion_Head_Bone" name="Antlion.Head_Bone" sid="Antlion_Head_Bone" type="JOINT">
              <matrix sid="transform">0.9851088 -0.1719316 4.80096e-9 -8.542347 0.1719314 0.9851089 -7.60841e-9 -2.926285 -3.52057e-9 8.34348e-9 1 -0.01817083 0 0 0 1</matrix>
              <node id="Antlion_FangBottomL1_Bone" name="Antlion.FangBottomL1_Bone" sid="Antlion_FangBottomL1_Bone" type="JOINT">
                <matrix sid="transform">-0.9114873 -0.4007958 0.09248447 -9.984119 -0.4112907 0.8850351 -0.2180665 -4.710426 0.005548149 -0.2368028 -0.9715419 3.170795 0 0 0 1</matrix>
                <node id="Antlion_FangBottomL2_Bone" name="Antlion.FangBottomL2_Bone" sid="Antlion_FangBottomL2_Bone" type="JOINT">
                  <matrix sid="transform">0.7418244 -0.6705942 2.49594e-6 5.945616 0.6705941 0.7418244 -4.47035e-7 -1.90735e-5 -1.52737e-6 1.92225e-6 1 -1.14441e-5 0 0 0 1</matrix>
                </node>
              </node>
              <node id="Antlion_FangBottomR1_Bone" name="Antlion.FangBottomR1_Bone" sid="Antlion_FangBottomR1_Bone" type="JOINT">
                <matrix sid="transform">-0.903195 0.4193669 0.09148414 -9.984119 -0.4292101 -0.8803734 -0.2017956 -4.710426 -0.004085839 -0.2215269 0.9751456 -2.998738 0 0 0 1</matrix>
                <node id="Antlion_FangBottomR2_Bone" name="Antlion.FangBottomR2_Bone" sid="Antlion_FangBottomR2_Bone" type="JOINT">
                  <matrix sid="transform">0.7292697 0.6842263 6.78003e-7 5.945625 -0.6842263 0.7292699 -8.19564e-7 1.33514e-5 -9.23872e-7 5.36442e-7 1 -2.86102e-6 0 0 0 1</matrix>
                </node>
              </node>
              <node id="Antlion_FangTopL1_Bone" name="Antlion.FangTopL1_Bone" sid="Antlion_FangTopL1_Bone" type="JOINT">
                <matrix sid="transform">-0.9876044 -0.005312562 -0.1568733 -13.16756 -0.005378991 0.9999855 -1.36904e-6 0.6169052 0.1568711 8.42468e-4 -0.9876187 1.590356 0 0 0 1</matrix>
                <node id="Antlion_FangTopL2_Bone" name="Antlion.FangTopL2_Bone" sid="Antlion_FangTopL2_Bone" type="JOINT">
                  <matrix sid="transform">-0.7643938 0.6253743 0.1568723 1.939791 0.6333176 0.7738916 8.43622e-4 9.53674e-6 -0.1208749 0.09999365 -0.9876186 3.57628e-7 0 0 0 1</matrix>
                </node>
              </node>
              <node id="Antlion_FangTopR1_Bone" name="Antlion.FangTopR1_Bone" sid="Antlion_FangTopR1_Bone" type="JOINT">
                <matrix sid="transform">-0.9964115 -0.01686634 -0.08294331 -13.15771 -0.08293138 -0.001405885 0.9965543 0.6325378 -0.01692485 0.9998564 2.17478e-6 -1.795552 0 0 0 1</matrix>
                <node id="Antlion_FangTopR2_Bone" name="Antlion.FangTopR2_Bone" sid="Antlion_FangTopR2_Bone" type="JOINT">
                  <matrix sid="transform">-0.8206141 0.5712323 -0.01692466 2.215698 -0.013891 0.009666648 0.9998568 7.7486e-6 0.571314 0.8207316 1.9617e-6 -7.62939e-6 0 0 0 1</matrix>
                </node>
              </node>
            </node>
          </node>
          <node id="Antlion_LegMidL1_Bone" name="Antlion.LegMidL1_Bone" sid="Antlion_LegMidL1_Bone" type="JOINT">
            <matrix sid="transform">0.3287449 -0.9186831 0.2189718 -1.65392 -0.9384273 -0.2916834 0.185135 -2.390574 -0.10621 -0.2663513 -0.9580065 8.263161 0 0 0 1</matrix>
            <node id="Antlion_LegMidL2_Bone" name="Antlion.LegMidL2_Bone" sid="Antlion_LegMidL2_Bone" type="JOINT">
              <matrix sid="transform">-0.2485474 0.9686196 -5.96046e-8 11.48575 -0.9686197 -0.2485476 -4.80562e-6 2.47955e-5 -4.79817e-6 -1.04308e-6 1 1.7643e-5 0 0 0 1</matrix>
              <node id="Antlion_LegMidL3_Bone" name="Antlion.LegMidL3_Bone" sid="Antlion_LegMidL3_Bone" type="JOINT">
                <matrix sid="transform">-0.5614413 -0.8275168 -7.06315e-6 24.5369 0.8275169 -0.5614411 8.71718e-6 -5.60284e-5 -1.11908e-5 -1.04681e-6 0.9999999 1.19209e-5 0 0 0 1</matrix>
              </node>
            </node>
          </node>
          <node id="Antlion_LegMidR1_Bone" name="Antlion.LegMidR1_Bone" sid="Antlion_LegMidR1_Bone" type="JOINT">
            <matrix sid="transform">0.2765257 0.9324192 0.2326551 -1.65392 -0.95622 0.242832 0.1633272 -2.390579 0.09579331 -0.2676336 0.958747 -8.136834 0 0 0 1</matrix>
            <node id="Antlion_LegMidR2_Bone" name="Antlion.LegMidR2_Bone" sid="Antlion_LegMidR2_Bone" type="JOINT">
              <matrix sid="transform">-0.2871768 -0.9578778 -4.47035e-8 11.65997 0.9578776 -0.2871767 3.97116e-6 -1.23978e-5 -3.8743e-6 1.05798e-6 1 -8.34465e-6 0 0 0 1</matrix>
              <node id="Antlion_LegMidR3_Bone" name="Antlion.LegMidR3_Bone" sid="Antlion_LegMidR3_Bone" type="JOINT">
                <matrix sid="transform">-0.569711 0.8218452 -3.30806e-6 25.72436 -0.8218453 -0.5697108 8.49366e-7 -2.00272e-5 -1.10269e-6 3.17767e-6 1 4.36306e-5 0 0 0 1</matrix>
              </node>
            </node>
          </node>
          <node id="Antlion_Back_Bone" name="Antlion.Back_Bone" sid="Antlion_Back_Bone" type="JOINT">
            <matrix sid="transform">0.718128 -0.6959113 7.10325e-8 3.880162 0.6959116 0.7181273 6.8835e-8 -0.9804211 -1.02342e-7 3.83088e-9 1 0.09060901 0 0 0 1</matrix>
            <node id="Antlion_LegShoulder_R_Bone" name="Antlion.LegShoulder_R_Bone" sid="Antlion_LegShoulder_R_Bone" type="JOINT">
              <matrix sid="transform">0.2412456 0.7899297 0.5637478 13.38969 -0.100838 0.5981646 -0.7950036 0.2683029 -0.9652109 0.1349439 0.2239596 -6.517192 0 0 0 1</matrix>
              <node id="Antlion_LegL1_Bone" name="Antlion.LegL1_Bone" sid="Antlion_LegL1_Bone" type="JOINT">
                <matrix sid="transform">-0.1675899 -0.02748282 -0.9854736 9.913781 -0.7588834 -0.6344764 0.1467506 -2.28882e-5 -0.6292931 0.7724535 0.08547574 4.76837e-6 0 0 0 1</matrix>
                <node id="Antlion_LegL2_Bone" name="Antlion.LegL2_Bone" sid="Antlion_LegL2_Bone" type="JOINT">
                  <matrix sid="transform">-0.2811032 0.9596776 1.78954e-6 21.016 -0.9596776 -0.2811032 -1.67248e-6 7.15256e-5 -1.27681e-6 -1.97589e-6 1 -5.72205e-6 0 0 0 1</matrix>
                  <node id="Antlion_LegL3_Bone" name="Antlion.LegL3_Bone" sid="Antlion_LegL3_Bone" type="JOINT">
                    <matrix sid="transform">-0.5019463 -0.8648989 -2.36032e-8 28.47163 0.8648989 -0.5019462 -3.26909e-6 -1.13487e-4 2.72988e-6 -1.66918e-6 1 -3.24249e-5 0 0 0 1</matrix>
                  </node>
                </node>
              </node>
            </node>
            <node id="Antlion_LegShoulder_L_Bone" name="Antlion.LegShoulder_L_Bone" sid="Antlion_LegShoulder_L_Bone" type="JOINT">
              <matrix sid="transform">0.1942902 0.8045379 -0.5612216 13.38968 -0.1033217 0.5857255 0.8038966 0.268302 0.9754874 -0.0982028 0.196927 6.023557 0 0 0 1</matrix>
              <node id="Antlion_LegR1_Bone" name="Antlion.LegR1_Bone" sid="Antlion_LegR1_Bone" type="JOINT">
                <matrix sid="transform">-0.1091665 -0.04357379 0.9930681 9.768898 -0.6964484 -0.7094806 -0.1076896 7.62939e-6 0.7092547 -0.7033769 0.0471045 9.53674e-7 0 0 0 1</matrix>
                <node id="Antlion_LegR2_Bone" name="Antlion.LegR2_Bone" sid="Antlion_LegR2_Bone" type="JOINT">
                  <matrix sid="transform">-0.1745031 0.9846567 -6.37499e-6 19.93114 -0.9846567 -0.1745028 -1.27242e-5 2.09808e-5 -1.35617e-5 3.99718e-6 1 -7.62939e-6 0 0 0 1</matrix>
                  <node id="Antlion_LegR3_Bone" name="Antlion.LegR3_Bone" sid="Antlion_LegR3_Bone" type="JOINT">
                    <matrix sid="transform">-0.5031147 -0.8642195 -1.01677e-5 26.04412 0.8642195 -0.5031148 6.51411e-6 4.1008e-5 -1.08542e-5 -5.53961e-6 0.9999999 2.99454e-4 0 0 0 1</matrix>
                  </node>
                </node>
              </node>
            </node>
            <node id="Antlion_bone" name="Antlion.bone" sid="Antlion_bone" type="JOINT">
              <matrix sid="transform">0.1942902 0.8045379 -0.5612216 13.38968 -0.1033217 0.5857255 0.8038966 0.268302 0.9754874 -0.0982028 0.196927 6.023557 0 0 0 1</matrix>
            </node>
          </node>
          <node id="Antlion_WingL_Bone" name="Antlion.WingL_Bone" sid="Antlion_WingL_Bone" type="JOINT">
            <matrix sid="transform">0.6937787 -0.6448317 0.3207236 -5.849916 0.7201889 0.6211802 -0.3089712 4.31971 7.25357e-6 0.4453391 0.8953619 0.06316395 0 0 0 1</matrix>
          </node>
          <node id="Antlion_WingR_Bone" name="Antlion.WingR_Bone" sid="Antlion_WingR_Bone" type="JOINT">
            <matrix sid="transform">0.6937686 -0.6826538 -0.2294978 -5.827138 0.7201753 0.6550233 0.228674 4.411079 -0.005778823 -0.3239255 0.946065 0.06316395 0 0 0 1</matrix>
          </node>
        </node>
      </node>
      <node id="antlion_wings_reference" name="antlion_wings_reference" type="NODE">
        <translate sid="location">0 0 0</translate>
        <rotate sid="rotationZ">0 0 1 0</rotate>
        <rotate sid="rotationY">0 1 0 0</rotate>
        <rotate sid="rotationX">1 0 0 0</rotate>
        <scale sid="scale">1 1 1</scale>
        <instance_controller url="#antlion_wings_reference_skeleton_antlion_wings_reference-skin">
          <skeleton>#Antlion_Body_Bone</skeleton>
          <bind_material>
            <technique_common>
              <instance_material symbol="wingblur-material" target="#wingblur-material">
                <bind_vertex_input semantic="UVMap" input_semantic="TEXCOORD" input_set="0"/>
              </instance_material>
            </technique_common>
          </bind_material>
        </instance_controller>
      </node>
    </visual_scene>
  </library_visual_scenes>
  <scene>
    <instance_visual_scene url="#Default"/>
  </scene>
</COLLADA>